@startuml{photoSequence_ImageAPI.png}
title ダイニング写真表示の表示フロー

/'
 ' ステークホルダー
 '/
actor ユーザー as user
participant Browser as browser
participant Frontend as front
participant MemCached as cache
participant LSBE as api
participant ImageWizard as image

/'
 ' 業務フロー
 '/

user -> browser: 写真一覧を見る
activate browser
  browser -> front: api: /detail/<tenpoId>|<gid>/photo
  ref#9EC5EE over front: Request
  activate front
    group 共通処理
      front --> front:共通処理
      front --> front:データバインド
    end
    browser <-- front: 店舗写真ページへ遷移
  deactivate front
  ref#9EC5EE over browser: Response
  user <-- browser: 写真一覧ページ表示
  ref#9EC5EE over user: 写真一覧ページ
deactivate browser
@enduml
