{
  "ResultInfo": {
    "Total": 100,
    "Count": 100,
    "Start": 1,
    "Status": 200,
    "Latency": 0.093034982681274,
    "Description": null,
    "Copyright": "Copyright (C) 2018 Yahoo Japan Corporation. All Rights Reserved."
  },
  "Feature": [
    {
      "Property": {
        "Uid": "68e7395688f8e9cca7701fe63d5087d375baa247",
        "CassetteId": "f36856888c3e162faa2f783099138b94",
        "Image": {
          "Id": "b3084dc2555de1fa62ba5d8094cbcd51893140da",
          "ImageUrl": "https://img.retty.me/img_repo/l/01/14579366.jpg",
          "Caption": null,
          "LinkUrl": null,
          "Author": null,
          "Guid": null,
          "Category": null,
          "Tag": null,
          "CreateDate": "2018-03-02T05:31:46+09:00",
          "UpdateDate": "2018-03-02T05:31:46+09:00",
          "UsefulCount": 0,
          "InputSource": "yolpcp",
          "Type": "poi",
          "ItemId": null,
          "CustomExact1": null
        }
      }
    },
    {
      "Property": {
        "Uid": "68e7395688f8e9cca7701fe63d5087d375baa247",
        "CassetteId": "f36856888c3e162faa2f783099138b94",
        "Image": {
          "Id": "252cbc8e34521e2397e20b862bf9350c5d270397",
          "ImageUrl": "https://img.retty.me/img_repo/l/01/14579335.jpg",
          "Caption": null,
          "LinkUrl": null,
          "Author": null,
          "Guid": null,
          "Category": null,
          "Tag": null,
          "CreateDate": "2018-03-02T05:31:46+09:00",
          "UpdateDate": "2018-03-02T05:31:46+09:00",
          "UsefulCount": 0,
          "InputSource": "yolpcp",
          "Type": "poi",
          "ItemId": null,
          "CustomExact1": null
        }
      }
    },
    {
      "Property": {
        "Uid": "68e7395688f8e9cca7701fe63d5087d375baa247",
        "CassetteId": "f36856888c3e162faa2f783099138b94",
        "Image": {
          "Id": "904e2bcc4552d82b6e01e6566d4e6fc0308cbac5",
          "ImageUrl": "https://img.retty.me/img_repo/l/01/14579370.jpg",
          "Caption": null,
          "LinkUrl": null,
          "Author": null,
          "Guid": null,
          "Category": null,
          "Tag": null,
          "CreateDate": "2018-03-02T05:31:45+09:00",
          "UpdateDate": "2018-03-02T05:31:45+09:00",
          "UsefulCount": 0,
          "InputSource": "yolpcp",
          "Type": "poi",
          "ItemId": null,
          "CustomExact1": null
        }
      }
    },
    {
      "Property": {
        "Uid": "68e7395688f8e9cca7701fe63d5087d375baa247",
        "CassetteId": "f36856888c3e162faa2f783099138b94",
        "Image": {
          "Id": "6e1148013338e750dc07dffc111d3e359e16e5d5",
          "ImageUrl": "https://img.retty.me/img_repo/l/01/14595769.jpg",
          "Caption": null,
          "LinkUrl": null,
          "Author": null,
          "Guid": null,
          "Category": null,
          "Tag": null,
          "CreateDate": "2018-03-02T05:31:45+09:00",
          "UpdateDate": "2018-03-02T05:31:45+09:00",
          "UsefulCount": 0,
          "InputSource": "yolpcp",
          "Type": "poi",
          "ItemId": null,
          "CustomExact1": null
        }
      }
    },
    {
      "Property": {
        "Uid": "68e7395688f8e9cca7701fe63d5087d375baa247",
        "CassetteId": "f36856888c3e162faa2f783099138b94",
        "Image": {
          "Id": "21288cf2256889e1e8bdd6d3480ab2ca99d6447a",
          "ImageUrl": "https://img.retty.me/img_repo/l/01/14579369.jpg",
          "Caption": null,
          "LinkUrl": null,
          "Author": null,
          "Guid": null,
          "Category": null,
          "Tag": null,
          "CreateDate": "2018-03-02T05:31:45+09:00",
          "UpdateDate": "2018-03-02T05:31:45+09:00",
          "UsefulCount": 0,
          "InputSource": "yolpcp",
          "Type": "poi",
          "ItemId": null,
          "CustomExact1": null
        }
      }
    },
    {
      "Property": {
        "Uid": "68e7395688f8e9cca7701fe63d5087d375baa247",
        "CassetteId": "f36856888c3e162faa2f783099138b94",
        "Image": {
          "Id": "9636c024a18d3dc6f247ed64b096162cf72cf959",
          "ImageUrl": "https://img.retty.me/img_repo/l/01/14579368.jpg",
          "Caption": null,
          "LinkUrl": null,
          "Author": null,
          "Guid": null,
          "Category": null,
          "Tag": null,
          "CreateDate": "2018-03-02T05:31:45+09:00",
          "UpdateDate": "2018-03-02T05:31:45+09:00",
          "UsefulCount": 0,
          "InputSource": "yolpcp",
          "Type": "poi",
          "ItemId": null,
          "CustomExact1": null
        }
      }
    },
    {
      "Property": {
        "Uid": "68e7395688f8e9cca7701fe63d5087d375baa247",
        "CassetteId": "f36856888c3e162faa2f783099138b94",
        "Image": {
          "Id": "383b39165b763aa8ff353fbb4e2b6c381d728201",
          "ImageUrl": "https://img.retty.me/img_repo/l/01/14579367.jpg",
          "Caption": null,
          "LinkUrl": null,
          "Author": null,
          "Guid": null,
          "Category": null,
          "Tag": null,
          "CreateDate": "2018-03-02T05:31:45+09:00",
          "UpdateDate": "2018-03-02T05:31:45+09:00",
          "UsefulCount": 0,
          "InputSource": "yolpcp",
          "Type": "poi",
          "ItemId": null,
          "CustomExact1": null
        }
      }
    },
    {
      "Property": {
        "Uid": "68e7395688f8e9cca7701fe63d5087d375baa247",
        "CassetteId": "f36856888c3e162faa2f783099138b94",
        "Image": {
          "Id": "74e6219f411fee5b5c3e8ddadce2b94c555968ad",
          "ImageUrl": "https://img.retty.me/img_repo/l/01/14595771.jpg",
          "Caption": null,
          "LinkUrl": null,
          "Author": null,
          "Guid": null,
          "Category": null,
          "Tag": null,
          "CreateDate": "2018-03-02T05:31:44+09:00",
          "UpdateDate": "2018-03-02T05:31:44+09:00",
          "UsefulCount": 0,
          "InputSource": "yolpcp",
          "Type": "poi",
          "ItemId": null,
          "CustomExact1": null
        }
      }
    },
    {
      "Property": {
        "Uid": "68e7395688f8e9cca7701fe63d5087d375baa247",
        "CassetteId": "f36856888c3e162faa2f783099138b94",
        "Image": {
          "Id": "b363c5f03a2cbd7967c31d15e915630119db1d10",
          "ImageUrl": "https://img.retty.me/img_repo/l/01/14595773.jpg",
          "Caption": null,
          "LinkUrl": null,
          "Author": null,
          "Guid": null,
          "Category": null,
          "Tag": null,
          "CreateDate": "2018-03-02T05:31:44+09:00",
          "UpdateDate": "2018-03-02T05:31:44+09:00",
          "UsefulCount": 0,
          "InputSource": "yolpcp",
          "Type": "poi",
          "ItemId": null,
          "CustomExact1": null
        }
      }
    },
    {
      "Property": {
        "Uid": "68e7395688f8e9cca7701fe63d5087d375baa247",
        "CassetteId": "f36856888c3e162faa2f783099138b94",
        "Image": {
          "Id": "1ccd6e1f2796afd1241d6a78a1bd0f575909f20d",
          "ImageUrl": "https://img.retty.me/img_repo/l/01/14595770.jpg",
          "Caption": null,
          "LinkUrl": null,
          "Author": null,
          "Guid": null,
          "Category": null,
          "Tag": null,
          "CreateDate": "2018-03-02T05:31:44+09:00",
          "UpdateDate": "2018-03-02T05:31:44+09:00",
          "UsefulCount": 0,
          "InputSource": "yolpcp",
          "Type": "poi",
          "ItemId": null,
          "CustomExact1": null
        }
      }
    },
    {
      "Property": {
        "Uid": "68e7395688f8e9cca7701fe63d5087d375baa247",
        "CassetteId": "f36856888c3e162faa2f783099138b94",
        "Image": {
          "Id": "ec1c8e5bb9018e22f54908ddfd664433cccffadc",
          "ImageUrl": "https://img.retty.me/img_repo/l/01/14595772.jpg",
          "Caption": null,
          "LinkUrl": null,
          "Author": null,
          "Guid": null,
          "Category": null,
          "Tag": null,
          "CreateDate": "2018-03-02T05:31:44+09:00",
          "UpdateDate": "2018-03-02T05:31:44+09:00",
          "UsefulCount": 0,
          "InputSource": "yolpcp",
          "Type": "poi",
          "ItemId": null,
          "CustomExact1": null
        }
      }
    },
    {
      "Property": {
        "Uid": "68e7395688f8e9cca7701fe63d5087d375baa247",
        "CassetteId": "f36856888c3e162faa2f783099138b94",
        "Image": {
          "Id": "d85127d564aa31d1547bf45cebad4c663852a5c8",
          "ImageUrl": "https://img.retty.me/img_repo/l/01/14625248.jpg",
          "Caption": null,
          "LinkUrl": null,
          "Author": null,
          "Guid": null,
          "Category": null,
          "Tag": null,
          "CreateDate": "2018-03-02T05:31:43+09:00",
          "UpdateDate": "2018-03-02T05:31:43+09:00",
          "UsefulCount": 0,
          "InputSource": "yolpcp",
          "Type": "poi",
          "ItemId": null,
          "CustomExact1": null
        }
      }
    },
    {
      "Property": {
        "Uid": "68e7395688f8e9cca7701fe63d5087d375baa247",
        "CassetteId": "f36856888c3e162faa2f783099138b94",
        "Image": {
          "Id": "d15cda9dcb7e5b04a3e13f2e29e358421ce9fcff",
          "ImageUrl": "https://img.retty.me/img_repo/l/01/14625245.jpg",
          "Caption": null,
          "LinkUrl": null,
          "Author": null,
          "Guid": null,
          "Category": null,
          "Tag": null,
          "CreateDate": "2018-03-02T05:31:43+09:00",
          "UpdateDate": "2018-03-02T05:31:43+09:00",
          "UsefulCount": 0,
          "InputSource": "yolpcp",
          "Type": "poi",
          "ItemId": null,
          "CustomExact1": null
        }
      }
    },
    {
      "Property": {
        "Uid": "68e7395688f8e9cca7701fe63d5087d375baa247",
        "CassetteId": "f36856888c3e162faa2f783099138b94",
        "Image": {
          "Id": "c568d5bbebee07c9b67c2c3287ef8173a1153d4d",
          "ImageUrl": "https://img.retty.me/img_repo/l/01/14625247.jpg",
          "Caption": null,
          "LinkUrl": null,
          "Author": null,
          "Guid": null,
          "Category": null,
          "Tag": null,
          "CreateDate": "2018-03-02T05:31:43+09:00",
          "UpdateDate": "2018-03-02T05:31:43+09:00",
          "UsefulCount": 0,
          "InputSource": "yolpcp",
          "Type": "poi",
          "ItemId": null,
          "CustomExact1": null
        }
      }
    },
    {
      "Property": {
        "Uid": "68e7395688f8e9cca7701fe63d5087d375baa247",
        "CassetteId": "f36856888c3e162faa2f783099138b94",
        "Image": {
          "Id": "63c18c9a5b0c547742aab49114bb8615bfa908a3",
          "ImageUrl": "https://img.retty.me/img_repo/l/01/14625246.jpg",
          "Caption": null,
          "LinkUrl": null,
          "Author": null,
          "Guid": null,
          "Category": null,
          "Tag": null,
          "CreateDate": "2018-03-02T05:31:43+09:00",
          "UpdateDate": "2018-03-02T05:31:43+09:00",
          "UsefulCount": 0,
          "InputSource": "yolpcp",
          "Type": "poi",
          "ItemId": null,
          "CustomExact1": null
        }
      }
    },
    {
      "Property": {
        "Uid": "68e7395688f8e9cca7701fe63d5087d375baa247",
        "CassetteId": "f36856888c3e162faa2f783099138b94",
        "Image": {
          "Id": "df0c2552d708fed40b950b4b24e0c1dbda9419cb",
          "ImageUrl": "https://img.retty.me/img_repo/l/01/14625252.jpg",
          "Caption": null,
          "LinkUrl": null,
          "Author": null,
          "Guid": null,
          "Category": null,
          "Tag": null,
          "CreateDate": "2018-03-02T05:31:43+09:00",
          "UpdateDate": "2018-03-02T05:31:43+09:00",
          "UsefulCount": 0,
          "InputSource": "yolpcp",
          "Type": "poi",
          "ItemId": null,
          "CustomExact1": null
        }
      }
    },
    {
      "Property": {
        "Uid": "68e7395688f8e9cca7701fe63d5087d375baa247",
        "CassetteId": "f36856888c3e162faa2f783099138b94",
        "Image": {
          "Id": "668d1c3d25e238cf9d5c9fd06de48b12957fc56e",
          "ImageUrl": "https://img.retty.me/img_repo/l/01/14625261.jpg",
          "Caption": null,
          "LinkUrl": null,
          "Author": null,
          "Guid": null,
          "Category": null,
          "Tag": null,
          "CreateDate": "2018-03-02T05:31:42+09:00",
          "UpdateDate": "2018-03-02T05:31:42+09:00",
          "UsefulCount": 0,
          "InputSource": "yolpcp",
          "Type": "poi",
          "ItemId": null,
          "CustomExact1": null
        }
      }
    },
    {
      "Property": {
        "Uid": "68e7395688f8e9cca7701fe63d5087d375baa247",
        "CassetteId": "f36856888c3e162faa2f783099138b94",
        "Image": {
          "Id": "b006423527fdbd5154924a114357736127c83293",
          "ImageUrl": "https://img.retty.me/img_repo/l/01/14625255.jpg",
          "Caption": null,
          "LinkUrl": null,
          "Author": null,
          "Guid": null,
          "Category": null,
          "Tag": null,
          "CreateDate": "2018-03-02T05:31:42+09:00",
          "UpdateDate": "2018-03-02T05:31:42+09:00",
          "UsefulCount": 0,
          "InputSource": "yolpcp",
          "Type": "poi",
          "ItemId": null,
          "CustomExact1": null
        }
      }
    },
    {
      "Property": {
        "Uid": "68e7395688f8e9cca7701fe63d5087d375baa247",
        "CassetteId": "f36856888c3e162faa2f783099138b94",
        "Image": {
          "Id": "854837f4a441cbd9c1466c4fb90b6184d444aa1d",
          "ImageUrl": "https://img.retty.me/img_repo/l/01/14625258.jpg",
          "Caption": null,
          "LinkUrl": null,
          "Author": null,
          "Guid": null,
          "Category": null,
          "Tag": null,
          "CreateDate": "2018-03-02T05:31:42+09:00",
          "UpdateDate": "2018-03-02T05:31:42+09:00",
          "UsefulCount": 0,
          "InputSource": "yolpcp",
          "Type": "poi",
          "ItemId": null,
          "CustomExact1": null
        }
      }
    },
    {
      "Property": {
        "Uid": "68e7395688f8e9cca7701fe63d5087d375baa247",
        "CassetteId": "f36856888c3e162faa2f783099138b94",
        "Image": {
          "Id": "aca4ece3237a86561ca1ceeb9dc9830ce87615fb",
          "ImageUrl": "https://img.retty.me/img_repo/l/01/14625253.jpg",
          "Caption": null,
          "LinkUrl": null,
          "Author": null,
          "Guid": null,
          "Category": null,
          "Tag": null,
          "CreateDate": "2018-03-02T05:31:42+09:00",
          "UpdateDate": "2018-03-02T05:31:42+09:00",
          "UsefulCount": 0,
          "InputSource": "yolpcp",
          "Type": "poi",
          "ItemId": null,
          "CustomExact1": null
        }
      }
    },
    {
      "Property": {
        "Uid": "68e7395688f8e9cca7701fe63d5087d375baa247",
        "CassetteId": "f36856888c3e162faa2f783099138b94",
        "Image": {
          "Id": "3972368c2d8da39128eac60ab0da3fd238aa52c8",
          "ImageUrl": "https://img.retty.me/img_repo/l/01/14625259.jpg",
          "Caption": null,
          "LinkUrl": null,
          "Author": null,
          "Guid": null,
          "Category": null,
          "Tag": null,
          "CreateDate": "2018-03-02T05:31:42+09:00",
          "UpdateDate": "2018-03-02T05:31:42+09:00",
          "UsefulCount": 0,
          "InputSource": "yolpcp",
          "Type": "poi",
          "ItemId": null,
          "CustomExact1": null
        }
      }
    },
    {
      "Property": {
        "Uid": "68e7395688f8e9cca7701fe63d5087d375baa247",
        "CassetteId": "f36856888c3e162faa2f783099138b94",
        "Image": {
          "Id": "ee9aa8c76652c69eb934355e706a40f44bb641ed",
          "ImageUrl": "https://img.retty.me/img_repo/l/01/14825185.jpg",
          "Caption": null,
          "LinkUrl": null,
          "Author": null,
          "Guid": null,
          "Category": null,
          "Tag": null,
          "CreateDate": "2018-03-02T05:31:41+09:00",
          "UpdateDate": "2018-03-02T05:31:41+09:00",
          "UsefulCount": 0,
          "InputSource": "yolpcp",
          "Type": "poi",
          "ItemId": null,
          "CustomExact1": null
        }
      }
    },
    {
      "Property": {
        "Uid": "68e7395688f8e9cca7701fe63d5087d375baa247",
        "CassetteId": "f36856888c3e162faa2f783099138b94",
        "Image": {
          "Id": "02b768b69819772316ab31d568c8c2e7382987dc",
          "ImageUrl": "https://img.retty.me/img_repo/l/01/14788742.jpg",
          "Caption": null,
          "LinkUrl": null,
          "Author": null,
          "Guid": null,
          "Category": null,
          "Tag": null,
          "CreateDate": "2018-03-02T05:31:41+09:00",
          "UpdateDate": "2018-03-02T05:31:41+09:00",
          "UsefulCount": 0,
          "InputSource": "yolpcp",
          "Type": "poi",
          "ItemId": null,
          "CustomExact1": null
        }
      }
    },
    {
      "Property": {
        "Uid": "68e7395688f8e9cca7701fe63d5087d375baa247",
        "CassetteId": "f36856888c3e162faa2f783099138b94",
        "Image": {
          "Id": "8340215334a55c2864a36d5b32a26bde4443f67a",
          "ImageUrl": "https://img.retty.me/img_repo/l/01/14625264.jpg",
          "Caption": null,
          "LinkUrl": null,
          "Author": null,
          "Guid": null,
          "Category": null,
          "Tag": null,
          "CreateDate": "2018-03-02T05:31:41+09:00",
          "UpdateDate": "2018-03-02T05:31:41+09:00",
          "UsefulCount": 0,
          "InputSource": "yolpcp",
          "Type": "poi",
          "ItemId": null,
          "CustomExact1": null
        }
      }
    },
    {
      "Property": {
        "Uid": "68e7395688f8e9cca7701fe63d5087d375baa247",
        "CassetteId": "f36856888c3e162faa2f783099138b94",
        "Image": {
          "Id": "6d508704274a8f09559764ca0990741d58c4f0f0",
          "ImageUrl": "https://img.retty.me/img_repo/l/01/14788741.jpg",
          "Caption": null,
          "LinkUrl": null,
          "Author": null,
          "Guid": null,
          "Category": null,
          "Tag": null,
          "CreateDate": "2018-03-02T05:31:41+09:00",
          "UpdateDate": "2018-03-02T05:31:41+09:00",
          "UsefulCount": 0,
          "InputSource": "yolpcp",
          "Type": "poi",
          "ItemId": null,
          "CustomExact1": null
        }
      }
    },
    {
      "Property": {
        "Uid": "68e7395688f8e9cca7701fe63d5087d375baa247",
        "CassetteId": "f36856888c3e162faa2f783099138b94",
        "Image": {
          "Id": "5ace5cf5f71d3641913b66b126f2f7d250f9a3a8",
          "ImageUrl": "https://img.retty.me/img_repo/l/01/14867740.jpg",
          "Caption": null,
          "LinkUrl": null,
          "Author": null,
          "Guid": null,
          "Category": null,
          "Tag": null,
          "CreateDate": "2018-03-02T05:31:40+09:00",
          "UpdateDate": "2018-03-02T05:31:40+09:00",
          "UsefulCount": 0,
          "InputSource": "yolpcp",
          "Type": "poi",
          "ItemId": null,
          "CustomExact1": null
        }
      }
    },
    {
      "Property": {
        "Uid": "68e7395688f8e9cca7701fe63d5087d375baa247",
        "CassetteId": "f36856888c3e162faa2f783099138b94",
        "Image": {
          "Id": "6e755d93e2677d36ea3d89ccae3581c5fdcf7371",
          "ImageUrl": "https://img.retty.me/img_repo/l/01/14867737.jpg",
          "Caption": null,
          "LinkUrl": null,
          "Author": null,
          "Guid": null,
          "Category": null,
          "Tag": null,
          "CreateDate": "2018-03-02T05:31:40+09:00",
          "UpdateDate": "2018-03-02T05:31:40+09:00",
          "UsefulCount": 0,
          "InputSource": "yolpcp",
          "Type": "poi",
          "ItemId": null,
          "CustomExact1": null
        }
      }
    },
    {
      "Property": {
        "Uid": "68e7395688f8e9cca7701fe63d5087d375baa247",
        "CassetteId": "f36856888c3e162faa2f783099138b94",
        "Image": {
          "Id": "84637a6e0e40ad05ec5659ba5258c721fba9f531",
          "ImageUrl": "https://img.retty.me/img_repo/l/01/14867741.jpg",
          "Caption": null,
          "LinkUrl": null,
          "Author": null,
          "Guid": null,
          "Category": null,
          "Tag": null,
          "CreateDate": "2018-03-02T05:31:40+09:00",
          "UpdateDate": "2018-03-02T05:31:40+09:00",
          "UsefulCount": 0,
          "InputSource": "yolpcp",
          "Type": "poi",
          "ItemId": null,
          "CustomExact1": null
        }
      }
    },
    {
      "Property": {
        "Uid": "68e7395688f8e9cca7701fe63d5087d375baa247",
        "CassetteId": "f36856888c3e162faa2f783099138b94",
        "Image": {
          "Id": "a0325df129e4975f0c1e006ada1122cc5d6fc300",
          "ImageUrl": "https://img.retty.me/img_repo/l/01/14867736.jpg",
          "Caption": null,
          "LinkUrl": null,
          "Author": null,
          "Guid": null,
          "Category": null,
          "Tag": null,
          "CreateDate": "2018-03-02T05:31:40+09:00",
          "UpdateDate": "2018-03-02T05:31:40+09:00",
          "UsefulCount": 0,
          "InputSource": "yolpcp",
          "Type": "poi",
          "ItemId": null,
          "CustomExact1": null
        }
      }
    },
    {
      "Property": {
        "Uid": "68e7395688f8e9cca7701fe63d5087d375baa247",
        "CassetteId": "f36856888c3e162faa2f783099138b94",
        "Image": {
          "Id": "141d4a47bffd391d5337ed3f1129828b506a0897",
          "ImageUrl": "https://img.retty.me/img_repo/l/01/14867739.jpg",
          "Caption": null,
          "LinkUrl": null,
          "Author": null,
          "Guid": null,
          "Category": null,
          "Tag": null,
          "CreateDate": "2018-03-02T05:31:40+09:00",
          "UpdateDate": "2018-03-02T05:31:40+09:00",
          "UsefulCount": 0,
          "InputSource": "yolpcp",
          "Type": "poi",
          "ItemId": null,
          "CustomExact1": null
        }
      }
    },
    {
      "Property": {
        "Uid": "68e7395688f8e9cca7701fe63d5087d375baa247",
        "CassetteId": "f36856888c3e162faa2f783099138b94",
        "Image": {
          "Id": "218583fd21920d70fed922aca6f7197bd5d5d69b",
          "ImageUrl": "https://img.retty.me/img_repo/l/01/14867738.jpg",
          "Caption": null,
          "LinkUrl": null,
          "Author": null,
          "Guid": null,
          "Category": null,
          "Tag": null,
          "CreateDate": "2018-03-02T05:31:40+09:00",
          "UpdateDate": "2018-03-02T05:31:40+09:00",
          "UsefulCount": 0,
          "InputSource": "yolpcp",
          "Type": "poi",
          "ItemId": null,
          "CustomExact1": null
        }
      }
    },
    {
      "Property": {
        "Uid": "68e7395688f8e9cca7701fe63d5087d375baa247",
        "CassetteId": "f36856888c3e162faa2f783099138b94",
        "Image": {
          "Id": "ace520352abae65572a8ee26de8d3bfea8a355e8",
          "ImageUrl": "https://img.retty.me/img_repo/l/01/14867747.jpg",
          "Caption": null,
          "LinkUrl": null,
          "Author": null,
          "Guid": null,
          "Category": null,
          "Tag": null,
          "CreateDate": "2018-03-02T05:31:39+09:00",
          "UpdateDate": "2018-03-02T05:31:39+09:00",
          "UsefulCount": 0,
          "InputSource": "yolpcp",
          "Type": "poi",
          "ItemId": null,
          "CustomExact1": null
        }
      }
    },
    {
      "Property": {
        "Uid": "68e7395688f8e9cca7701fe63d5087d375baa247",
        "CassetteId": "f36856888c3e162faa2f783099138b94",
        "Image": {
          "Id": "e14139bae75c19607e21c34ebff13263172c9095",
          "ImageUrl": "https://img.retty.me/img_repo/l/01/14873272.jpg",
          "Caption": null,
          "LinkUrl": null,
          "Author": null,
          "Guid": null,
          "Category": null,
          "Tag": null,
          "CreateDate": "2018-03-02T05:31:39+09:00",
          "UpdateDate": "2018-03-02T05:31:39+09:00",
          "UsefulCount": 0,
          "InputSource": "yolpcp",
          "Type": "poi",
          "ItemId": null,
          "CustomExact1": null
        }
      }
    },
    {
      "Property": {
        "Uid": "68e7395688f8e9cca7701fe63d5087d375baa247",
        "CassetteId": "f36856888c3e162faa2f783099138b94",
        "Image": {
          "Id": "7fc394b7bc669531d6b61cb70db7383b939ae4df",
          "ImageUrl": "https://img.retty.me/img_repo/l/01/14867755.jpg",
          "Caption": null,
          "LinkUrl": null,
          "Author": null,
          "Guid": null,
          "Category": null,
          "Tag": null,
          "CreateDate": "2018-03-02T05:31:39+09:00",
          "UpdateDate": "2018-03-02T05:31:39+09:00",
          "UsefulCount": 0,
          "InputSource": "yolpcp",
          "Type": "poi",
          "ItemId": null,
          "CustomExact1": null
        }
      }
    },
    {
      "Property": {
        "Uid": "68e7395688f8e9cca7701fe63d5087d375baa247",
        "CassetteId": "f36856888c3e162faa2f783099138b94",
        "Image": {
          "Id": "261cc507375a8bb323e60d947347d4938f3923a6",
          "ImageUrl": "https://img.retty.me/img_repo/l/01/14867746.jpg",
          "Caption": null,
          "LinkUrl": null,
          "Author": null,
          "Guid": null,
          "Category": null,
          "Tag": null,
          "CreateDate": "2018-03-02T05:31:39+09:00",
          "UpdateDate": "2018-03-02T05:31:39+09:00",
          "UsefulCount": 0,
          "InputSource": "yolpcp",
          "Type": "poi",
          "ItemId": null,
          "CustomExact1": null
        }
      }
    },
    {
      "Property": {
        "Uid": "68e7395688f8e9cca7701fe63d5087d375baa247",
        "CassetteId": "f36856888c3e162faa2f783099138b94",
        "Image": {
          "Id": "8a1ff1f9ffac0e8c1bea69301739c0e4500ac34c",
          "ImageUrl": "https://img.retty.me/img_repo/l/01/14873273.jpg",
          "Caption": null,
          "LinkUrl": null,
          "Author": null,
          "Guid": null,
          "Category": null,
          "Tag": null,
          "CreateDate": "2018-03-02T05:31:38+09:00",
          "UpdateDate": "2018-03-02T05:31:38+09:00",
          "UsefulCount": 0,
          "InputSource": "yolpcp",
          "Type": "poi",
          "ItemId": null,
          "CustomExact1": null
        }
      }
    },
    {
      "Property": {
        "Uid": "68e7395688f8e9cca7701fe63d5087d375baa247",
        "CassetteId": "f36856888c3e162faa2f783099138b94",
        "Image": {
          "Id": "a83ed833778ab35e6b70c48c64e73958af4b98d6",
          "ImageUrl": "https://img.retty.me/img_repo/l/01/14873277.jpg",
          "Caption": null,
          "LinkUrl": null,
          "Author": null,
          "Guid": null,
          "Category": null,
          "Tag": null,
          "CreateDate": "2018-03-02T05:31:38+09:00",
          "UpdateDate": "2018-03-02T05:31:38+09:00",
          "UsefulCount": 0,
          "InputSource": "yolpcp",
          "Type": "poi",
          "ItemId": null,
          "CustomExact1": null
        }
      }
    },
    {
      "Property": {
        "Uid": "68e7395688f8e9cca7701fe63d5087d375baa247",
        "CassetteId": "f36856888c3e162faa2f783099138b94",
        "Image": {
          "Id": "ee53f5a64ba04419612e82b555d327668a316833",
          "ImageUrl": "https://img.retty.me/img_repo/l/01/14873276.jpg",
          "Caption": null,
          "LinkUrl": null,
          "Author": null,
          "Guid": null,
          "Category": null,
          "Tag": null,
          "CreateDate": "2018-03-02T05:31:38+09:00",
          "UpdateDate": "2018-03-02T05:31:38+09:00",
          "UsefulCount": 0,
          "InputSource": "yolpcp",
          "Type": "poi",
          "ItemId": null,
          "CustomExact1": null
        }
      }
    },
    {
      "Property": {
        "Uid": "68e7395688f8e9cca7701fe63d5087d375baa247",
        "CassetteId": "f36856888c3e162faa2f783099138b94",
        "Image": {
          "Id": "f51a49e4ae5a215de021c26c7a4da599dd6c60b9",
          "ImageUrl": "https://img.retty.me/img_repo/l/01/14873275.jpg",
          "Caption": null,
          "LinkUrl": null,
          "Author": null,
          "Guid": null,
          "Category": null,
          "Tag": null,
          "CreateDate": "2018-03-02T05:31:38+09:00",
          "UpdateDate": "2018-03-02T05:31:38+09:00",
          "UsefulCount": 0,
          "InputSource": "yolpcp",
          "Type": "poi",
          "ItemId": null,
          "CustomExact1": null
        }
      }
    },
    {
      "Property": {
        "Uid": "68e7395688f8e9cca7701fe63d5087d375baa247",
        "CassetteId": "f36856888c3e162faa2f783099138b94",
        "Image": {
          "Id": "17d6e20bc68491fe1fec99a8c871b90de6b75a39",
          "ImageUrl": "https://img.retty.me/img_repo/l/01/14873274.jpg",
          "Caption": null,
          "LinkUrl": null,
          "Author": null,
          "Guid": null,
          "Category": null,
          "Tag": null,
          "CreateDate": "2018-03-02T05:31:38+09:00",
          "UpdateDate": "2018-03-02T05:31:38+09:00",
          "UsefulCount": 0,
          "InputSource": "yolpcp",
          "Type": "poi",
          "ItemId": null,
          "CustomExact1": null
        }
      }
    },
    {
      "Property": {
        "Uid": "8d7a792023f6e8485f64ff413e6850e528fe4fe3",
        "CassetteId": "ccbf79674338330c7ce5557ace5a18ec",
        "Image": {
          "Id": "c861ccfd2c6e0e77b2483d137c29f18acd05ad26",
          "ImageUrl": "https://iwiz-reservation.c.yimg.jp/c/reservation/8/s000177008/1599110.jpg",
          "Caption": null,
          "LinkUrl": null,
          "Author": null,
          "Guid": null,
          "Category": null,
          "Tag": null,
          "CreateDate": "2018-02-14T04:32:42+09:00",
          "UpdateDate": "2018-02-14T04:32:42+09:00",
          "UsefulCount": 0,
          "InputSource": "yolpcp",
          "Type": "poi",
          "ItemId": null,
          "CustomExact1": null
        }
      }
    },
    {
      "Property": {
        "Uid": "8d7a792023f6e8485f64ff413e6850e528fe4fe3",
        "CassetteId": "ccbf79674338330c7ce5557ace5a18ec",
        "Image": {
          "Id": "ee6ffe5e3ad581379fd64aa9a8151d0002918d38",
          "ImageUrl": "https://iwiz-reservation.c.yimg.jp/c/reservation/8/s000177008/1599130.jpg",
          "Caption": null,
          "LinkUrl": null,
          "Author": null,
          "Guid": null,
          "Category": null,
          "Tag": null,
          "CreateDate": "2018-02-14T04:32:41+09:00",
          "UpdateDate": "2018-02-14T04:32:41+09:00",
          "UsefulCount": 0,
          "InputSource": "yolpcp",
          "Type": "poi",
          "ItemId": null,
          "CustomExact1": null
        }
      }
    },
    {
      "Property": {
        "Uid": "8d7a792023f6e8485f64ff413e6850e528fe4fe3",
        "CassetteId": "ccbf79674338330c7ce5557ace5a18ec",
        "Image": {
          "Id": "5fd55f40d6435556f5884097229e60115c521040",
          "ImageUrl": "https://iwiz-reservation.c.yimg.jp/c/reservation/8/s000177008/222038.jpg",
          "Caption": null,
          "LinkUrl": null,
          "Author": null,
          "Guid": null,
          "Category": null,
          "Tag": null,
          "CreateDate": "2018-02-14T04:32:41+09:00",
          "UpdateDate": "2018-02-14T04:32:41+09:00",
          "UsefulCount": 0,
          "InputSource": "yolpcp",
          "Type": "poi",
          "ItemId": null,
          "CustomExact1": null
        }
      }
    },
    {
      "Property": {
        "Uid": "8d7a792023f6e8485f64ff413e6850e528fe4fe3",
        "CassetteId": "ccbf79674338330c7ce5557ace5a18ec",
        "Image": {
          "Id": "2f21c3a673aa422b5000454c7ead7f91764e8fda",
          "ImageUrl": "https://iwiz-reservation.c.yimg.jp/c/reservation/8/s000177008/1598690.jpg",
          "Caption": null,
          "LinkUrl": null,
          "Author": null,
          "Guid": null,
          "Category": null,
          "Tag": null,
          "CreateDate": "2018-02-14T04:32:41+09:00",
          "UpdateDate": "2018-02-14T04:32:41+09:00",
          "UsefulCount": 0,
          "InputSource": "yolpcp",
          "Type": "poi",
          "ItemId": null,
          "CustomExact1": null
        }
      }
    },
    {
      "Property": {
        "Uid": "8d7a792023f6e8485f64ff413e6850e528fe4fe3",
        "CassetteId": "ccbf79674338330c7ce5557ace5a18ec",
        "Image": {
          "Id": "dc7ff796d9bc90b4c9975f9a4275f03b5231120b",
          "ImageUrl": "https://iwiz-reservation.c.yimg.jp/c/reservation/8/s000177008/1599022.jpg",
          "Caption": null,
          "LinkUrl": null,
          "Author": null,
          "Guid": null,
          "Category": null,
          "Tag": null,
          "CreateDate": "2018-02-14T04:32:41+09:00",
          "UpdateDate": "2018-02-14T04:32:41+09:00",
          "UsefulCount": 0,
          "InputSource": "yolpcp",
          "Type": "poi",
          "ItemId": null,
          "CustomExact1": null
        }
      }
    },
    {
      "Property": {
        "Uid": "8d7a792023f6e8485f64ff413e6850e528fe4fe3",
        "CassetteId": "ccbf79674338330c7ce5557ace5a18ec",
        "Image": {
          "Id": "655bc2bcdcbe28b5117ba64db1010a873022c006",
          "ImageUrl": "https://iwiz-reservation.c.yimg.jp/c/reservation/8/s000177008/1599090.jpg",
          "Caption": null,
          "LinkUrl": null,
          "Author": null,
          "Guid": null,
          "Category": null,
          "Tag": null,
          "CreateDate": "2018-02-14T04:32:41+09:00",
          "UpdateDate": "2018-02-14T04:32:41+09:00",
          "UsefulCount": 0,
          "InputSource": "yolpcp",
          "Type": "poi",
          "ItemId": null,
          "CustomExact1": null
        }
      }
    },
    {
      "Property": {
        "Uid": "8d7a792023f6e8485f64ff413e6850e528fe4fe3",
        "CassetteId": "ccbf79674338330c7ce5557ace5a18ec",
        "Image": {
          "Id": "515d7d66d62607a42e940ca22c61c09de3c5ee5a",
          "ImageUrl": "https://iwiz-reservation.c.yimg.jp/c/reservation/8/s000177008/259668.jpg",
          "Caption": null,
          "LinkUrl": null,
          "Author": null,
          "Guid": null,
          "Category": null,
          "Tag": null,
          "CreateDate": "2018-02-14T04:32:40+09:00",
          "UpdateDate": "2018-02-14T04:32:40+09:00",
          "UsefulCount": 0,
          "InputSource": "yolpcp",
          "Type": "poi",
          "ItemId": null,
          "CustomExact1": null
        }
      }
    },
    {
      "Property": {
        "Uid": "8d7a792023f6e8485f64ff413e6850e528fe4fe3",
        "CassetteId": "ccbf79674338330c7ce5557ace5a18ec",
        "Image": {
          "Id": "49f41e03ed8cb6b588a546c3aa1e564d8648eecc",
          "ImageUrl": "https://iwiz-reservation.c.yimg.jp/c/reservation/8/s000177008/1599111.jpg",
          "Caption": null,
          "LinkUrl": null,
          "Author": null,
          "Guid": null,
          "Category": null,
          "Tag": null,
          "CreateDate": "2018-02-14T04:32:40+09:00",
          "UpdateDate": "2018-02-14T04:32:40+09:00",
          "UsefulCount": 0,
          "InputSource": "yolpcp",
          "Type": "poi",
          "ItemId": null,
          "CustomExact1": null
        }
      }
    },
    {
      "Property": {
        "Uid": "54f4bebef13e9d75d9da943e14d96203cfba7a91",
        "CassetteId": "a6e27b84663abc4336dc275c6fb7f978",
        "Image": {
          "Id": "ade15c85dd67b53236c7f52507f3eab95a402b2c",
          "ImageUrl": "http://uds.gnst.jp/rest/img/nfrj3au80000/t_0n5k.jpg",
          "Caption": null,
          "LinkUrl": null,
          "Author": null,
          "Guid": null,
          "Category": null,
          "Tag": null,
          "CreateDate": "2017-07-29T08:42:47+09:00",
          "UpdateDate": "2017-07-29T08:42:47+09:00",
          "UsefulCount": 0,
          "InputSource": "yolpcp",
          "Type": "poi",
          "ItemId": null,
          "CustomExact1": null
        }
      }
    },
    {
      "Property": {
        "Uid": "54f4bebef13e9d75d9da943e14d96203cfba7a91",
        "CassetteId": "a6e27b84663abc4336dc275c6fb7f978",
        "Image": {
          "Id": "382e50fd79307fcc8b737a563f51e93f3e9d1f7b",
          "ImageUrl": "http://uds.gnst.jp/rest/img/nfrj3au80000/t_0n5l.jpg",
          "Caption": null,
          "LinkUrl": null,
          "Author": null,
          "Guid": null,
          "Category": null,
          "Tag": null,
          "CreateDate": "2017-07-29T08:42:47+09:00",
          "UpdateDate": "2017-07-29T08:42:47+09:00",
          "UsefulCount": 0,
          "InputSource": "yolpcp",
          "Type": "poi",
          "ItemId": null,
          "CustomExact1": null
        }
      }
    },
    {
      "Property": {
        "Uid": "54f4bebef13e9d75d9da943e14d96203cfba7a91",
        "CassetteId": "a6e27b84663abc4336dc275c6fb7f978",
        "Image": {
          "Id": "1fd1d1baf1070c5d1b798b0f01506f8ce6aee09f",
          "ImageUrl": "http://uds.gnst.jp/rest/img/nfrj3au80000/t_0n5x.jpg",
          "Caption": null,
          "LinkUrl": null,
          "Author": null,
          "Guid": null,
          "Category": null,
          "Tag": null,
          "CreateDate": "2017-07-29T08:42:47+09:00",
          "UpdateDate": "2017-07-29T08:42:47+09:00",
          "UsefulCount": 0,
          "InputSource": "yolpcp",
          "Type": "poi",
          "ItemId": null,
          "CustomExact1": null
        }
      }
    },
    {
      "Property": {
        "Uid": "8350dc1407b63717dba919f5bb238f3df09ddfb7",
        "CassetteId": "bb181b59aa335ed7ecc83f3f1411ae7f",
        "Image": {
          "Id": "1aa3015d78df89fc514c3444be64dd9222fae399",
          "ImageUrl": "https://iwiz-olp.c.yimg.jp/c/olp/3b/bb181b59aa335ed7ecc83f3f1411ae7f/image/54/26/u0006047424_9.jpg",
          "Caption": "丸ごとオマール海老のロースト　ウニソース",
          "LinkUrl": null,
          "Author": null,
          "Guid": null,
          "Category": null,
          "Tag": null,
          "CreateDate": "2017-06-20T09:21:34+09:00",
          "UpdateDate": "2017-11-02T07:00:49+09:00",
          "UsefulCount": 0,
          "InputSource": "yolpcp",
          "Type": "poi",
          "ItemId": null,
          "CustomExact1": null
        }
      }
    },
    {
      "Property": {
        "Uid": "8350dc1407b63717dba919f5bb238f3df09ddfb7",
        "CassetteId": "bb181b59aa335ed7ecc83f3f1411ae7f",
        "Image": {
          "Id": "fe5a382c964d2868538136b9a847029b71dceab7",
          "ImageUrl": "https://iwiz-olp.c.yimg.jp/c/olp/3b/bb181b59aa335ed7ecc83f3f1411ae7f/image/6d/53/u0006047424_7.jpg",
          "Caption": "コスパや贅沢食材だけじゃない、豊かな食経験という贅沢を味わう",
          "LinkUrl": null,
          "Author": null,
          "Guid": null,
          "Category": null,
          "Tag": null,
          "CreateDate": "2017-06-20T09:21:34+09:00",
          "UpdateDate": "2018-02-01T06:52:46+09:00",
          "UsefulCount": 0,
          "InputSource": "yolpcp",
          "Type": "poi",
          "ItemId": null,
          "CustomExact1": null
        }
      }
    },
    {
      "Property": {
        "Uid": "8350dc1407b63717dba919f5bb238f3df09ddfb7",
        "CassetteId": "bb181b59aa335ed7ecc83f3f1411ae7f",
        "Image": {
          "Id": "662301ed02926715844e69ca8b47d3d009bf7e4c",
          "ImageUrl": "https://iwiz-olp.c.yimg.jp/c/olp/3b/bb181b59aa335ed7ecc83f3f1411ae7f/image/48/76/u0006047424_8.jpg",
          "Caption": "丸ごとオマール海老のロースト　ウニソース",
          "LinkUrl": null,
          "Author": null,
          "Guid": null,
          "Category": null,
          "Tag": null,
          "CreateDate": "2017-06-20T09:21:34+09:00",
          "UpdateDate": "2018-02-01T06:52:46+09:00",
          "UsefulCount": 0,
          "InputSource": "yolpcp",
          "Type": "poi",
          "ItemId": null,
          "CustomExact1": null
        }
      }
    },
    {
      "Property": {
        "Uid": "8350dc1407b63717dba919f5bb238f3df09ddfb7",
        "CassetteId": "bb181b59aa335ed7ecc83f3f1411ae7f",
        "Image": {
          "Id": "f6c5a960db0ce6b775d64e2da9b7940ce09d559e",
          "ImageUrl": "https://iwiz-olp.c.yimg.jp/c/olp/3b/bb181b59aa335ed7ecc83f3f1411ae7f/image/02/6c/u0006047424_10.jpg",
          "Caption": "鮮度のよさにこだわっています",
          "LinkUrl": null,
          "Author": null,
          "Guid": null,
          "Category": null,
          "Tag": null,
          "CreateDate": "2017-06-20T09:21:34+09:00",
          "UpdateDate": "2017-06-20T09:21:34+09:00",
          "UsefulCount": 0,
          "InputSource": "yolpcp",
          "Type": "poi",
          "ItemId": null,
          "CustomExact1": null
        }
      }
    },
    {
      "Property": {
        "Uid": "8350dc1407b63717dba919f5bb238f3df09ddfb7",
        "CassetteId": "bb181b59aa335ed7ecc83f3f1411ae7f",
        "Image": {
          "Id": "9205bd30e8acdca1c8720bcc92df8abd9a32c951",
          "ImageUrl": "https://iwiz-olp.c.yimg.jp/c/olp/3b/bb181b59aa335ed7ecc83f3f1411ae7f/image/16/20/u0006047424_5.jpg",
          "Caption": "和縁牛の極厚ローストビーフ500g　",
          "LinkUrl": null,
          "Author": null,
          "Guid": null,
          "Category": null,
          "Tag": null,
          "CreateDate": "2017-06-20T09:21:33+09:00",
          "UpdateDate": "2018-02-01T06:52:46+09:00",
          "UsefulCount": 0,
          "InputSource": "yolpcp",
          "Type": "poi",
          "ItemId": null,
          "CustomExact1": null
        }
      }
    },
    {
      "Property": {
        "Uid": "8350dc1407b63717dba919f5bb238f3df09ddfb7",
        "CassetteId": "bb181b59aa335ed7ecc83f3f1411ae7f",
        "Image": {
          "Id": "7d2036f87b5c6974016b3a8cf32e295f7597d89f",
          "ImageUrl": "https://iwiz-olp.c.yimg.jp/c/olp/3b/bb181b59aa335ed7ecc83f3f1411ae7f/image/50/10/u0006047424_4.jpg",
          "Caption": "平日17時&土日祝11時30分より限定3食!Tボーンステーキ(1kg)",
          "LinkUrl": null,
          "Author": null,
          "Guid": null,
          "Category": null,
          "Tag": null,
          "CreateDate": "2017-06-20T09:21:33+09:00",
          "UpdateDate": "2017-11-02T07:00:48+09:00",
          "UsefulCount": 0,
          "InputSource": "yolpcp",
          "Type": "poi",
          "ItemId": null,
          "CustomExact1": null
        }
      }
    },
    {
      "Property": {
        "Uid": "8350dc1407b63717dba919f5bb238f3df09ddfb7",
        "CassetteId": "bb181b59aa335ed7ecc83f3f1411ae7f",
        "Image": {
          "Id": "47264321c9f5e3607564e73a0fd8490bd9002f15",
          "ImageUrl": "https://iwiz-olp.c.yimg.jp/c/olp/3b/bb181b59aa335ed7ecc83f3f1411ae7f/image/0f/6f/u0006047424_3.jpg",
          "Caption": "★牛・ フォアグラ・トリュフのミルフィーユ★",
          "LinkUrl": null,
          "Author": null,
          "Guid": null,
          "Category": null,
          "Tag": null,
          "CreateDate": "2017-06-20T09:21:33+09:00",
          "UpdateDate": "2017-11-02T07:00:48+09:00",
          "UsefulCount": 0,
          "InputSource": "yolpcp",
          "Type": "poi",
          "ItemId": null,
          "CustomExact1": null
        }
      }
    },
    {
      "Property": {
        "Uid": "8350dc1407b63717dba919f5bb238f3df09ddfb7",
        "CassetteId": "bb181b59aa335ed7ecc83f3f1411ae7f",
        "Image": {
          "Id": "2496999bc89096fc3316adf315c9d9882c1edb32",
          "ImageUrl": "https://iwiz-olp.c.yimg.jp/c/olp/3b/bb181b59aa335ed7ecc83f3f1411ae7f/image/1a/22/u0006047424_2.jpg",
          "Caption": "B.Dプレート",
          "LinkUrl": null,
          "Author": null,
          "Guid": null,
          "Category": null,
          "Tag": null,
          "CreateDate": "2017-06-20T09:21:33+09:00",
          "UpdateDate": "2017-11-02T07:00:48+09:00",
          "UsefulCount": 0,
          "InputSource": "yolpcp",
          "Type": "poi",
          "ItemId": null,
          "CustomExact1": null
        }
      }
    },
    {
      "Property": {
        "Uid": "8350dc1407b63717dba919f5bb238f3df09ddfb7",
        "CassetteId": "bb181b59aa335ed7ecc83f3f1411ae7f",
        "Image": {
          "Id": "84bff28fb8f73cfb65ff33f3221b3f910f7a664a",
          "ImageUrl": "https://iwiz-olp.c.yimg.jp/c/olp/3b/bb181b59aa335ed7ecc83f3f1411ae7f/image/18/6d/u0006047424_6.jpg",
          "Caption": "鮮度のよさにこだわっています",
          "LinkUrl": null,
          "Author": null,
          "Guid": null,
          "Category": null,
          "Tag": null,
          "CreateDate": "2017-06-20T09:21:33+09:00",
          "UpdateDate": "2018-02-01T06:52:46+09:00",
          "UsefulCount": 0,
          "InputSource": "yolpcp",
          "Type": "poi",
          "ItemId": null,
          "CustomExact1": null
        }
      }
    },
    {
      "Property": {
        "Uid": "8350dc1407b63717dba919f5bb238f3df09ddfb7",
        "CassetteId": "bb181b59aa335ed7ecc83f3f1411ae7f",
        "Image": {
          "Id": "170b0226d3488cde8a9aaaaf540628200f698473",
          "ImageUrl": "https://iwiz-olp.c.yimg.jp/c/olp/3b/bb181b59aa335ed7ecc83f3f1411ae7f/image/26/73/u0006047424.jpg",
          "Caption": "殻付きウニのコンソメジュレ添え",
          "LinkUrl": null,
          "Author": null,
          "Guid": null,
          "Category": null,
          "Tag": null,
          "CreateDate": "2017-06-20T09:21:32+09:00",
          "UpdateDate": "2017-11-02T07:00:47+09:00",
          "UsefulCount": 0,
          "InputSource": "yolpcp",
          "Type": "poi",
          "ItemId": null,
          "CustomExact1": null
        }
      }
    },
    {
      "Property": {
        "Uid": "54f4bebef13e9d75d9da943e14d96203cfba7a91",
        "CassetteId": "a6e27b84663abc4336dc275c6fb7f978",
        "Image": {
          "Id": "caf6759473e102a3d618eabf9ebedda88d553928",
          "ImageUrl": "http://uds.gnst.jp/rest/img/nfrj3au80000/t_0n5h.jpg",
          "Caption": "殻付きウニのコンソメジュレ",
          "LinkUrl": null,
          "Author": null,
          "Guid": null,
          "Category": null,
          "Tag": null,
          "CreateDate": "2017-01-19T08:09:16+09:00",
          "UpdateDate": "2017-01-19T08:09:16+09:00",
          "UsefulCount": 0,
          "InputSource": "yolpcp",
          "Type": "poi",
          "ItemId": null,
          "CustomExact1": null
        }
      }
    },
    {
      "Property": {
        "Uid": "54f4bebef13e9d75d9da943e14d96203cfba7a91",
        "CassetteId": "a6e27b84663abc4336dc275c6fb7f978",
        "Image": {
          "Id": "652351ed4d6304b7e4f8b341de46e87c57cba8be",
          "ImageUrl": "http://uds.gnst.jp/rest/img/nfrj3au80000/t_000u.jpg",
          "Caption": "限定！Tボーンステーキ！",
          "LinkUrl": null,
          "Author": null,
          "Guid": null,
          "Category": null,
          "Tag": null,
          "CreateDate": "2017-01-19T08:09:15+09:00",
          "UpdateDate": "2017-01-19T08:09:15+09:00",
          "UsefulCount": 0,
          "InputSource": "yolpcp",
          "Type": "poi",
          "ItemId": null,
          "CustomExact1": null
        }
      }
    },
    {
      "Property": {
        "Uid": "54f4bebef13e9d75d9da943e14d96203cfba7a91",
        "CassetteId": "a6e27b84663abc4336dc275c6fb7f978",
        "Image": {
          "Id": "0e30545c564e4344d914bd7ba141e250379f970b",
          "ImageUrl": "http://uds.gnst.jp/rest/img/nfrj3au80000/t_000o.jpg",
          "Caption": null,
          "LinkUrl": null,
          "Author": null,
          "Guid": null,
          "Category": null,
          "Tag": null,
          "CreateDate": "2016-05-10T18:05:14+09:00",
          "UpdateDate": "2016-05-10T18:05:14+09:00",
          "UsefulCount": 0,
          "InputSource": "yolpcp",
          "Type": "poi",
          "ItemId": null,
          "CustomExact1": null
        }
      }
    },
    {
      "Property": {
        "Uid": "54f4bebef13e9d75d9da943e14d96203cfba7a91",
        "CassetteId": "a6e27b84663abc4336dc275c6fb7f978",
        "Image": {
          "Id": "5cdded9f63b6aa86d264982b43d77783fd4fba80",
          "ImageUrl": "http://uds.gnst.jp/rest/img/nfrj3au80000/t_000k.jpg",
          "Caption": "パスタ、ピザメニューも充実しています◎",
          "LinkUrl": null,
          "Author": null,
          "Guid": null,
          "Category": null,
          "Tag": null,
          "CreateDate": "2016-05-10T18:05:13+09:00",
          "UpdateDate": "2016-05-10T18:05:13+09:00",
          "UsefulCount": 0,
          "InputSource": "yolpcp",
          "Type": "poi",
          "ItemId": null,
          "CustomExact1": null
        }
      }
    },
    {
      "Property": {
        "Uid": "54f4bebef13e9d75d9da943e14d96203cfba7a91",
        "CassetteId": "a6e27b84663abc4336dc275c6fb7f978",
        "Image": {
          "Id": "4a5c93961b7fb737b4c2c408c7fbd6a299998f51",
          "ImageUrl": "http://uds.gnst.jp/rest/img/nfrj3au80000/t_000s.jpg",
          "Caption": null,
          "LinkUrl": null,
          "Author": null,
          "Guid": null,
          "Category": null,
          "Tag": null,
          "CreateDate": "2016-05-10T18:05:13+09:00",
          "UpdateDate": "2016-05-10T18:05:13+09:00",
          "UsefulCount": 0,
          "InputSource": "yolpcp",
          "Type": "poi",
          "ItemId": null,
          "CustomExact1": null
        }
      }
    },
    {
      "Property": {
        "Uid": "8d7a792023f6e8485f64ff413e6850e528fe4fe3",
        "CassetteId": "40f68cf163a82aeb127f0387eb314b4b",
        "Image": {
          "Id": "b983b0d2edc34f4f3aa9146a56335c5ecbc76263",
          "ImageUrl": "https://iwiz-olp.c.yimg.jp/c/olp/40/40f68cf163a82aeb127f0387eb314b4b/data/4c/36/24fb756e6c11bbc3f2742aee563a4181.jpg",
          "Caption": "オマール海老は２つの味が楽しめました",
          "LinkUrl": null,
          "Author": null,
          "Guid": "OYB22OHA37FUUJ7NSRZZNLRLCA",
          "Category": 3,
          "Tag": null,
          "CreateDate": "2016-05-05T12:12:57+09:00",
          "UpdateDate": "2016-05-05T12:12:57+09:00",
          "UsefulCount": 0,
          "InputSource": "loco",
          "Type": "poi",
          "ItemId": null,
          "CustomExact1": "542324"
        }
      }
    },
    {
      "Property": {
        "Uid": "8d7a792023f6e8485f64ff413e6850e528fe4fe3",
        "CassetteId": "40f68cf163a82aeb127f0387eb314b4b",
        "Image": {
          "Id": "66883f08fa8363cacf327c9945a03992c09485b0",
          "ImageUrl": "https://iwiz-olp.c.yimg.jp/c/olp/40/40f68cf163a82aeb127f0387eb314b4b/data/6f/01/15ce2050010f5aa8e2e92ae3b2b2eb56.jpg",
          "Caption": "毎度これは外せないウニのジュレ〜",
          "LinkUrl": null,
          "Author": null,
          "Guid": "OYB22OHA37FUUJ7NSRZZNLRLCA",
          "Category": 3,
          "Tag": null,
          "CreateDate": "2016-05-05T12:12:57+09:00",
          "UpdateDate": "2016-05-05T12:12:57+09:00",
          "UsefulCount": 0,
          "InputSource": "loco",
          "Type": "poi",
          "ItemId": null,
          "CustomExact1": "542325"
        }
      }
    },
    {
      "Property": {
        "Uid": "8d7a792023f6e8485f64ff413e6850e528fe4fe3",
        "CassetteId": "40f68cf163a82aeb127f0387eb314b4b",
        "Image": {
          "Id": "dd15557a17a49b9c86c5e04a5ddf3f6222dbd0a4",
          "ImageUrl": "https://iwiz-olp.c.yimg.jp/c/olp/40/40f68cf163a82aeb127f0387eb314b4b/data/52/18/4f8d0538b6053aaa4b381ef35eaebab2.jpg",
          "Caption": "パフェ？いやいやなんとバーニャカウダ！人参のチビシャーベット乗せ♪",
          "LinkUrl": null,
          "Author": null,
          "Guid": "OYB22OHA37FUUJ7NSRZZNLRLCA",
          "Category": 3,
          "Tag": null,
          "CreateDate": "2016-05-05T12:12:57+09:00",
          "UpdateDate": "2016-05-05T12:12:57+09:00",
          "UsefulCount": 0,
          "InputSource": "loco",
          "Type": "poi",
          "ItemId": null,
          "CustomExact1": "542323"
        }
      }
    },
    {
      "Property": {
        "Uid": "8d7a792023f6e8485f64ff413e6850e528fe4fe3",
        "CassetteId": "40f68cf163a82aeb127f0387eb314b4b",
        "Image": {
          "Id": "7c0ddd4f07b7a8258d5c2ef51cbf3919fefcc7d0",
          "ImageUrl": "https://iwiz-olp.c.yimg.jp/c/olp/40/40f68cf163a82aeb127f0387eb314b4b/data/15/3d/7e073b17edea977ecab85c5744d49e02.jpg",
          "Caption": null,
          "LinkUrl": null,
          "Author": null,
          "Guid": "H536WHFCGMFSSL22SPRN5SN55A",
          "Category": 1,
          "Tag": null,
          "CreateDate": "2016-04-24T10:49:38+09:00",
          "UpdateDate": "2016-04-24T10:49:38+09:00",
          "UsefulCount": 0,
          "InputSource": "loco",
          "Type": "poi",
          "ItemId": null,
          "CustomExact1": "541420"
        }
      }
    },
    {
      "Property": {
        "Uid": "8d7a792023f6e8485f64ff413e6850e528fe4fe3",
        "CassetteId": "40f68cf163a82aeb127f0387eb314b4b",
        "Image": {
          "Id": "8446e949b7467e469c80ffa296e971da3f09fe1a",
          "ImageUrl": "https://iwiz-olp.c.yimg.jp/c/olp/40/40f68cf163a82aeb127f0387eb314b4b/data/2e/51/4b3863894a3fa1f85e4d06f5086fc310.jpg",
          "Caption": null,
          "LinkUrl": null,
          "Author": null,
          "Guid": "H536WHFCGMFSSL22SPRN5SN55A",
          "Category": 1,
          "Tag": null,
          "CreateDate": "2016-04-24T10:49:38+09:00",
          "UpdateDate": "2016-04-24T10:49:38+09:00",
          "UsefulCount": 0,
          "InputSource": "loco",
          "Type": "poi",
          "ItemId": null,
          "CustomExact1": "541421"
        }
      }
    },
    {
      "Property": {
        "Uid": "8d7a792023f6e8485f64ff413e6850e528fe4fe3",
        "CassetteId": "40f68cf163a82aeb127f0387eb314b4b",
        "Image": {
          "Id": "997f2ddae9272502c4060b73cb07ddabb44edd7e",
          "ImageUrl": "https://iwiz-olp.c.yimg.jp/c/olp/40/40f68cf163a82aeb127f0387eb314b4b/data/5a/48/201493db16122027734754982a4bcc6a.jpg",
          "Caption": "マグロホホ肉のグリル バルサミコソース",
          "LinkUrl": null,
          "Author": null,
          "Guid": "XNEDQ3VFTM6QMPQ456HDEHMYTI",
          "Category": 1,
          "Tag": null,
          "CreateDate": "2016-04-03T10:40:35+09:00",
          "UpdateDate": "2016-04-03T10:40:35+09:00",
          "UsefulCount": 1,
          "InputSource": "loco",
          "Type": "poi",
          "ItemId": null,
          "CustomExact1": "539903"
        }
      }
    },
    {
      "Property": {
        "Uid": "8d7a792023f6e8485f64ff413e6850e528fe4fe3",
        "CassetteId": "40f68cf163a82aeb127f0387eb314b4b",
        "Image": {
          "Id": "df88f2ef98150d6442a1d8c399a5634d25767852",
          "ImageUrl": "https://iwiz-olp.c.yimg.jp/c/olp/40/40f68cf163a82aeb127f0387eb314b4b/data/41/23/7426b827f548e2201d5b440d5eadc22c.jpg",
          "Caption": null,
          "LinkUrl": null,
          "Author": null,
          "Guid": "SEKZCOSO5CZY6POWK7HNCPC4OE",
          "Category": 1,
          "Tag": null,
          "CreateDate": "2016-02-05T21:38:06+09:00",
          "UpdateDate": "2016-02-05T21:38:06+09:00",
          "UsefulCount": 0,
          "InputSource": "loco",
          "Type": "poi",
          "ItemId": null,
          "CustomExact1": "535137"
        }
      }
    },
    {
      "Property": {
        "Uid": "8d7a792023f6e8485f64ff413e6850e528fe4fe3",
        "CassetteId": "40f68cf163a82aeb127f0387eb314b4b",
        "Image": {
          "Id": "5a2787380bf6f7ca2e9b85bb6b23e3cbd471222f",
          "ImageUrl": "https://iwiz-olp.c.yimg.jp/c/olp/40/40f68cf163a82aeb127f0387eb314b4b/data/0b/16/5eed39ee8ee1e1049fe52b3509d776d7.jpg",
          "Caption": null,
          "LinkUrl": null,
          "Author": null,
          "Guid": "SEKZCOSO5CZY6POWK7HNCPC4OE",
          "Category": 1,
          "Tag": null,
          "CreateDate": "2016-02-05T21:38:06+09:00",
          "UpdateDate": "2016-02-05T21:38:06+09:00",
          "UsefulCount": 0,
          "InputSource": "loco",
          "Type": "poi",
          "ItemId": null,
          "CustomExact1": "535139"
        }
      }
    },
    {
      "Property": {
        "Uid": "8d7a792023f6e8485f64ff413e6850e528fe4fe3",
        "CassetteId": "40f68cf163a82aeb127f0387eb314b4b",
        "Image": {
          "Id": "327f8e04030c873973db067b891dfccde1d3817c",
          "ImageUrl": "https://iwiz-olp.c.yimg.jp/c/olp/40/40f68cf163a82aeb127f0387eb314b4b/data/53/08/88d9b298144729803f3b7e81daa0d071.jpg",
          "Caption": null,
          "LinkUrl": null,
          "Author": null,
          "Guid": "SEKZCOSO5CZY6POWK7HNCPC4OE",
          "Category": 1,
          "Tag": null,
          "CreateDate": "2016-02-05T21:38:06+09:00",
          "UpdateDate": "2016-02-05T21:38:06+09:00",
          "UsefulCount": 0,
          "InputSource": "loco",
          "Type": "poi",
          "ItemId": null,
          "CustomExact1": "535138"
        }
      }
    },
    {
      "Property": {
        "Uid": "8d7a792023f6e8485f64ff413e6850e528fe4fe3",
        "CassetteId": "40f68cf163a82aeb127f0387eb314b4b",
        "Image": {
          "Id": "c2083df058e68a61ea5bf8339e16f8c250115bbc",
          "ImageUrl": "https://iwiz-olp.c.yimg.jp/c/olp/40/40f68cf163a82aeb127f0387eb314b4b/data/2d/3f/799fd86ea761fb3fd11e7efb993ffb25.jpg",
          "Caption": null,
          "LinkUrl": null,
          "Author": null,
          "Guid": "SEKZCOSO5CZY6POWK7HNCPC4OE",
          "Category": 1,
          "Tag": null,
          "CreateDate": "2016-02-05T21:38:06+09:00",
          "UpdateDate": "2016-02-05T21:38:06+09:00",
          "UsefulCount": 0,
          "InputSource": "loco",
          "Type": "poi",
          "ItemId": null,
          "CustomExact1": "535136"
        }
      }
    },
    {
      "Property": {
        "Uid": "8d7a792023f6e8485f64ff413e6850e528fe4fe3",
        "CassetteId": "40f68cf163a82aeb127f0387eb314b4b",
        "Image": {
          "Id": "81a7bc0bfd41c74dfb9f249fdd8cf688a6c77f57",
          "ImageUrl": "https://iwiz-olp.c.yimg.jp/c/olp/40/40f68cf163a82aeb127f0387eb314b4b/data/6f/3a/1b4ec6bab6175fcf0b438ebe7c76c16e.jpg",
          "Caption": null,
          "LinkUrl": null,
          "Author": null,
          "Guid": "SEKZCOSO5CZY6POWK7HNCPC4OE",
          "Category": 1,
          "Tag": null,
          "CreateDate": "2016-02-05T21:38:06+09:00",
          "UpdateDate": "2016-02-05T21:38:06+09:00",
          "UsefulCount": 0,
          "InputSource": "loco",
          "Type": "poi",
          "ItemId": null,
          "CustomExact1": "535132"
        }
      }
    },
    {
      "Property": {
        "Uid": "8d7a792023f6e8485f64ff413e6850e528fe4fe3",
        "CassetteId": "40f68cf163a82aeb127f0387eb314b4b",
        "Image": {
          "Id": "111123f0bf47fcd588a5bca19ffece707fdf2005",
          "ImageUrl": "https://iwiz-olp.c.yimg.jp/c/olp/40/40f68cf163a82aeb127f0387eb314b4b/data/35/1b/8f0a85b44a519ea2dd030001a7a66704.jpg",
          "Caption": null,
          "LinkUrl": null,
          "Author": null,
          "Guid": "SEKZCOSO5CZY6POWK7HNCPC4OE",
          "Category": 1,
          "Tag": null,
          "CreateDate": "2016-02-05T21:38:06+09:00",
          "UpdateDate": "2016-02-05T21:38:06+09:00",
          "UsefulCount": 0,
          "InputSource": "loco",
          "Type": "poi",
          "ItemId": null,
          "CustomExact1": "535134"
        }
      }
    },
    {
      "Property": {
        "Uid": "8d7a792023f6e8485f64ff413e6850e528fe4fe3",
        "CassetteId": "40f68cf163a82aeb127f0387eb314b4b",
        "Image": {
          "Id": "67e5502bc70cb5442e682f1303519fc454a5f221",
          "ImageUrl": "https://iwiz-olp.c.yimg.jp/c/olp/40/40f68cf163a82aeb127f0387eb314b4b/data/57/4f/5dc3ff446d0350f5ddf51ff0198bd040.jpg",
          "Caption": null,
          "LinkUrl": null,
          "Author": null,
          "Guid": "SEKZCOSO5CZY6POWK7HNCPC4OE",
          "Category": 1,
          "Tag": null,
          "CreateDate": "2016-02-05T21:38:06+09:00",
          "UpdateDate": "2016-02-05T21:38:06+09:00",
          "UsefulCount": 0,
          "InputSource": "loco",
          "Type": "poi",
          "ItemId": null,
          "CustomExact1": "535135"
        }
      }
    },
    {
      "Property": {
        "Uid": "8d7a792023f6e8485f64ff413e6850e528fe4fe3",
        "CassetteId": "40f68cf163a82aeb127f0387eb314b4b",
        "Image": {
          "Id": "abaa101e50f533e618b7925bfb8181add15cf37c",
          "ImageUrl": "https://iwiz-olp.c.yimg.jp/c/olp/40/40f68cf163a82aeb127f0387eb314b4b/data/2d/24/7191d99c3c79ac1648df4eb3cbe74c3e.jpg",
          "Caption": null,
          "LinkUrl": null,
          "Author": null,
          "Guid": "SEKZCOSO5CZY6POWK7HNCPC4OE",
          "Category": 1,
          "Tag": null,
          "CreateDate": "2016-02-05T21:38:06+09:00",
          "UpdateDate": "2016-02-05T21:38:06+09:00",
          "UsefulCount": 0,
          "InputSource": "loco",
          "Type": "poi",
          "ItemId": null,
          "CustomExact1": "535133"
        }
      }
    },
    {
      "Property": {
        "Uid": "8d7a792023f6e8485f64ff413e6850e528fe4fe3",
        "CassetteId": "40f68cf163a82aeb127f0387eb314b4b",
        "Image": {
          "Id": "e1372788456e55c229f0b236475ef9e595f1cbd4",
          "ImageUrl": "https://iwiz-olp.c.yimg.jp/c/olp/40/40f68cf163a82aeb127f0387eb314b4b/data/58/38/0ea315d33236745376a693c0d397293a.jpg",
          "Caption": null,
          "LinkUrl": null,
          "Author": null,
          "Guid": "TZLRSCBBYP5EM6F4I5TW2TTIZA",
          "Category": 1,
          "Tag": null,
          "CreateDate": "2016-01-29T08:45:03+09:00",
          "UpdateDate": "2016-01-29T08:45:03+09:00",
          "UsefulCount": 0,
          "InputSource": "loco",
          "Type": "poi",
          "ItemId": null,
          "CustomExact1": "534548"
        }
      }
    },
    {
      "Property": {
        "Uid": "8d7a792023f6e8485f64ff413e6850e528fe4fe3",
        "CassetteId": "40f68cf163a82aeb127f0387eb314b4b",
        "Image": {
          "Id": "43509b80bc44d605ab2e5572849a12d544cfb286",
          "ImageUrl": "https://iwiz-olp.c.yimg.jp/c/olp/40/40f68cf163a82aeb127f0387eb314b4b/data/59/75/1f0df69c85b816964f22ee81bd38830e.jpg",
          "Caption": "予約限定メニュー",
          "LinkUrl": null,
          "Author": null,
          "Guid": "GH77TTU743LBAOXQIBUP6Q4HQU",
          "Category": 3,
          "Tag": null,
          "CreateDate": "2016-01-09T10:14:21+09:00",
          "UpdateDate": "2016-01-09T10:14:21+09:00",
          "UsefulCount": 0,
          "InputSource": "loco",
          "Type": "poi",
          "ItemId": null,
          "CustomExact1": "532781"
        }
      }
    },
    {
      "Property": {
        "Uid": "8d7a792023f6e8485f64ff413e6850e528fe4fe3",
        "CassetteId": "40f68cf163a82aeb127f0387eb314b4b",
        "Image": {
          "Id": "852d90fa749951dff0cc16b383692bc7a8a47440",
          "ImageUrl": "https://iwiz-olp.c.yimg.jp/c/olp/40/40f68cf163a82aeb127f0387eb314b4b/data/73/59/1918f2b36786951da02b868d977f9a04.jpg",
          "Caption": null,
          "LinkUrl": null,
          "Author": null,
          "Guid": "GH77TTU743LBAOXQIBUP6Q4HQU",
          "Category": 1,
          "Tag": null,
          "CreateDate": "2016-01-09T10:14:21+09:00",
          "UpdateDate": "2016-01-09T10:14:21+09:00",
          "UsefulCount": 0,
          "InputSource": "loco",
          "Type": "poi",
          "ItemId": null,
          "CustomExact1": "532782"
        }
      }
    },
    {
      "Property": {
        "Uid": "8d7a792023f6e8485f64ff413e6850e528fe4fe3",
        "CassetteId": "40f68cf163a82aeb127f0387eb314b4b",
        "Image": {
          "Id": "98cfec2d75db1fae7e0bebfd4c2f6e6bfa809645",
          "ImageUrl": "https://iwiz-olp.c.yimg.jp/c/olp/40/40f68cf163a82aeb127f0387eb314b4b/data/17/44/9b3ab080106fcc00e5037cb1e03a0404.jpg",
          "Caption": null,
          "LinkUrl": null,
          "Author": null,
          "Guid": "GH77TTU743LBAOXQIBUP6Q4HQU",
          "Category": 3,
          "Tag": null,
          "CreateDate": "2016-01-09T10:14:21+09:00",
          "UpdateDate": "2016-01-09T10:14:21+09:00",
          "UsefulCount": 0,
          "InputSource": "loco",
          "Type": "poi",
          "ItemId": null,
          "CustomExact1": "532783"
        }
      }
    },
    {
      "Property": {
        "Uid": "8d7a792023f6e8485f64ff413e6850e528fe4fe3",
        "CassetteId": "40f68cf163a82aeb127f0387eb314b4b",
        "Image": {
          "Id": "a038621c48c6a5ae40f15b286678f92e1f6b01b6",
          "ImageUrl": "https://iwiz-olp.c.yimg.jp/c/olp/40/40f68cf163a82aeb127f0387eb314b4b/data/7e/3b/783b717799b79cb00a4d7ff1264b5a94.jpg",
          "Caption": null,
          "LinkUrl": null,
          "Author": null,
          "Guid": "GH77TTU743LBAOXQIBUP6Q4HQU",
          "Category": 3,
          "Tag": null,
          "CreateDate": "2016-01-09T10:14:21+09:00",
          "UpdateDate": "2016-01-09T10:14:21+09:00",
          "UsefulCount": 0,
          "InputSource": "loco",
          "Type": "poi",
          "ItemId": null,
          "CustomExact1": "532780"
        }
      }
    },
    {
      "Property": {
        "Uid": "8d7a792023f6e8485f64ff413e6850e528fe4fe3",
        "CassetteId": "40f68cf163a82aeb127f0387eb314b4b",
        "Image": {
          "Id": "b1ac0b825c8f2e4aac73caf8e51325ea18f885db",
          "ImageUrl": "https://iwiz-olp.c.yimg.jp/c/olp/40/40f68cf163a82aeb127f0387eb314b4b/data/24/7a/838d15ab6127014cb23e668f217c31d1.jpg",
          "Caption": null,
          "LinkUrl": null,
          "Author": null,
          "Guid": "C4BWXHWFVMXUNODEO7QTV3KDWI",
          "Category": 1,
          "Tag": null,
          "CreateDate": "2015-12-09T09:40:17+09:00",
          "UpdateDate": "2015-12-09T09:40:17+09:00",
          "UsefulCount": 0,
          "InputSource": "loco",
          "Type": "poi",
          "ItemId": null,
          "CustomExact1": "530527"
        }
      }
    },
    {
      "Property": {
        "Uid": "8d7a792023f6e8485f64ff413e6850e528fe4fe3",
        "CassetteId": "40f68cf163a82aeb127f0387eb314b4b",
        "Image": {
          "Id": "8a9ea757ccecf0c218acd3ae0206681c2ce62fbf",
          "ImageUrl": "https://iwiz-olp.c.yimg.jp/c/olp/40/40f68cf163a82aeb127f0387eb314b4b/data/59/70/78cea668933009896b41f30a310a4759.jpg",
          "Caption": "BBQはボリュームありました。",
          "LinkUrl": null,
          "Author": null,
          "Guid": "JUJXCDLR6EFXH64ZGAVFRTRBQA",
          "Category": 1,
          "Tag": null,
          "CreateDate": "2015-10-19T10:10:20+09:00",
          "UpdateDate": "2015-10-19T10:10:20+09:00",
          "UsefulCount": 0,
          "InputSource": "loco",
          "Type": "poi",
          "ItemId": null,
          "CustomExact1": "526330"
        }
      }
    },
    {
      "Property": {
        "Uid": "8d7a792023f6e8485f64ff413e6850e528fe4fe3",
        "CassetteId": "40f68cf163a82aeb127f0387eb314b4b",
        "Image": {
          "Id": "3508a10f01016aaa7a56bc6446f73dc807248330",
          "ImageUrl": "https://iwiz-olp.c.yimg.jp/c/olp/40/40f68cf163a82aeb127f0387eb314b4b/data/1c/0b/9cb746b6734c07191222aae73128e7a9.jpg",
          "Caption": "真鯛のカルパッチョ",
          "LinkUrl": null,
          "Author": null,
          "Guid": "4CTJFZIZC6NEP3N7LMDGY6EQIA",
          "Category": 1,
          "Tag": null,
          "CreateDate": "2015-10-15T11:26:53+09:00",
          "UpdateDate": "2015-10-15T11:26:53+09:00",
          "UsefulCount": 0,
          "InputSource": "loco",
          "Type": "poi",
          "ItemId": null,
          "CustomExact1": "526033"
        }
      }
    },
    {
      "Property": {
        "Uid": "8d7a792023f6e8485f64ff413e6850e528fe4fe3",
        "CassetteId": "40f68cf163a82aeb127f0387eb314b4b",
        "Image": {
          "Id": "0157bfc89bbd48ed856ed107319fa48d994f91e6",
          "ImageUrl": "https://iwiz-olp.c.yimg.jp/c/olp/40/40f68cf163a82aeb127f0387eb314b4b/data/12/56/4a13853bd9b3bfdc0af25a695479c998.jpg",
          "Caption": "マロンとカシスのモンブラン",
          "LinkUrl": null,
          "Author": null,
          "Guid": "4CTJFZIZC6NEP3N7LMDGY6EQIA",
          "Category": 1,
          "Tag": null,
          "CreateDate": "2015-10-15T11:26:53+09:00",
          "UpdateDate": "2015-10-15T11:26:53+09:00",
          "UsefulCount": 0,
          "InputSource": "loco",
          "Type": "poi",
          "ItemId": null,
          "CustomExact1": "526034"
        }
      }
    },
    {
      "Property": {
        "Uid": "8d7a792023f6e8485f64ff413e6850e528fe4fe3",
        "CassetteId": "40f68cf163a82aeb127f0387eb314b4b",
        "Image": {
          "Id": "3f155b8f68d63d10a8de77106aa5cd42f44df51d",
          "ImageUrl": "https://iwiz-olp.c.yimg.jp/c/olp/40/40f68cf163a82aeb127f0387eb314b4b/data/2a/41/2852f0773870121f9e8c8e9fdbea848c.jpg",
          "Caption": "うにのジュレ",
          "LinkUrl": null,
          "Author": null,
          "Guid": "4CTJFZIZC6NEP3N7LMDGY6EQIA",
          "Category": 1,
          "Tag": null,
          "CreateDate": "2015-10-15T11:26:53+09:00",
          "UpdateDate": "2015-10-15T11:26:53+09:00",
          "UsefulCount": 0,
          "InputSource": "loco",
          "Type": "poi",
          "ItemId": null,
          "CustomExact1": "526032"
        }
      }
    },
    {
      "Property": {
        "Uid": "8d7a792023f6e8485f64ff413e6850e528fe4fe3",
        "CassetteId": "40f68cf163a82aeb127f0387eb314b4b",
        "Image": {
          "Id": "b47db8742fbffe02b884823dc2aa3cd26c61b264",
          "ImageUrl": "https://iwiz-olp.c.yimg.jp/c/olp/40/40f68cf163a82aeb127f0387eb314b4b/data/1f/29/9935b7ea4b780754d40acbdf8a296543.jpg",
          "Caption": "オマール海老のグリル アメリケーヌソース",
          "LinkUrl": null,
          "Author": null,
          "Guid": "4CTJFZIZC6NEP3N7LMDGY6EQIA",
          "Category": 1,
          "Tag": null,
          "CreateDate": "2015-10-15T11:26:53+09:00",
          "UpdateDate": "2015-10-15T11:26:53+09:00",
          "UsefulCount": 0,
          "InputSource": "loco",
          "Type": "poi",
          "ItemId": null,
          "CustomExact1": "526031"
        }
      }
    },
    {
      "Property": {
        "Uid": "8d7a792023f6e8485f64ff413e6850e528fe4fe3",
        "CassetteId": "40f68cf163a82aeb127f0387eb314b4b",
        "Image": {
          "Id": "599210b322f6cf459354bf7ca87af12ec3621db6",
          "ImageUrl": "https://iwiz-olp.c.yimg.jp/c/olp/40/40f68cf163a82aeb127f0387eb314b4b/data/14/41/7dc19b42f2873ed52ab075496957ba0c.jpg",
          "Caption": "ローストビーフ250g",
          "LinkUrl": null,
          "Author": null,
          "Guid": "4CTJFZIZC6NEP3N7LMDGY6EQIA",
          "Category": 1,
          "Tag": null,
          "CreateDate": "2015-10-15T11:26:53+09:00",
          "UpdateDate": "2015-10-15T11:26:53+09:00",
          "UsefulCount": 0,
          "InputSource": "loco",
          "Type": "poi",
          "ItemId": null,
          "CustomExact1": "526030"
        }
      }
    },
    {
      "Property": {
        "Uid": "8d7a792023f6e8485f64ff413e6850e528fe4fe3",
        "CassetteId": "40f68cf163a82aeb127f0387eb314b4b",
        "Image": {
          "Id": "44ab8a48bd0e7be9ba158a02ff98e23af3d60eb5",
          "ImageUrl": "https://iwiz-olp.c.yimg.jp/c/olp/40/40f68cf163a82aeb127f0387eb314b4b/data/31/7c/128189e167185c0c4786a85e43c12bd1.jpg",
          "Caption": "自家製ピクルス",
          "LinkUrl": null,
          "Author": null,
          "Guid": "4CTJFZIZC6NEP3N7LMDGY6EQIA",
          "Category": 1,
          "Tag": null,
          "CreateDate": "2015-10-15T11:26:53+09:00",
          "UpdateDate": "2015-10-15T11:26:53+09:00",
          "UsefulCount": 0,
          "InputSource": "loco",
          "Type": "poi",
          "ItemId": null,
          "CustomExact1": "526027"
        }
      }
    },
    {
      "Property": {
        "Uid": "8d7a792023f6e8485f64ff413e6850e528fe4fe3",
        "CassetteId": "40f68cf163a82aeb127f0387eb314b4b",
        "Image": {
          "Id": "8b5c233da0f1cdb6d40ab3baa0b56a9dce4eee6d",
          "ImageUrl": "https://iwiz-olp.c.yimg.jp/c/olp/40/40f68cf163a82aeb127f0387eb314b4b/data/29/43/62bcf96a4b9f6b544cafa7febfc36526.jpg",
          "Caption": "ホタテと海老の香草焼き",
          "LinkUrl": null,
          "Author": null,
          "Guid": "4CTJFZIZC6NEP3N7LMDGY6EQIA",
          "Category": 1,
          "Tag": null,
          "CreateDate": "2015-10-15T11:26:53+09:00",
          "UpdateDate": "2015-10-15T11:26:53+09:00",
          "UsefulCount": 0,
          "InputSource": "loco",
          "Type": "poi",
          "ItemId": null,
          "CustomExact1": "526029"
        }
      }
    },
    {
      "Property": {
        "Uid": "8d7a792023f6e8485f64ff413e6850e528fe4fe3",
        "CassetteId": "40f68cf163a82aeb127f0387eb314b4b",
        "Image": {
          "Id": "9f477e20d54faca32cd0ab48ba1e6088d59887c4",
          "ImageUrl": "https://iwiz-olp.c.yimg.jp/c/olp/40/40f68cf163a82aeb127f0387eb314b4b/data/3d/75/3ca0881ebe780403ef8c5122100d6612.jpg",
          "Caption": "トリュフのビスマルク",
          "LinkUrl": null,
          "Author": null,
          "Guid": "4CTJFZIZC6NEP3N7LMDGY6EQIA",
          "Category": 1,
          "Tag": null,
          "CreateDate": "2015-10-15T11:26:53+09:00",
          "UpdateDate": "2015-10-15T11:26:53+09:00",
          "UsefulCount": 1,
          "InputSource": "loco",
          "Type": "poi",
          "ItemId": null,
          "CustomExact1": "526028"
        }
      }
    },
    {
      "Property": {
        "Uid": "8d7a792023f6e8485f64ff413e6850e528fe4fe3",
        "CassetteId": "40f68cf163a82aeb127f0387eb314b4b",
        "Image": {
          "Id": "0e0d601165728384d644536981c8c7a9b70efe1c",
          "ImageUrl": "https://iwiz-olp.c.yimg.jp/c/olp/40/40f68cf163a82aeb127f0387eb314b4b/data/4f/4f/09e09730f9d331a84714e3b648f8cdf1.jpg",
          "Caption": "トリュフとフォアグラのリゾット 美味",
          "LinkUrl": null,
          "Author": null,
          "Guid": "6TKBSADJKXK6AUKJF5KYMDS4SM",
          "Category": 3,
          "Tag": null,
          "CreateDate": "2015-08-31T13:46:52+09:00",
          "UpdateDate": "2015-08-31T13:46:52+09:00",
          "UsefulCount": 0,
          "InputSource": "loco",
          "Type": "poi",
          "ItemId": null,
          "CustomExact1": "522829"
        }
      }
    },
    {
      "Property": {
        "Uid": "8d7a792023f6e8485f64ff413e6850e528fe4fe3",
        "CassetteId": "40f68cf163a82aeb127f0387eb314b4b",
        "Image": {
          "Id": "c353fb627e3215b9a47ff15d236768182c36aff7",
          "ImageUrl": "https://iwiz-olp.c.yimg.jp/c/olp/40/40f68cf163a82aeb127f0387eb314b4b/data/31/02/3a358ded58882f3974126c289baabe9a.jpg",
          "Caption": null,
          "LinkUrl": null,
          "Author": null,
          "Guid": "ZYKEVTIIA4V46ELYXURKFT5XYE",
          "Category": 3,
          "Tag": null,
          "CreateDate": "2015-08-30T13:27:38+09:00",
          "UpdateDate": "2015-08-30T13:27:38+09:00",
          "UsefulCount": 0,
          "InputSource": "loco",
          "Type": "poi",
          "ItemId": null,
          "CustomExact1": "522742"
        }
      }
    },
    {
      "Property": {
        "Uid": "8d7a792023f6e8485f64ff413e6850e528fe4fe3",
        "CassetteId": "40f68cf163a82aeb127f0387eb314b4b",
        "Image": {
          "Id": "b968ba6609d551cd13f77984d04ba03be3bdd4b8",
          "ImageUrl": "https://iwiz-olp.c.yimg.jp/c/olp/40/40f68cf163a82aeb127f0387eb314b4b/data/5f/6c/05cb6a11ea3551133bb5b93610e485ac.jpg",
          "Caption": null,
          "LinkUrl": null,
          "Author": null,
          "Guid": "ZYKEVTIIA4V46ELYXURKFT5XYE",
          "Category": 3,
          "Tag": null,
          "CreateDate": "2015-08-30T13:27:38+09:00",
          "UpdateDate": "2015-08-30T13:27:38+09:00",
          "UsefulCount": 1,
          "InputSource": "loco",
          "Type": "poi",
          "ItemId": null,
          "CustomExact1": "522739"
        }
      }
    },
    {
      "Property": {
        "Uid": "8d7a792023f6e8485f64ff413e6850e528fe4fe3",
        "CassetteId": "40f68cf163a82aeb127f0387eb314b4b",
        "Image": {
          "Id": "410c8546b7a44ab23c39cce2526817163f40ee77",
          "ImageUrl": "https://iwiz-olp.c.yimg.jp/c/olp/40/40f68cf163a82aeb127f0387eb314b4b/data/21/25/70c68b17082657cdd522c6b0c46cff5f.jpg",
          "Caption": null,
          "LinkUrl": null,
          "Author": null,
          "Guid": "ZYKEVTIIA4V46ELYXURKFT5XYE",
          "Category": 3,
          "Tag": null,
          "CreateDate": "2015-08-30T13:27:38+09:00",
          "UpdateDate": "2015-08-30T13:27:38+09:00",
          "UsefulCount": 3,
          "InputSource": "loco",
          "Type": "poi",
          "ItemId": null,
          "CustomExact1": "522741"
        }
      }
    },
    {
      "Property": {
        "Uid": "8d7a792023f6e8485f64ff413e6850e528fe4fe3",
        "CassetteId": "40f68cf163a82aeb127f0387eb314b4b",
        "Image": {
          "Id": "6e4312cfb37cc73858016fb1b0ef1afc3c9e7ba4",
          "ImageUrl": "https://iwiz-olp.c.yimg.jp/c/olp/40/40f68cf163a82aeb127f0387eb314b4b/data/4a/1d/1c150c3a3168d4bf7d9053e74111bddb.jpg",
          "Caption": null,
          "LinkUrl": null,
          "Author": null,
          "Guid": "ZYKEVTIIA4V46ELYXURKFT5XYE",
          "Category": 1,
          "Tag": null,
          "CreateDate": "2015-08-30T13:27:38+09:00",
          "UpdateDate": "2015-08-30T13:27:38+09:00",
          "UsefulCount": 1,
          "InputSource": "loco",
          "Type": "poi",
          "ItemId": null,
          "CustomExact1": "522740"
        }
      }
    }
  ]
}
