@startuml{tenpoProxyResize.png}

title LSBE Proxy API

/'
 ' ステークホルダー
 '/
actor ユーザー as user
participant Frontend as front
participant LSBEAPI as lsbe
/'
 ' シーケンス図
 '/
user -> front: api: /api/tenpo
ref#9EC5EE over front: Request
activate front

    front -> lsbe: 店舗情報取得
    activate lsbe
      ref#9EC5EE over lsbe: LSBE API
      front <-- lsbe: 取得した店舗情報
    deactivate lsbe

  user <-- front: 取得した店舗情報
deactivate front

@enduml
