{
  "ResultInfo": {
    "Count": 1,
    "Total": 1,
    "Start": 1,
    "SearchInfo": {
      "QueryCategory": "Gourmet",
      "ResultSort": "webtopic",
      "QueryClass": "Business",
      "WebTopicFrom": "2018/03/08",
      "WebTopicTo": "2018/03/14"
    },
    "Latency": 0.087500095367432
  },
  "Feature": [
    {
      "Name": "ＢＥ　ｓｔｕｄｉｏ「スクール２１」 浦和教室",
      "Id": "105829",
      "Gid": "8VxrJPwidjw",
      "Description": "◇ＢＥ　ｓｔｕｄｉｏ（ビースタジオ）のカリキュラムは、英語教育の変化にしっかりと対応◇<br><br><br><br>All Englishのレッスンと、発達段階を抑えたカリキュラムとコース設計で「聞く」「話す」「読む」「書く」の4技能に加え、「英語でやり取りをする力」を確実に身につけることが出来ます。<br><br><br><br>◇年齢と発達に合わせた「カリキュラムとコース設計」◇<br><br><br><br>◆Kids（年少・年中・年長）<br><br>幼児の集中力を考慮した時間配分で、お子様の興味・関心にぴったり合った歌、ダンス、クラフト活動、ゲームなど、豊富な内容で構成しています。異なる場面・条件で、重要な単語や表現を何度も繰り返し使用することで、学んだ英語を徹底的に自分のものにしていきます。<br><br><br><br>◆Elementary(小1・小2)<br><br>レッスンには、身近な学校生活を舞台にしたストーリーやゲームで、子どもたちの「言いたい」「聞きたい」「やりたい」気持ちを引き出す仕掛けがもりだくさん。アルファベットの大文字、小文字からスタートし、音と文字のつながりを理解していきます。よく使われる単語の読み書きまで、発達段階に合わせて習得します。<br><br><br><br>◆Intermediate(小3・小4)<br><br>「英語を楽しく学ぶ」「文脈のある英語にたっぷりふれる」アプローチで、自分や家族、友だちのことについて会話したり、発表したり出来るようになります。頻出単語や既出単語を読めるようになり、知っている単語を書けるようになります。読み書きの土台もしっかりと養います。<br><br><br><br>◆Advanced（小5・小6）<br><br>話せる事柄を「身のまわりのこと」から「社会のこと」にまで広げます。学んだ英語を使って自己紹介文が書けるようになります。よりリアルなコミュニケーションに積極的に挑戦します。<br><br><br><br>◇「GTEC Junior」を導入し、お子様の力をきめ細やかに測定します。◇<br><br>多くの企業や学校で活用されている「GTECシリーズ」。その「GTECシリーズ」にある小学生対象のタブレット形式のテスト「GTEC Junior」を導入しています。「聞く」「話す」「読む」「書く」の４技能をきめ細やかに測定し、お子様一人ひとりの伸ばしどころを見極め、力を伸ばすサポートをいたします。",
      "Geometry": {
        "Coordinates": "139.6534424,35.8571663",
        "Type": "point"
      },
      "Category": [

      ],
      "Property": {
        "SmartPhoneCouponFlag": "false",
        "Access1": "浦和駅/JR京浜東北線",
        "AddressMatchingLevel": "6",
        "CassetteId": "68caed36458f5a7187a67f252f13150e",
        "CatchCopy": "「英語教育の変化」にしっかり対応した教室です",
        "CreateDate": "2017-12-07T06:39:02+09:00",
        "LeadImage": "https://iwiz-olp.c.yimg.jp/c/olp/68/68caed36458f5a7187a67f252f13150e/image/5d/16/17330/juku_17330_01.jpg",
        "PpcDescription": "通話料無料",
        "StorageUrl": "https://map.yahooapis.jp/io/v1/storage/poi/68caed36458f5a7187a67f252f13150e/poi/105829",
        "UpdateDate": "2018-01-18T06:49:39+09:00",
        "Uid": "0eee7e5dc88ea0ceef87d7110a5b0167a648c2a1",
        "Yomi": "ビースタジオ　スクールニジュウイチ ウラワキョウシツ",
        "Address": "埼玉県さいたま市浦和区高砂２－２－１７",
        "Detail": {
          "AdditionalComment1": "最大限に英語に「ふれる」「使う」機会を作るため、レッスンはAll English。「英語大好き！」「英語をもっと話したい！」気持ちを育みながら、「本当に話せる英語の力」を身につけます。",
          "AdditionalComment2": "こどもの教育を熟知したベネッセならではの、発達段階を抑えたカリキュラムとコース設計で、楽しみながら、確実に「聞く」「話す」「読む」「書く」の4技能がバランスよく身につきます。",
          "AdditionalCommentTitle1": "指導方針",
          "AdditionalCommentTitle2": "カリキュラム",
          "BusinessHour": "10：00～18：00 （土日祝除く）",
          "DocRequestMobileUrl": "http://www.jyukunavi.jp/m/cart/cart.php?kousha_id=105829&yloco=1",
          "DocRequestSmartPhoneUrl": "https://www.jyukunavi.jp/iphone/cart/cart.php?kousha_id=105829&yloco=1",
          "DocRequestUrl": "https://www.jyukunavi.jp/cart/cart.php?kousha_id=105829&yloco=1",
          "LessonContent": "集団指導、子供英語",
          "LessonPurpose": "補習",
          "MobileUrl1": "http://www.jyukunavi.jp/m/detail/105829.html?yloco=1",
          "PcUrl1": "https://www.jyukunavi.jp/detail/105829.html?yloco=1",
          "PpcNumber": "0037-6068-60221",
          "SmartPhoneUrl1": "https://www.jyukunavi.jp/iphone/detail/105829.html?yloco=1",
          "SpecialFeature": "体験授業、駅近く、オリジナルテキスト",
          "TargetGrade": "幼児、小学生",
          "ZipCode": "330-0063",
          "YUrl": "https://loco.yahoo.co.jp/place/g-8VxrJPwidjw",
          "JunkFlag": "false",
          "AvailabilityCode": "",
          "WaitingTime": "",
          "WaitingNumber": "",
          "Image1": "https://iwiz-olp.c.yimg.jp/c/olp/68/68caed36458f5a7187a67f252f13150e/image/79/7e/17330/logo_17330_01.jpg",
          "ImageUrl1": null,
          "ImageHeight1": 67,
          "ImageWidth1": 98,
          "ImageKind1": "sign",
          "ImageCid1": "68caed36458f5a7187a67f252f13150e",
          "Image2": "https://iwiz-olp.c.yimg.jp/c/olp/68/68caed36458f5a7187a67f252f13150e/image/5d/16/17330/juku_17330_01.jpg",
          "ImageUrl2": null,
          "ImageHeight2": 67,
          "ImageWidth2": 98,
          "ImageKind2": "sign",
          "ImageCid2": "68caed36458f5a7187a67f252f13150e",
          "Image3": "https://iwiz-olp.c.yimg.jp/c/olp/68/68caed36458f5a7187a67f252f13150e/image/42/1f/17330/juku_17330_02.jpg",
          "ImageUrl3": null,
          "ImageHeight3": 270,
          "ImageWidth3": 360,
          "ImageKind3": "person",
          "ImageCid3": "68caed36458f5a7187a67f252f13150e",
          "Image4": "https://iwiz-olp.c.yimg.jp/c/olp/68/68caed36458f5a7187a67f252f13150e/image/1e/3d/17330/juku_17330_05.jpg",
          "ImageUrl4": null,
          "ImageHeight4": 90,
          "ImageWidth4": 140,
          "ImageKind4": "other",
          "ImageCid4": "68caed36458f5a7187a67f252f13150e",
          "Image5": "https://iwiz-olp.c.yimg.jp/c/olp/68/68caed36458f5a7187a67f252f13150e/image/29/0b/17330/juku_17330_04.jpg",
          "ImageUrl5": null,
          "ImageHeight5": 90,
          "ImageWidth5": 140,
          "ImageKind5": "person",
          "ImageCid5": "68caed36458f5a7187a67f252f13150e",
          "Image6": "https://iwiz-olp.c.yimg.jp/c/olp/68/68caed36458f5a7187a67f252f13150e/image/2b/6f/17330/kou_105829_01.jpg",
          "ImageUrl6": null,
          "ImageHeight6": 190,
          "ImageWidth6": 190,
          "ImageKind6": "person",
          "ImageCid6": "68caed36458f5a7187a67f252f13150e",
          "Image7": "https://iwiz-olp.c.yimg.jp/c/olp/68/68caed36458f5a7187a67f252f13150e/image/17/11/17330/kou_105829_02.jpg",
          "ImageUrl7": null,
          "ImageHeight7": 190,
          "ImageWidth7": 190,
          "ImageKind7": "person",
          "ImageCid7": "68caed36458f5a7187a67f252f13150e",
          "Image8": "https://iwiz-olp.c.yimg.jp/c/olp/68/68caed36458f5a7187a67f252f13150e/image/08/39/17330/kou_105829_03.jpg",
          "ImageUrl8": null,
          "ImageHeight8": 190,
          "ImageWidth8": 190,
          "ImageKind8": "person",
          "ImageCid8": "68caed36458f5a7187a67f252f13150e",
          "Image9": "https://iwiz-olp.c.yimg.jp/c/olp/68/68caed36458f5a7187a67f252f13150e/image/4b/43/17330/kou_105829_04.jpg",
          "ImageUrl9": null,
          "ImageHeight9": 190,
          "ImageWidth9": 190,
          "ImageKind9": "person",
          "ImageCid9": "68caed36458f5a7187a67f252f13150e",
          "Image10": "https://iwiz-olp.c.yimg.jp/c/olp/68/68caed36458f5a7187a67f252f13150e/image/22/17/17330/kou_105829_05.jpg",
          "ImageUrl10": null,
          "ImageHeight10": 190,
          "ImageWidth10": 190,
          "ImageKind10": "person",
          "ImageCid10": "68caed36458f5a7187a67f252f13150e"
        },
        "WebTopic": {
          "Comment": null,
          "CommentDate": null,
          "Label": "0",
          "Score": "50",
          "Buzz": "0"
        },
        "PlaceInfo": [

        ],
        "StationInfo": {
          "RailGroup": [

          ],
          "DiaInfo": [

          ],
          "Exit": [

          ],
          "Facility": [

          ],
          "RailInfo": [

          ]
        },
        "Country": {
          "Code": "JP",
          "Name": "日本"
        },
        "SearchArea": [
          {
            "Code": "111000000",
            "Name": "埼玉県"
          },
          {
            "Code": "111010000",
            "Name": "さいたま市"
          },
          {
            "Code": "111010100",
            "Name": "浦和駅周辺（浦和区）"
          }
        ],
        "Genre": [
          {
            "Code": "0407001",
            "Name": "学習塾、進学教室",
            "Type": "loco",
            "Level": "3"
          }
        ],
        "Coupon": [

        ],
        "AddressElement": [
          {
            "Name": "埼玉県",
            "Kana": "さいたまけん",
            "Level": "prefecture",
            "Code": "11"
          },
          {
            "Name": "さいたま市浦和区",
            "Kana": "さいたましうらわく",
            "Level": "city",
            "Code": "11107"
          },
          {
            "Name": "高砂",
            "Kana": "たかさご",
            "Level": "oaza",
            "Code": "11107011"
          },
          {
            "Name": "２丁目",
            "Kana": "２ちょうめ",
            "Level": "aza",
            "Code": "11107011002"
          },
          {
            "Name": "２",
            "Kana": "２",
            "Level": "detail1",
            "Code": "1110701100200002"
          }
        ],
        "Station": [
          {
            "Id": "21982",
            "SubId": "2198201",
            "Name": "浦和",
            "Railway": "JR在来線",
            "Exit": "西口",
            "ExitId": "2252",
            "Distance": "420",
            "Time": "5",
            "Geometry": {
              "Coordinates": "139.656992,35.858435",
              "Type": "point"
            }
          },
          {
            "Id": "22085",
            "SubId": "2208501",
            "Name": "中浦和",
            "Railway": "JR在来線",
            "Exit": "出口",
            "ExitId": "2421",
            "Distance": "1567",
            "Time": "19",
            "Geometry": {
              "Coordinates": "139.63791,35.853324",
              "Type": "point"
            }
          },
          {
            "Id": "22151",
            "SubId": "2215101",
            "Name": "武蔵浦和",
            "Railway": "JR在来線",
            "Exit": "東口",
            "ExitId": "2521",
            "Distance": "1809",
            "Time": "22",
            "Geometry": {
              "Coordinates": "139.646965,35.845741",
              "Type": "point"
            }
          }
        ],
        "ItemInfo": [

        ],
        "LocoRating": "0.0",
        "LocoReviewCount": "0",
        "KeepCount": "0",
        "Reserve": {
          "Dining": [

          ]
        },
        "TodayBusinessHour": ""
      },
      "Internal": {
        "UidList": [
          "0eee7e5dc88ea0ceef87d7110a5b0167a648c2a1"
        ],
        "CidList": [
          "68caed36458f5a7187a67f252f13150e"
        ],
        "NameList": [
          "ＢＥ　ｓｔｕｄｉｏ「スクール２１」 浦和教室"
        ],
        "LogVersion": "20180316",
        "LifeMagazine": [

        ],
        "Partial": {
          "AvgRating": "0.0",
          "ReviewCount": "0",
          "KeepCount": "0",
          "WebTopic": {
            "Label": "0",
            "Score": "50",
            "Buzz": "0"
          }
        },
        "RealTime": {
          "AvailabilityCode": "",
          "WaitingTime": "",
          "WaitingNumber": "",
          "Flag": [

          ],
          "RoomAvailabilityCode": "",
          "MaintenanceStartDatetime": "",
          "MaintenanceEndDatetime": "",
          "Dining": [

          ]
        }
      },
      "Children": [
        {
          "Id": "105829",
          "id": "105829",
          "CassetteId": "68caed36458f5a7187a67f252f13150e",
          "CassetteOwnerLogoImage": "https://iwiz-olp.c.yimg.jp/c/olp/68/68caed36458f5a7187a67f252f13150e/info/42/7f/thumbnail/image1346920203.gif",
          "CassetteHeader": "塾ナビ",
          "CassetteOwner": "塾ナビ（株式会社イトクロ）",
          "CassetteOwnerUrl": "https://www.jyukunavi.jp/",
          "OnlineReserveFlag": null,
          "OnlineReserveRequestFlag": null,
          "PcUrl1": "https://www.jyukunavi.jp/detail/105829.html?yloco=1",
          "SmartPhoneUrl1": "https://www.jyukunavi.jp/iphone/detail/105829.html?yloco=1",
          "ReservationPcUrl1": null,
          "ReservationSmartPhoneUrl1": null,
          "ReservationRequestPcUrl1": null,
          "ReservationRequestSmartPhoneUrl1": null,
          "ReservationLabelCode": null,
          "ReservationDisplayFlag": null,
          "ReservationDisplayCode": null,
          "Name": null,
          "LeadImage": null,
          "Tel1": null,
          "Address": null,
          "Rating": null,
          "BudgetLunch": null,
          "BudgetDinner": null,
          "Category": null,
          "CatchCopy": null
        }
      ]
    }
  ]
}
