{
  "ResultInfo": {
    "Count": 1,
    "Total": 1,
    "Start": 1,
    "SearchInfo": {
      "QueryCategory": "Gourmet",
      "ResultSort": "webtopic",
      "QueryClass": "Business",
      "WebTopicFrom": "2018/02/13",
      "WebTopicTo": "2018/02/19"
    },
    "Latency": 0.089360952377319
  },
  "Feature": [
    {
      "Name": "フライフィールド逗子",
      "Id": "2254",
      "Gid": "PsWANeE-his",
      "Description": "",
      "Geometry": {
        "Coordinates": "139.553094,35.296478",
        "Type": "point"
      },
      "Category": [],
      "Property": {
        "SmartPhoneCouponFlag": "false",
        "AddressMatchingLevel": "6",
        "CassetteId": "0d9cfe2d3f3c3fc56ea2c95fbe0093d7",
        "CreateDate": "2017-01-12T17:29:22+09:00",
        "CreditcardFlag": "false",
        "Holiday": "火曜日",
        "ParkingFlag": "true",
        "StorageUrl": "https://map.yahooapis.jp/io/v1/storage/poi/0d9cfe2d3f3c3fc56ea2c95fbe0093d7/poi/2254",
        "UpdateDate": "2017-11-30T07:00:56+09:00",
        "Uid": "17861d7dac176b8acd80b6937ff63a8bac91a57e",
        "Yomi": null,
        "Address": "神奈川県逗子市小坪5-23-12 逗子マリーナ内",
        "Detail": {
          "BusinessHour": "9:00～17:00",
          "Item": [
            {
              "ItemCode1": "pln3000003748",
              "ItemDescription1": "初心者だって、空を飛べます！話題のフライボードを体験しよう<br>海から空へと飛び上がる、インパクト抜群のフライボード！15分間のフライトを体験できます。落っこちないように全身でバランスを取り続ける、ハラハラドキドキの体験をお楽しみください！スタッフが丁寧にレクチャーするので、初めての方もリラックスしてお越しください。女性スタッフも在籍しており、女性も気軽に来店できます。湘南の海や逗子マリーナの素晴らしい景色を、空から眺めてみませんか。<br>たくさんのお客様が体験した感動・興奮を、体験してみませんか<br>当店ではすでに、何千人ものお客様が空中散歩を体験しました。「楽しかった！」「初めてだけど飛べた！」という声が、たくさん届いております！その感動・興奮を、実際に味わってみませんか。スリル満点のフライボードは、友達と遊ぶ時や恋人とのデートにもピッタリ。話題のマリンアクティビティを体験するなら、今しかありません！",
              "ItemImageUrl1": "https://d15no6vzq701ao.cloudfront.net/image/production/acp/3000001578/pln3000003748/b3e77ae0-7a1e-4dd1-b0b0-6f35340e1822.jpg",
              "ItemPcUrl1": "http://www.asoview.com/act/flyboard/kanagawa/are0140800/pln3000003748/?affcode=yjloco",
              "ItemPrice1": "料金（税込）",
              "ItemPriceType1": "6000",
              "ItemSmartPhoneUrl1": "http://www.asoview.com/act/flyboard/kanagawa/are0140800/pln3000003748/?affcode=yjloco",
              "ItemTitle1": "【神奈川・湘南・フライボード】空と海を自由に飛びまわろう！逗子でフライボード体験"
            },
            {
              "ItemCode1": "pln3000008839",
              "ItemDescription1": "初心者も気軽に楽しめる！逗子でホバーボード体験<br>ホバーボードは、ジェット噴射の水圧によって飛べる夢の乗り物。別名・空飛ぶサーフィンです。初めての方も大歓迎！ホバーボードは運動神経に関係なく、どなた様にもチャレンジしていただけます。インストラクターが付くので安心・安全。異次元的なアクティビティを、お気軽に体感してみてください。<br>ロケーション＆アクセス抜群の逗子！空飛ぶサーフィンを楽しもう<br>美しい海やビーチはもちろん、緑も豊かな逗子エリア。新宿から電車でおよそ80分の好立地も魅力的です。そんなロケーション＆アクセス抜群の逗子で、空飛ぶサーフィンにトライしてみませんか。体験は毎週金曜日に開催中！ウエットスーツも別途料金にてレンタル可能なので、寒い日も手ぶらで楽しめます。",
              "ItemImageUrl1": "https://d15no6vzq701ao.cloudfront.net/image/production/acp/3000004309/pln3000008839/6a5d46cd-b39e-492d-9aa8-990302026adb.jpg",
              "ItemPcUrl1": "http://www.asoview.com/act/hoverboard/kanagawa/are0140800/pln3000008839/?affcode=yjloco",
              "ItemPrice1": "料金（税込）",
              "ItemPriceType1": "8000",
              "ItemSmartPhoneUrl1": "http://www.asoview.com/act/hoverboard/kanagawa/are0140800/pln3000008839/?affcode=yjloco",
              "ItemTitle1": "【神奈川・湘南・ホバーボード】初心者大歓迎の空飛ぶサーフィン！気軽に異次元体験しよう"
            },
            {
              "ItemCode1": "pln3000018661",
              "ItemDescription1": "肩に装着したジェットで空を飛ぼう！<br>ジェットパックで、海と空を飛び回りましょう。まずは講師がデモンストレーションをお見せするので、どんな風に飛ぶのか、イメージをつかめます。ジェットが噴射されれば、体がグングンと空へ上昇！肩を少し動かすだけで、簡単に方向転換ができます。器材は肩にガッチリと装着するので、バランスがとても取りやすいですよ。肩からジェットが噴射される光景は、まるでSF映画のよう！話題のアクティビティを、ぜひご体験ください。",
              "ItemImageUrl1": "https://d15no6vzq701ao.cloudfront.net/image/production/acp/3000007445/pln3000018661/50adebec-0896-4f43-b15c-8c8eff13e1b2.jpg",
              "ItemPcUrl1": "http://www.asoview.com/act/jetpack/kanagawa/are0140800/pln3000018661/?affcode=yjloco",
              "ItemPrice1": "料金（税込）",
              "ItemPriceType1": "8500",
              "ItemSmartPhoneUrl1": "http://www.asoview.com/act/jetpack/kanagawa/are0140800/pln3000018661/?affcode=yjloco",
              "ItemTitle1": "【神奈川・湘南・ジェットパック】肩のジェットで飛び上がる！？新感覚のジェットパックを体験"
            },
            {
              "ItemCode1": "pln3000018660",
              "ItemDescription1": "「ひねり」や「回転」など、新しい技にチャレンジしよう！<br>ジェットブレードで、空と海を飛び回ろう！両足を一枚の板で固定するフライボードと違って、両足を自由に動かせるジェットブレードなら、技の幅が広がります。足をクイッと動かす「ひねり」なら、その場で素早くターン！クルクルと回る「回転」は、まるでバレエのように華麗な技。自由度が高く、多彩な技に挑戦できるジェットブレードを、いち早くご体験ください！",
              "ItemPcUrl1": "http://www.asoview.com/act/jetblade/kanagawa/are0140800/pln3000018660/?affcode=yjloco",
              "ItemPrice1": "料金（税込）",
              "ItemPriceType1": "6000",
              "ItemSmartPhoneUrl1": "http://www.asoview.com/act/jetblade/kanagawa/are0140800/pln3000018660/?affcode=yjloco",
              "ItemTitle1": "【神奈川・湘南・ジェットブレード】多彩なトリックを楽しめる！ジェットブレード体験"
            }
          ],
          "ItemPrice1": "料金（税込） 6000",
          "ItemPrice2": "料金（税込） 8000",
          "ItemPrice3": "料金（税込） 8500",
          "ItemPrice4": "料金（税込） 6000",
          "OpenTwentyFourHours": "false",
          "ReservationPcUrl1": "http://www.asoview.com/base/2254/?affcode=yjloco",
          "ZipCode": "158-0094",
          "YUrl": "https://loco.yahoo.co.jp/place/g-PsWANeE-his",
          "JunkFlag": "true",
          "AvailabilityCode": "",
          "WaitingTime": "",
          "WaitingNumber": "",
          "Image1": "https://d15no6vzq701ao.cloudfront.net/image/production/acp/3000001578/pln3000003748/b3e77ae0-7a1e-4dd1-b0b0-6f35340e1822.jpg",
          "ImageUrl1": null,
          "ImageHeight1": null,
          "ImageWidth1": null,
          "ImageKind1": null,
          "ImageCid1": "0d9cfe2d3f3c3fc56ea2c95fbe0093d7",
          "Image2": "https://d15no6vzq701ao.cloudfront.net/image/production/acp/3000001578/pln3000003748/8cc872fb-1f78-402b-bc31-9cc8505376dd.jpg",
          "ImageUrl2": null,
          "ImageHeight2": null,
          "ImageWidth2": null,
          "ImageKind2": null,
          "ImageCid2": "0d9cfe2d3f3c3fc56ea2c95fbe0093d7",
          "Image3": "https://d15no6vzq701ao.cloudfront.net/image/production/acp/3000001578/pln3000003748/a872f695-101f-4fba-8068-d1b8e164317b.jpg",
          "ImageUrl3": null,
          "ImageHeight3": null,
          "ImageWidth3": null,
          "ImageKind3": null,
          "ImageCid3": "0d9cfe2d3f3c3fc56ea2c95fbe0093d7",
          "Image4": "https://d15no6vzq701ao.cloudfront.net/image/production/acp/3000001578/pln3000003748/0bc1ca09-69b5-4d80-9e28-cf1aa158e0cc.jpg",
          "ImageUrl4": null,
          "ImageHeight4": null,
          "ImageWidth4": null,
          "ImageKind4": null,
          "ImageCid4": "0d9cfe2d3f3c3fc56ea2c95fbe0093d7",
          "Image5": "https://d15no6vzq701ao.cloudfront.net/image/production/acp/3000001578/pln3000003748/a253d3ee-56c4-46de-9e1a-2ae05824ca39.jpg",
          "ImageUrl5": null,
          "ImageHeight5": null,
          "ImageWidth5": null,
          "ImageKind5": null,
          "ImageCid5": "0d9cfe2d3f3c3fc56ea2c95fbe0093d7",
          "Image6": "https://d15no6vzq701ao.cloudfront.net/image/production/acp/3000001578/pln3000003748/880f7ea2-a068-4a20-8f8b-cb7d2fd83f0c.jpg",
          "ImageUrl6": null,
          "ImageHeight6": null,
          "ImageWidth6": null,
          "ImageKind6": null,
          "ImageCid6": "0d9cfe2d3f3c3fc56ea2c95fbe0093d7",
          "Image7": "https://d15no6vzq701ao.cloudfront.net/image/production/acp/3000001578/pln3000003748/17040ae1-b05c-47c6-bead-dd368891e2ad.jpg",
          "ImageUrl7": null,
          "ImageHeight7": null,
          "ImageWidth7": null,
          "ImageKind7": null,
          "ImageCid7": "0d9cfe2d3f3c3fc56ea2c95fbe0093d7",
          "Image8": "https://d15no6vzq701ao.cloudfront.net/image/production/acp/3000001578/pln3000003748/5a169326-229a-4f8b-b99e-636e919bfb0c.jpg",
          "ImageUrl8": null,
          "ImageHeight8": null,
          "ImageWidth8": null,
          "ImageKind8": null,
          "ImageCid8": "0d9cfe2d3f3c3fc56ea2c95fbe0093d7",
          "Image9": "https://d15no6vzq701ao.cloudfront.net/image/production/acp/3000001578/pln3000003748/b43edf2e-07c0-493d-b048-28a18c97aa46.jpg",
          "ImageUrl9": null,
          "ImageHeight9": null,
          "ImageWidth9": null,
          "ImageKind9": null,
          "ImageCid9": "0d9cfe2d3f3c3fc56ea2c95fbe0093d7",
          "Image10": "https://d15no6vzq701ao.cloudfront.net/image/production/acp/3000001578/pln3000003748/6a0d9738-0d54-4a36-9a19-3ead5adc6bfb.jpg",
          "ImageUrl10": null,
          "ImageHeight10": null,
          "ImageWidth10": null,
          "ImageKind10": null,
          "ImageCid10": "0d9cfe2d3f3c3fc56ea2c95fbe0093d7",
          "Image11": "https://d15no6vzq701ao.cloudfront.net/image/production/acp/3000004309/pln3000008839/6a5d46cd-b39e-492d-9aa8-990302026adb.jpg",
          "ImageUrl11": null,
          "ImageHeight11": null,
          "ImageWidth11": null,
          "ImageKind11": null,
          "ImageCid11": "0d9cfe2d3f3c3fc56ea2c95fbe0093d7",
          "Image12": "https://d15no6vzq701ao.cloudfront.net/image/production/acp/3000004309/pln3000008839/985b1ebf-b6d4-4404-af3e-6857897be43d.jpg",
          "ImageUrl12": null,
          "ImageHeight12": null,
          "ImageWidth12": null,
          "ImageKind12": null,
          "ImageCid12": "0d9cfe2d3f3c3fc56ea2c95fbe0093d7",
          "Image13": "https://d15no6vzq701ao.cloudfront.net/image/production/acp/3000004309/pln3000008839/c56e1bc4-2c06-45fd-be3f-e985d9eb361d.jpg",
          "ImageUrl13": null,
          "ImageHeight13": null,
          "ImageWidth13": null,
          "ImageKind13": null,
          "ImageCid13": "0d9cfe2d3f3c3fc56ea2c95fbe0093d7",
          "Image14": "https://d15no6vzq701ao.cloudfront.net/image/production/acp/3000004309/pln3000008839/70fc0f2c-659b-43ea-b7aa-296d7d3865a4.jpg",
          "ImageUrl14": null,
          "ImageHeight14": null,
          "ImageWidth14": null,
          "ImageKind14": null,
          "ImageCid14": "0d9cfe2d3f3c3fc56ea2c95fbe0093d7",
          "Image15": "https://d15no6vzq701ao.cloudfront.net/image/production/acp/3000004309/pln3000008839/cd6f6257-d7ab-40c2-a5cb-d38d32018dc3.jpg",
          "ImageUrl15": null,
          "ImageHeight15": null,
          "ImageWidth15": null,
          "ImageKind15": null,
          "ImageCid15": "0d9cfe2d3f3c3fc56ea2c95fbe0093d7",
          "Image16": "https://d15no6vzq701ao.cloudfront.net/image/production/acp/3000004309/pln3000008839/0019f18d-fc3e-42b6-8b3b-937315ce4abb.jpg",
          "ImageUrl16": null,
          "ImageHeight16": null,
          "ImageWidth16": null,
          "ImageKind16": null,
          "ImageCid16": "0d9cfe2d3f3c3fc56ea2c95fbe0093d7",
          "Image17": "https://d15no6vzq701ao.cloudfront.net/image/production/acp/3000004309/pln3000008839/4b833ba1-4e13-45f6-a6ac-c6e150556a63.jpg",
          "ImageUrl17": null,
          "ImageHeight17": null,
          "ImageWidth17": null,
          "ImageKind17": null,
          "ImageCid17": "0d9cfe2d3f3c3fc56ea2c95fbe0093d7",
          "Image18": "https://d15no6vzq701ao.cloudfront.net/image/production/acp/3000007445/pln3000018661/50adebec-0896-4f43-b15c-8c8eff13e1b2.jpg",
          "ImageUrl18": null,
          "ImageHeight18": null,
          "ImageWidth18": null,
          "ImageKind18": null,
          "ImageCid18": "0d9cfe2d3f3c3fc56ea2c95fbe0093d7",
          "Image19": "https://d15no6vzq701ao.cloudfront.net/image/production/acp/3000007445/pln3000018661/e13f67ec-547f-4cdd-94e4-0602f80353fc.jpg",
          "ImageUrl19": null,
          "ImageHeight19": null,
          "ImageWidth19": null,
          "ImageKind19": null,
          "ImageCid19": "0d9cfe2d3f3c3fc56ea2c95fbe0093d7",
          "Image20": "https://d15no6vzq701ao.cloudfront.net/image/production/acp/3000007445/pln3000018661/e2095f9e-760f-4e02-932c-b12fc467758d.jpg",
          "ImageUrl20": null,
          "ImageHeight20": null,
          "ImageWidth20": null,
          "ImageKind20": null,
          "ImageCid20": "0d9cfe2d3f3c3fc56ea2c95fbe0093d7",
          "Image21": "https://d15no6vzq701ao.cloudfront.net/image/production/acp/3000007445/pln3000018661/de53c72b-a8fa-4445-8e2d-609f61712f4f.jpg",
          "ImageUrl21": null,
          "ImageHeight21": null,
          "ImageWidth21": null,
          "ImageKind21": null,
          "ImageCid21": "0d9cfe2d3f3c3fc56ea2c95fbe0093d7",
          "Image22": "https://d15no6vzq701ao.cloudfront.net/image/production/acp/3000007445/pln3000018661/36b82f6a-d49d-4f49-84f6-6e04ce03a193.jpg",
          "ImageUrl22": null,
          "ImageHeight22": null,
          "ImageWidth22": null,
          "ImageKind22": null,
          "ImageCid22": "0d9cfe2d3f3c3fc56ea2c95fbe0093d7",
          "Image23": "https://d15no6vzq701ao.cloudfront.net/image/production/acp/3000007445/pln3000018661/d414fa8a-cfca-42b6-b0c1-2c020f1c80a6.jpg",
          "ImageUrl23": null,
          "ImageHeight23": null,
          "ImageWidth23": null,
          "ImageKind23": null,
          "ImageCid23": "0d9cfe2d3f3c3fc56ea2c95fbe0093d7",
          "Image24": "https://d15no6vzq701ao.cloudfront.net/image/production/acp/3000007445/pln3000018661/e515c8aa-ce89-4304-a065-d56a3793ab57.jpg",
          "ImageUrl24": null,
          "ImageHeight24": null,
          "ImageWidth24": null,
          "ImageKind24": null,
          "ImageCid24": "0d9cfe2d3f3c3fc56ea2c95fbe0093d7",
          "Image25": "https://d15no6vzq701ao.cloudfront.net/image/production/acp/3000007445/pln3000018661/f10b5446-7464-4b3f-bb63-55a4a40d44bf.jpg",
          "ImageUrl25": null,
          "ImageHeight25": null,
          "ImageWidth25": null,
          "ImageKind25": null,
          "ImageCid25": "0d9cfe2d3f3c3fc56ea2c95fbe0093d7",
          "Image26": "https://d15no6vzq701ao.cloudfront.net/image/production/acp/3000007445/pln3000018661/ba9dcef5-67c9-48bb-a101-8b7f2230e6d9.jpg",
          "ImageUrl26": null,
          "ImageHeight26": null,
          "ImageWidth26": null,
          "ImageKind26": null,
          "ImageCid26": "0d9cfe2d3f3c3fc56ea2c95fbe0093d7",
          "Image27": "https://d15no6vzq701ao.cloudfront.net/image/production/acp/3000007445/pln3000018661/83882155-86bc-4741-a05f-b875754a17fb.jpg",
          "ImageUrl27": null,
          "ImageHeight27": null,
          "ImageWidth27": null,
          "ImageKind27": null,
          "ImageCid27": "0d9cfe2d3f3c3fc56ea2c95fbe0093d7",
          "Image28": "https://d15no6vzq701ao.cloudfront.net/image/production/acp/3000007446/pln3000018660/b770bdd4-5376-4ba8-bd8f-2cd810d341da.jpg",
          "ImageUrl28": null,
          "ImageHeight28": null,
          "ImageWidth28": null,
          "ImageKind28": null,
          "ImageCid28": "0d9cfe2d3f3c3fc56ea2c95fbe0093d7",
          "Image29": "https://d15no6vzq701ao.cloudfront.net/image/production/acp/3000007446/pln3000018660/5593a87b-902f-4137-9e43-8f1dadc37fd2.jpg",
          "ImageUrl29": null,
          "ImageHeight29": null,
          "ImageWidth29": null,
          "ImageKind29": null,
          "ImageCid29": "0d9cfe2d3f3c3fc56ea2c95fbe0093d7",
          "Image30": "https://d15no6vzq701ao.cloudfront.net/image/production/acp/3000007446/pln3000018660/0cb0907a-1b20-465c-a6e1-b96d128bfe60.jpg",
          "ImageUrl30": null,
          "ImageHeight30": null,
          "ImageWidth30": null,
          "ImageKind30": null,
          "ImageCid30": "0d9cfe2d3f3c3fc56ea2c95fbe0093d7",
          "Image31": "https://d15no6vzq701ao.cloudfront.net/image/production/acp/3000007446/pln3000018660/9013efbc-3121-4489-854a-edc9519d6a18.jpg",
          "ImageUrl31": null,
          "ImageHeight31": null,
          "ImageWidth31": null,
          "ImageKind31": null,
          "ImageCid31": "0d9cfe2d3f3c3fc56ea2c95fbe0093d7",
          "Image32": "https://d15no6vzq701ao.cloudfront.net/image/production/acp/3000007446/pln3000018660/d3b31668-71fc-4faa-aa97-449cc7b04292.jpg",
          "ImageUrl32": null,
          "ImageHeight32": null,
          "ImageWidth32": null,
          "ImageKind32": null,
          "ImageCid32": "0d9cfe2d3f3c3fc56ea2c95fbe0093d7",
          "Image33": "https://d15no6vzq701ao.cloudfront.net/image/production/acp/3000007446/pln3000018660/75ff5432-4bd4-4a86-ac99-35a8b5f047a2.jpg",
          "ImageUrl33": null,
          "ImageHeight33": null,
          "ImageWidth33": null,
          "ImageKind33": null,
          "ImageCid33": "0d9cfe2d3f3c3fc56ea2c95fbe0093d7",
          "Image34": "https://d15no6vzq701ao.cloudfront.net/image/production/acp/3000007446/pln3000018660/3596b1b6-6c92-4f8e-856b-8e264fab876a.jpg",
          "ImageUrl34": null,
          "ImageHeight34": null,
          "ImageWidth34": null,
          "ImageKind34": null,
          "ImageCid34": "0d9cfe2d3f3c3fc56ea2c95fbe0093d7",
          "Image35": "https://d15no6vzq701ao.cloudfront.net/image/production/acp/3000007446/pln3000018660/b0302ba9-8dbf-47d6-82f8-5f8ddd527e23.jpg",
          "ImageUrl35": null,
          "ImageHeight35": null,
          "ImageWidth35": null,
          "ImageKind35": null,
          "ImageCid35": "0d9cfe2d3f3c3fc56ea2c95fbe0093d7",
          "Image36": "https://d15no6vzq701ao.cloudfront.net/image/production/acp/3000007446/pln3000018660/c1d1ce4d-ca90-4ad4-b26c-e8d0fd65d5aa.JPG",
          "ImageUrl36": null,
          "ImageHeight36": null,
          "ImageWidth36": null,
          "ImageKind36": null,
          "ImageCid36": "0d9cfe2d3f3c3fc56ea2c95fbe0093d7",
          "Image37": "https://d15no6vzq701ao.cloudfront.net/image/production/asrp/act/pln3000003748/middle/feeafec4-255b-43ac-b3fa-aba73b441f8e_orig.png",
          "ImageUrl37": null,
          "ImageHeight37": null,
          "ImageWidth37": null,
          "ImageKind37": null,
          "ImageCid37": "0d9cfe2d3f3c3fc56ea2c95fbe0093d7",
          "Image38": "https://d15no6vzq701ao.cloudfront.net/image/production/asrp/act/pln3000003748/middle/03601722-f86d-416d-b104-faf2781c8c68_orig.jpg",
          "ImageUrl38": null,
          "ImageHeight38": null,
          "ImageWidth38": null,
          "ImageKind38": null,
          "ImageCid38": "0d9cfe2d3f3c3fc56ea2c95fbe0093d7",
          "Image39": "https://d15no6vzq701ao.cloudfront.net/image/production/asrp/act/pln3000003748/middle/ac7bf9fb-5bc4-45c2-a9be-f1ecad71f5a9_orig.jpg",
          "ImageUrl39": null,
          "ImageHeight39": null,
          "ImageWidth39": null,
          "ImageKind39": null,
          "ImageCid39": "0d9cfe2d3f3c3fc56ea2c95fbe0093d7",
          "Image40": "https://d15no6vzq701ao.cloudfront.net/image/production/asrp/act/pln3000003748/middle/24f96dd9-fce1-4bdb-8527-cfb6b971ec1f_orig.jpg",
          "ImageUrl40": null,
          "ImageHeight40": null,
          "ImageWidth40": null,
          "ImageKind40": null,
          "ImageCid40": "0d9cfe2d3f3c3fc56ea2c95fbe0093d7",
          "Image41": "https://d15no6vzq701ao.cloudfront.net/image/production/asrp/act/pln3000003748/middle/12991026-df56-4d96-a9de-081a62624d8a_orig.jpg",
          "ImageUrl41": null,
          "ImageHeight41": null,
          "ImageWidth41": null,
          "ImageKind41": null,
          "ImageCid41": "0d9cfe2d3f3c3fc56ea2c95fbe0093d7",
          "Image42": "https://d15no6vzq701ao.cloudfront.net/image/production/asrp/act/pln3000003748/middle/d6e732b0-e287-404a-8f33-77ed40d53434_orig.jpg",
          "ImageUrl42": null,
          "ImageHeight42": null,
          "ImageWidth42": null,
          "ImageKind42": null,
          "ImageCid42": "0d9cfe2d3f3c3fc56ea2c95fbe0093d7",
          "Image43": "https://d15no6vzq701ao.cloudfront.net/image/production/asrp/act/pln3000003748/middle/970ba9e3-15a1-424f-b3fd-1130d7e95554_orig.jpg",
          "ImageUrl43": null,
          "ImageHeight43": null,
          "ImageWidth43": null,
          "ImageKind43": null,
          "ImageCid43": "0d9cfe2d3f3c3fc56ea2c95fbe0093d7",
          "Image44": "https://d15no6vzq701ao.cloudfront.net/image/production/asrp/act/pln3000003748/middle/b39fc3ca-8938-49ad-aee1-cc75c6d1b72b_orig.jpg",
          "ImageUrl44": null,
          "ImageHeight44": null,
          "ImageWidth44": null,
          "ImageKind44": null,
          "ImageCid44": "0d9cfe2d3f3c3fc56ea2c95fbe0093d7",
          "Image45": "https://d15no6vzq701ao.cloudfront.net/image/production/asrp/act/pln3000003748/middle/4a807895-08d8-407b-82ad-4d8c7dc7960e_orig.jpg",
          "ImageUrl45": null,
          "ImageHeight45": null,
          "ImageWidth45": null,
          "ImageKind45": null,
          "ImageCid45": "0d9cfe2d3f3c3fc56ea2c95fbe0093d7",
          "Image46": "https://d15no6vzq701ao.cloudfront.net/image/production/asrp/act/pln3000003748/middle/cd81f630-9fd2-426e-9edc-99dafeb667ee_orig.JPG",
          "ImageUrl46": null,
          "ImageHeight46": null,
          "ImageWidth46": null,
          "ImageKind46": null,
          "ImageCid46": "0d9cfe2d3f3c3fc56ea2c95fbe0093d7",
          "Image47": "https://d15no6vzq701ao.cloudfront.net/image/production/asrp/act/pln3000003748/middle/ca860442-62b5-46b8-9e3f-27d330d8acfe_orig.JPG",
          "ImageUrl47": null,
          "ImageHeight47": null,
          "ImageWidth47": null,
          "ImageKind47": null,
          "ImageCid47": "0d9cfe2d3f3c3fc56ea2c95fbe0093d7",
          "Image48": "https://d15no6vzq701ao.cloudfront.net/image/production/asrp/act/pln3000003748/middle/d72e22fd-6983-4783-b79e-fa24082fe6f6_orig.jpg",
          "ImageUrl48": null,
          "ImageHeight48": null,
          "ImageWidth48": null,
          "ImageKind48": null,
          "ImageCid48": "0d9cfe2d3f3c3fc56ea2c95fbe0093d7",
          "Image49": "https://d15no6vzq701ao.cloudfront.net/image/production/asrp/act/pln3000003748/middle/8aa2003e-805c-4c10-b98c-c02e371f2f13_orig.jpg",
          "ImageUrl49": null,
          "ImageHeight49": null,
          "ImageWidth49": null,
          "ImageKind49": null,
          "ImageCid49": "0d9cfe2d3f3c3fc56ea2c95fbe0093d7",
          "Image50": "https://d15no6vzq701ao.cloudfront.net/image/production/asrp/act/pln3000003748/middle/f6646b23-8b5f-4396-bb03-7b5df8140510_orig.jpg",
          "ImageUrl50": null,
          "ImageHeight50": null,
          "ImageWidth50": null,
          "ImageKind50": null,
          "ImageCid50": "0d9cfe2d3f3c3fc56ea2c95fbe0093d7"
        },
        "WebTopic": {
          "Comment": null,
          "CommentDate": null,
          "Label": "0",
          "Score": "50",
          "Buzz": "0"
        },
        "PlaceInfo": [],
        "StationInfo": {
          "RailGroup": [],
          "DiaInfo": [],
          "Exit": [],
          "Facility": [],
          "RailInfo": []
        },
        "Country": {
          "Code": "JP",
          "Name": "日本"
        },
        "SearchArea": [
          {
            "Code": "114000000",
            "Name": "神奈川県"
          },
          {
            "Code": "114250000",
            "Name": "逗子・葉山"
          },
          {
            "Code": "114250100",
            "Name": "逗子"
          }
        ],
        "Genre": [],
        "Coupon": [],
        "AddressElement": [
          {
            "Name": "神奈川県",
            "Kana": "かながわけん",
            "Level": "prefecture",
            "Code": "14"
          },
          {
            "Name": "逗子市",
            "Kana": "ずしし",
            "Level": "city",
            "Code": "14208"
          },
          {
            "Name": "小坪",
            "Kana": "こつぼ",
            "Level": "oaza",
            "Code": "14208002"
          },
          {
            "Name": "５丁目",
            "Kana": "５ちょうめ",
            "Level": "aza",
            "Code": "14208002005"
          },
          {
            "Name": "２３",
            "Kana": "２３",
            "Level": "detail1",
            "Code": "1420800200500023"
          }
        ],
        "Station": [
          {
            "Id": "23374",
            "SubId": "2337401",
            "Name": "和田塚",
            "Railway": "江ノ島電鉄",
            "Exit": "出口",
            "ExitId": "6034",
            "Distance": "2479",
            "Time": "30",
            "Geometry": {
              "Coordinates": "139.545351,35.313614",
              "Type": "point"
            }
          },
          {
            "Id": "23362",
            "SubId": "2336201",
            "Name": "由比ケ浜",
            "Railway": "江ノ島電鉄",
            "Exit": "出口",
            "ExitId": "5995",
            "Distance": "2612",
            "Time": "32",
            "Geometry": {
              "Coordinates": "139.541379,35.312753",
              "Type": "point"
            }
          },
          {
            "Id": "23282",
            "SubId": "2328201",
            "Name": "長谷(神奈川県)",
            "Railway": "江ノ島電鉄",
            "Exit": "出口",
            "ExitId": "5858",
            "Distance": "2873",
            "Time": "35",
            "Geometry": {
              "Coordinates": "139.536185,35.311198",
              "Type": "point"
            }
          }
        ],
        "ItemInfo": [],
        "LocoRating": "0.0",
        "LocoReviewCount": "33",
        "KeepCount": "2",
        "TodayBusinessHour": "",
        "OpenForBusiness": "close",
        "Tel1": "0467-39-5900"
      },
      "Internal": {
        "UidList": [
          "17861d7dac176b8acd80b6937ff63a8bac91a57e"
        ],
        "CidList": [
          "0d9cfe2d3f3c3fc56ea2c95fbe0093d7"
        ],
        "NameList": [
          "フライフィールド逗子"
        ],
        "LogVersion": "20180221",
        "LifeMagazine": [],
        "Partial": {
          "AvgRating": "0.0",
          "ReviewCount": "33",
          "KeepCount": "2",
          "WebTopic": {
            "Label": "0",
            "Score": "50",
            "Buzz": "0"
          }
        },
        "RealTime": {
          "AvailabilityCode": "",
          "WaitingTime": "",
          "WaitingNumber": "",
          "Flag": [],
          "RoomAvailabilityCode": "",
          "MaintenanceStartDatetime": "",
          "MaintenanceEndDatetime": ""
        }
      },
      "Children": [
        {
          "Id": "2254",
          "id": "2254",
          "CassetteId": "0d9cfe2d3f3c3fc56ea2c95fbe0093d7",
          "CassetteOwnerLogoImage": "https://iwiz-olp.c.yimg.jp/c/olp/0d/0d9cfe2d3f3c3fc56ea2c95fbe0093d7/info/3f/28/thumbnail/logo_asoview.png",
          "CassetteHeader": "アソビュー株式会社",
          "CassetteOwner": "アソビュー株式会社",
          "CassetteOwnerUrl": "http://www.asoview.com/",
          "OnlineReserveFlag": null,
          "OnlineReserveRequestFlag": null,
          "PcUrl1": null,
          "SmartPhoneUrl1": null,
          "ReservationPcUrl1": "http://www.asoview.com/base/2254/?affcode=yjloco",
          "ReservationSmartPhoneUrl1": null,
          "ReservationRequestPcUrl1": null,
          "ReservationRequestSmartPhoneUrl1": null,
          "ReservationLabelCode": null,
          "ReservationDisplayFlag": null,
          "ReservationDisplayCode": null,
          "Name": null,
          "LeadImage": null,
          "Tel1": null,
          "Address": null,
          "Rating": null,
          "BudgetLunch": null,
          "BudgetDinner": null,
          "Category": null,
          "CatchCopy": null
        }
      ]
    }
  ]
}
