{
  "ResultInfo": {
    "Total": 3,
    "Count": 3,
    "Start": 1,
    "Status": 200,
    "Latency": 0.044095993041992,
    "Description": null,
    "Copyright": "Copyright (C) 2018 Yahoo Japan Corporation. All Rights Reserved."
  },
  "Feature": [
    {
      "Property": {
        "Uid": "2a5911bf7883a01ebdf7913b12f2b2100acce4e0",
        "CassetteId": "40f68cf163a82aeb127f0387eb314b4b",
        "Comment": {
          "Id": "bf19b7dea0732a14502605f162f45404209b83de",
          "Body": "もう3回尋ねましたけど、\nいつも、美味しいので、次も行くつもりです。(&gt;_&lt;)（＞＿＜）",
          "Subject": "無難なので、よく行きます（＞＿＜）(&gt;_&lt;)",
          "Author": "gpa*****",
          "Guid": "J5XQG6X2ITOSESJK5HHC6UW3VQ",
          "Rating": 3,
          "VisitDate": null,
          "Scene": 2,
          "LinkUrl": null,
          "Image1": null,
          "Image2": null,
          "Image3": null,
          "Image4": null,
          "Image5": null,
          "Image6": null,
          "Image7": null,
          "Image8": null,
          "Image9": null,
          "Image10": null,
          "RatingFood": null,
          "RatingService": null,
          "RatingAtmosphere": null,
          "RatingCostperformance": null,
          "RatingDrink": null,
          "RatingAccess": null,
          "Budget": 3,
          "Atmosphere": "1,2,3,4",
          "Gender": 1,
          "Generation": 2,
          "Tag": null,
          "Type": "poi",
          "ItemId": null,
          "InputSource": "loco",
          "UsefulCount": 0,
          "CreateDate": "2018-02-05T18:17:59+09:00",
          "UpdateDate": "2018-02-05T18:17:59+09:00",
          "CustomExact1": "1269482"
        }
      }
    },
    {
      "Property": {
        "Uid": "2a5911bf7883a01ebdf7913b12f2b2100acce4e0",
        "CassetteId": "40f68cf163a82aeb127f0387eb314b4b",
        "Comment": {
          "Id": "d952883f16e2e9d3bb203aa8041175de60bd74c1",
          "Body": "気楽に行く場所ですー とても、美味しいです。",
          "Subject": "近所にあるので、よく行きます！",
          "Author": "gpa*****",
          "Guid": "J5XQG6X2ITOSESJK5HHC6UW3VQ",
          "Rating": 3.5,
          "VisitDate": null,
          "Scene": 4,
          "LinkUrl": null,
          "Image1": null,
          "Image2": null,
          "Image3": null,
          "Image4": null,
          "Image5": null,
          "Image6": null,
          "Image7": null,
          "Image8": null,
          "Image9": null,
          "Image10": null,
          "RatingFood": 3.5,
          "RatingService": 3,
          "RatingAtmosphere": 4,
          "RatingCostperformance": 3.5,
          "RatingDrink": 4,
          "RatingAccess": 4,
          "Budget": 3,
          "Atmosphere": "2,6",
          "Gender": 1,
          "Generation": 2,
          "Tag": null,
          "Type": "poi",
          "ItemId": null,
          "InputSource": "loco",
          "UsefulCount": 0,
          "CreateDate": "2018-02-02T17:44:38+09:00",
          "UpdateDate": "2018-02-02T17:44:38+09:00",
          "CustomExact1": "1269120"
        }
      }
    },
    {
      "Property": {
        "Uid": "2a5911bf7883a01ebdf7913b12f2b2100acce4e0",
        "CassetteId": "40f68cf163a82aeb127f0387eb314b4b",
        "Comment": {
          "Id": "cf864b711070f0ec706dc06a6999f33a172de99a",
          "Body": "サービスをいいし、心地よい場所なので、よく行く場所です。",
          "Subject": "近所にあるので、よく行きます。",
          "Author": "gpa*****",
          "Guid": "J5XQG6X2ITOSESJK5HHC6UW3VQ",
          "Rating": 3.5,
          "VisitDate": null,
          "Scene": 2,
          "LinkUrl": null,
          "Image1": null,
          "Image2": null,
          "Image3": null,
          "Image4": null,
          "Image5": null,
          "Image6": null,
          "Image7": null,
          "Image8": null,
          "Image9": null,
          "Image10": null,
          "RatingFood": 2.5,
          "RatingService": 2,
          "RatingAtmosphere": 3,
          "RatingCostperformance": 3.5,
          "RatingDrink": 3.5,
          "RatingAccess": 3.5,
          "Budget": 3,
          "Atmosphere": "1",
          "Gender": 1,
          "Generation": 2,
          "Tag": null,
          "Type": "poi",
          "ItemId": null,
          "InputSource": "loco",
          "UsefulCount": 0,
          "CreateDate": "2018-02-02T17:42:36+09:00",
          "UpdateDate": "2018-02-02T17:42:36+09:00",
          "CustomExact1": "1269119"
        }
      }
    }
  ]
}
