{
  "ResultInfo": {
    "Total": 171,
    "Count": 30,
    "Start": 1,
    "Status": 200,
    "Latency": 0.060505151748657,
    "Description": null,
    "Copyright": "Copyright (C) 2018 Yahoo Japan Corporation. All Rights Reserved."
  },
  "Feature": [
    {
      "Property": {
        "Uid": "7f036b6d56db3e699b5fcb97d28bbaa62d11edd4",
        "CassetteId": "6a3b6ed40d949a607ebbf0d058cdd838",
        "Comment": {
          "Id": "d0e2ae6faa233fe3914335efaffb298c7967583a",
          "Body": "チーズフォンデュ食べ放題980円クーポンを使用しました。とても美味しかったです！最初に持って来られる野菜やパンが大量で、食べきるまでおかわりできませんでした。注文時にじゃがいもとサツマイモはいらないと伝えて、ブロッコリーとトマト、ズッキーニを多めになど伝えた方がいいかもしれません。",
          "Subject": "美味しかったです(^^)",
          "Author": "7495MD",
          "Guid": null,
          "Rating": null,
          "VisitDate": null,
          "Scene": null,
          "LinkUrl": "https://www.hotpepper.jp/strJ000989097/report/detail_om0000677423_rn20171218A00144/?vos=cphppallyaho110623021",
          "Image1": null,
          "Image2": null,
          "Image3": null,
          "Image4": null,
          "Image5": null,
          "Image6": null,
          "Image7": null,
          "Image8": null,
          "Image9": null,
          "Image10": null,
          "RatingFood": null,
          "RatingService": null,
          "RatingAtmosphere": null,
          "RatingCostperformance": null,
          "RatingDrink": null,
          "RatingAccess": null,
          "Budget": null,
          "Atmosphere": null,
          "Gender": null,
          "Generation": null,
          "Tag": null,
          "Type": "poi",
          "ItemId": null,
          "InputSource": "yolpcp",
          "UsefulCount": 0,
          "CreateDate": "2017-12-18T00:00:00+09:00",
          "UpdateDate": "2017-12-18T00:00:00+09:00",
          "CustomExact1": "a1778647758d3b1339ec8cb7ce267ab1d4ce6bc1"
        }
      }
    },
    {
      "Property": {
        "Uid": "7f036b6d56db3e699b5fcb97d28bbaa62d11edd4",
        "CassetteId": "6a3b6ed40d949a607ebbf0d058cdd838",
        "Comment": {
          "Id": "dd87169d69693ec35c4b22e48edd5b0bbf9f20e4",
          "Body": "プリフィックスlunchコースを利用させて頂きました。コストパフォーマンスがとても良かったです。接客に雑さは感じたものの、あの量と質と値段なら充分かと思います。チーズフォンデュ食べ放題のチーズがとても美味しかったです。追加を頼んだ際もすぐに持ってきて頂けました。コースに付いてくる他の品が選べるのも嬉しいです。とにかく、コストパフォーマンスが良いお店でした。",
          "Subject": "コスパが良い",
          "Author": "るん",
          "Guid": null,
          "Rating": null,
          "VisitDate": null,
          "Scene": null,
          "LinkUrl": "https://www.hotpepper.jp/strJ000989097/report/detail_om0000729095_rn20171121A00024/?vos=cphppallyaho110623021",
          "Image1": null,
          "Image2": null,
          "Image3": null,
          "Image4": null,
          "Image5": null,
          "Image6": null,
          "Image7": null,
          "Image8": null,
          "Image9": null,
          "Image10": null,
          "RatingFood": null,
          "RatingService": null,
          "RatingAtmosphere": null,
          "RatingCostperformance": null,
          "RatingDrink": null,
          "RatingAccess": null,
          "Budget": null,
          "Atmosphere": null,
          "Gender": null,
          "Generation": null,
          "Tag": null,
          "Type": "poi",
          "ItemId": null,
          "InputSource": "yolpcp",
          "UsefulCount": 0,
          "CreateDate": "2017-11-21T00:00:00+09:00",
          "UpdateDate": "2017-11-21T00:00:00+09:00",
          "CustomExact1": "d5d84213779e46800298dec302b3ff6715dc7721"
        }
      }
    },
    {
      "Property": {
        "Uid": "b340048aa1884cf200602f5dfe735eef12e61aee",
        "CassetteId": "f36856888c3e162faa2f783099138b94",
        "Comment": {
          "Id": "ade6b34d0b8d12912fde84db36d0288fd4913ac4",
          "Body": "友達の誕生日祝いに。\nクーポンを使ったら結局高くついてしまって全くお得感ありませんでした…（笑）\nチーズフォンデュ食べ放題はチーズの種類も沢山あって嬉しかったですが、やたら芋類が多くてお腹が膨れてしまいました。チーズフォンデュ食べ放題のクーポンを使ったら1人2オーダー2ドリンクだったのでとんでもなくお腹いっぱいです。バースデープレートも当日予約だったのに無料で出してくれたのでありがたかったです。\n#池袋 #チーズフォンデュ食べ放題 #コースがお得 #個室風の店内 #野菜がたくさんとれる",
          "Subject": null,
          "Author": "Rettyユーザー",
          "Guid": null,
          "Rating": null,
          "VisitDate": null,
          "Scene": null,
          "LinkUrl": "https://retty.me/area/PRE13/ARE5/SUB501/100000737070/30368157/",
          "Image1": null,
          "Image2": null,
          "Image3": null,
          "Image4": null,
          "Image5": null,
          "Image6": null,
          "Image7": null,
          "Image8": null,
          "Image9": null,
          "Image10": null,
          "RatingFood": null,
          "RatingService": null,
          "RatingAtmosphere": null,
          "RatingCostperformance": null,
          "RatingDrink": null,
          "RatingAccess": null,
          "Budget": null,
          "Atmosphere": null,
          "Gender": null,
          "Generation": null,
          "Tag": null,
          "Type": "poi",
          "ItemId": null,
          "InputSource": "yolpcp",
          "UsefulCount": 0,
          "CreateDate": "2017-11-20T16:45:58+09:00",
          "UpdateDate": "2017-11-20T16:45:58+09:00",
          "CustomExact1": "04391fb69a3b31b5c277a271775596327386dc3f"
        }
      }
    },
    {
      "Property": {
        "Uid": "0a5f7491021a199e689c26f99bf44a9e639e677a",
        "CassetteId": "40f68cf163a82aeb127f0387eb314b4b",
        "Comment": {
          "Id": "725de1a1f14b7d0fc4f41a238b2a4f31cd4d511e",
          "Body": "先日久々に会う友達の結婚祝いを兼ねてランチしたのですが違う部屋に案内されるわ、結婚祝いなのに誕生日のプレートになっているわ、最悪なのはデザートプレート贈呈のクーポンのはずだったのに1人1500円はとられてるわで最悪でした。\nその時気づけばよかったもののカードで支払ったため夜に気づくという事態で行くのもめんどくさくてとりあえず口コミしました。\nサービス料10%もプラスでとられます。\n駅近でお料理もまずまずだったためすごく残念でした。\nもう行かないです。",
          "Subject": "色々最悪だった！",
          "Author": "mka*****",
          "Guid": "ZC6Z4X2QKO6DNAJK5NGDMFR464",
          "Rating": 1,
          "VisitDate": "2017-02-01T00:00:00+09:00",
          "Scene": 1,
          "LinkUrl": null,
          "Image1": null,
          "Image2": null,
          "Image3": null,
          "Image4": null,
          "Image5": null,
          "Image6": null,
          "Image7": null,
          "Image8": null,
          "Image9": null,
          "Image10": null,
          "RatingFood": 3,
          "RatingService": null,
          "RatingAtmosphere": 1,
          "RatingCostperformance": null,
          "RatingDrink": 2.5,
          "RatingAccess": 4,
          "Budget": 2,
          "Atmosphere": "7",
          "Gender": 2,
          "Generation": 2,
          "Tag": null,
          "Type": "poi",
          "ItemId": null,
          "InputSource": "loco",
          "UsefulCount": 1,
          "CreateDate": "2017-02-26T11:39:44+09:00",
          "UpdateDate": "2017-02-26T11:39:44+09:00",
          "CustomExact1": "1221067"
        }
      }
    },
    {
      "Property": {
        "Uid": "7f036b6d56db3e699b5fcb97d28bbaa62d11edd4",
        "CassetteId": "6a3b6ed40d949a607ebbf0d058cdd838",
        "Comment": {
          "Id": "ad4e00f45716117a70d5ff93c8ef8761d5deefeb",
          "Body": "チーズ好きな友達と。池袋東口からすぐで、アクセス良好。店内はほぼ女子ばかり。さすがチーズフォンデュのお店ですね。フォンデュだけでなく、アヒージョなどもおいしく頂きました。混んでいたのか店員さんがなかなか来てくれなかったけど、そこはご愛嬌。人気店ってことですね。チーズフォンデュはなかなかボリュームがありました。ドリンクの種類もけっこうあるので、お通しのパスタをあげたやつが止まりませんでしたｗ隣の女性が食べていたデザートもとてもおいしそうでしたｗデートや女友達とくるのにいいですね。",
          "Subject": "女子率高いチーズフォンデュのお店",
          "Author": "az",
          "Guid": null,
          "Rating": null,
          "VisitDate": null,
          "Scene": null,
          "LinkUrl": "https://www.hotpepper.jp/strJ000989097/report/detail_om0000563965_rn20170217A01816/?vos=cphppallyaho110623021",
          "Image1": null,
          "Image2": null,
          "Image3": null,
          "Image4": null,
          "Image5": null,
          "Image6": null,
          "Image7": null,
          "Image8": null,
          "Image9": null,
          "Image10": null,
          "RatingFood": null,
          "RatingService": null,
          "RatingAtmosphere": null,
          "RatingCostperformance": null,
          "RatingDrink": null,
          "RatingAccess": null,
          "Budget": null,
          "Atmosphere": null,
          "Gender": null,
          "Generation": null,
          "Tag": null,
          "Type": "poi",
          "ItemId": null,
          "InputSource": "yolpcp",
          "UsefulCount": 0,
          "CreateDate": "2017-02-17T00:00:00+09:00",
          "UpdateDate": "2017-02-17T00:00:00+09:00",
          "CustomExact1": "0f7e942cf179a41a45bf6c17457f6ec3d62229a6"
        }
      }
    },
    {
      "Property": {
        "Uid": "7f036b6d56db3e699b5fcb97d28bbaa62d11edd4",
        "CassetteId": "6a3b6ed40d949a607ebbf0d058cdd838",
        "Comment": {
          "Id": "c1bce8d1257f20a5ff5534c6ce46470e98652227",
          "Body": "チーズフォンデュが食べたくて、お店を探していたら見つけたのがこのお店です！ランチコースは、チーズ、具材ともに食べ放題のチーズフォンデュに加え、サラダ、パスタ、グラタンなどもついて2000円くらい！とてもお得でした。コスパも味も、お店の雰囲気も良いのでおすすめです(^o^)",
          "Subject": "ランチコース",
          "Author": "ゆず",
          "Guid": null,
          "Rating": null,
          "VisitDate": null,
          "Scene": null,
          "LinkUrl": "https://www.hotpepper.jp/strJ000989097/report/detail_om0000676625_rn20161225A00137/?vos=cphppallyaho110623021",
          "Image1": null,
          "Image2": null,
          "Image3": null,
          "Image4": null,
          "Image5": null,
          "Image6": null,
          "Image7": null,
          "Image8": null,
          "Image9": null,
          "Image10": null,
          "RatingFood": null,
          "RatingService": null,
          "RatingAtmosphere": null,
          "RatingCostperformance": null,
          "RatingDrink": null,
          "RatingAccess": null,
          "Budget": null,
          "Atmosphere": null,
          "Gender": null,
          "Generation": null,
          "Tag": null,
          "Type": "poi",
          "ItemId": null,
          "InputSource": "yolpcp",
          "UsefulCount": 0,
          "CreateDate": "2016-12-25T00:00:00+09:00",
          "UpdateDate": "2016-12-25T00:00:00+09:00",
          "CustomExact1": "4d06a7d96a13e745fdf186782d387153d8adb933"
        }
      }
    },
    {
      "Property": {
        "Uid": "7f036b6d56db3e699b5fcb97d28bbaa62d11edd4",
        "CassetteId": "6a3b6ed40d949a607ebbf0d058cdd838",
        "Comment": {
          "Id": "79e2e2fb18997c60cde469c506a77f918ec0811c",
          "Body": "チーズフォンデュが食べたくて、お店を探していたら見つけたのがこのお店です！ランチコースは、チーズ、具材ともに食べ放題のチーズフォンデュに加え、サラダ、パスタ、グラタンなどもついて2000円くらい！とてもお得でした。コスパも味も、お店の雰囲気も良いのでおすすめです(^o^)",
          "Subject": "ランチコース",
          "Author": "ゆず",
          "Guid": null,
          "Rating": null,
          "VisitDate": null,
          "Scene": null,
          "LinkUrl": "https://www.hotpepper.jp/strJ000989097/report/detail_om0000676625_rn20161225A00137/?vos=cphppallyaho110623021",
          "Image1": null,
          "Image2": null,
          "Image3": null,
          "Image4": null,
          "Image5": null,
          "Image6": null,
          "Image7": null,
          "Image8": null,
          "Image9": null,
          "Image10": null,
          "RatingFood": null,
          "RatingService": null,
          "RatingAtmosphere": null,
          "RatingCostperformance": null,
          "RatingDrink": null,
          "RatingAccess": null,
          "Budget": null,
          "Atmosphere": null,
          "Gender": null,
          "Generation": null,
          "Tag": null,
          "Type": "poi",
          "ItemId": null,
          "InputSource": "yolpcp",
          "UsefulCount": 0,
          "CreateDate": "2016-12-25T00:00:00+09:00",
          "UpdateDate": "2016-12-25T00:00:00+09:00",
          "CustomExact1": "4d06a7d96a13e745fdf186782d387153d8adb933"
        }
      }
    },
    {
      "Property": {
        "Uid": "b340048aa1884cf200602f5dfe735eef12e61aee",
        "CassetteId": "f36856888c3e162faa2f783099138b94",
        "Comment": {
          "Id": "cc2ee381acb4a1ca2187feb0eda0e33b4d8b9441",
          "Body": "アツアツチーズフォンデュが食べられる！女子会や合コンにぴったりなお店　居酒屋the life table\n\n\n詳しくはコチラ▼\nhttp://ikebukuro-izakaya.com/2016/09/26/1528/\n\n\n\n店内は広く、大人数でがやがやするのには向いていそうです！\n\n合コンしているテーブルもありました。\n\n誕生日の人には店内でBGMがかかってケーキが運ばれていたので\n\n友人同士のお祝いにも使えそうです。\n\nメニューの写真は基本盛ってあるので\n\nちょっと覚悟した方が良いかもしれません笑\n\n次は8人くらいで女子会リベンジしたいです！\n\n\n酔っ払い易さ度：　　70％　※ お酒が進みそう\n店員なつき度：　　　50％　※ なつく感じではなかったです。\n愚痴り易さ度：　　　80％　※ 賑やかだったので気にせず話せそう。\nメニューの充実度：　70％　※前菜、デザートが多めにありました\nドリンクの充実度：　60％　※可もなく不可もなく。一通りはあります。\nお一人さま指数：　　10％　※いなかったです。\nモクモク指数：　　　20％　※ タバコを吸っている人くらいです\nいた人のジャンル　　２０代の男女、OL、学生\n隣人との密着度：　　100cm  ※ 比較的広いです！\nまた行く度：　　  　行く!!行く!!行く!!\n\n※研究会独自の指標の為酔っ払ったその場の感想でして…",
          "Subject": null,
          "Author": "Rettyユーザー",
          "Guid": null,
          "Rating": null,
          "VisitDate": null,
          "Scene": null,
          "LinkUrl": "https://retty.me/area/PRE13/ARE5/SUB501/100000737070/21591309/",
          "Image1": null,
          "Image2": null,
          "Image3": null,
          "Image4": null,
          "Image5": null,
          "Image6": null,
          "Image7": null,
          "Image8": null,
          "Image9": null,
          "Image10": null,
          "RatingFood": null,
          "RatingService": null,
          "RatingAtmosphere": null,
          "RatingCostperformance": null,
          "RatingDrink": null,
          "RatingAccess": null,
          "Budget": null,
          "Atmosphere": null,
          "Gender": null,
          "Generation": null,
          "Tag": null,
          "Type": "poi",
          "ItemId": null,
          "InputSource": "yolpcp",
          "UsefulCount": 0,
          "CreateDate": "2016-11-09T09:37:01+09:00",
          "UpdateDate": "2016-11-09T09:37:01+09:00",
          "CustomExact1": "cbf8e9d20afee60eb6dcd80c18798ef84e44a138"
        }
      }
    },
    {
      "Property": {
        "Uid": "b340048aa1884cf200602f5dfe735eef12e61aee",
        "CassetteId": "f36856888c3e162faa2f783099138b94",
        "Comment": {
          "Id": "53ec5b4dff0276ea99a736263375c96b222165c1",
          "Body": "チーズがおいしかったです！\nシーザーサラダもチーズたっぷりで、チーズフォンデュもいろいろありました。\n店内は広々としてて、平日夜だったのでゆっくり食事をすることができました。\nお腹いっぱいで頼めなかったピザやデザートはまたの機会に頼んでみようと思います。",
          "Subject": null,
          "Author": "Rettyユーザー",
          "Guid": null,
          "Rating": null,
          "VisitDate": null,
          "Scene": null,
          "LinkUrl": "https://retty.me/area/PRE13/ARE5/SUB501/100000737070/17095069/",
          "Image1": null,
          "Image2": null,
          "Image3": null,
          "Image4": null,
          "Image5": null,
          "Image6": null,
          "Image7": null,
          "Image8": null,
          "Image9": null,
          "Image10": null,
          "RatingFood": null,
          "RatingService": null,
          "RatingAtmosphere": null,
          "RatingCostperformance": null,
          "RatingDrink": null,
          "RatingAccess": null,
          "Budget": null,
          "Atmosphere": null,
          "Gender": null,
          "Generation": null,
          "Tag": null,
          "Type": "poi",
          "ItemId": null,
          "InputSource": "yolpcp",
          "UsefulCount": 0,
          "CreateDate": "2016-06-07T03:21:05+09:00",
          "UpdateDate": "2016-06-07T03:21:05+09:00",
          "CustomExact1": "5effe502927f38f71b94f00e8c2a1dad8007ec44"
        }
      }
    },
    {
      "Property": {
        "Uid": "ad0808965cbd22a69a7c75eaa0c22316c1d1b131",
        "CassetteId": "40f68cf163a82aeb127f0387eb314b4b",
        "Comment": {
          "Id": "818228aa95971faf6ec5046da5095d2ab8ac2f6b",
          "Body": "急遽、知り合いと飲むことになり、立地が良いのと串揚げが食べたかったので選びました。\n串揚げメニューの他に、肉メニューや魚などメニューが豊富でした。\nどれもおいしかったんですが、出汁巻き卵とハラミステーキが特においしかったです。\n\n店員さんも親切で、問題なし！トイレが混んでいて大変だったのが気がかり\n\nまた機会があればいくかもね",
          "Subject": "駅から近くて便利でした。",
          "Author": "bos*****",
          "Guid": "QB2E7YPPD4NXMH4X4L4UNCXTYA",
          "Rating": 4,
          "VisitDate": null,
          "Scene": 2,
          "LinkUrl": null,
          "Image1": null,
          "Image2": null,
          "Image3": null,
          "Image4": null,
          "Image5": null,
          "Image6": null,
          "Image7": null,
          "Image8": null,
          "Image9": null,
          "Image10": null,
          "RatingFood": 4.5,
          "RatingService": 4.5,
          "RatingAtmosphere": 4,
          "RatingCostperformance": 3.5,
          "RatingDrink": 4,
          "RatingAccess": 5,
          "Budget": 3,
          "Atmosphere": "1,2,3,4,7",
          "Gender": 1,
          "Generation": 2,
          "Tag": null,
          "Type": "poi",
          "ItemId": null,
          "InputSource": "loco",
          "UsefulCount": 0,
          "CreateDate": "2015-08-27T11:57:01+09:00",
          "UpdateDate": "2015-08-27T11:57:01+09:00",
          "CustomExact1": "1148899"
        }
      }
    },
    {
      "Property": {
        "Uid": "7f036b6d56db3e699b5fcb97d28bbaa62d11edd4",
        "CassetteId": "6a3b6ed40d949a607ebbf0d058cdd838",
        "Comment": {
          "Id": "92f54045333ba6884009d53382225385cdeceae7",
          "Body": "女子会コース3時間飲み放題で、3000円を切るとてもお安い内容でしたが、料理は9品とボリュームがあって満足しました。お店雰囲気は少し暗めで落ち着いた店内でした。写真ではおしゃれな雰囲気がありましたが、実際は普通の居酒屋とおんなじよーなありふれたインテリアで、集まった全員が少し落胆してました。駅前の立地と値段を考えるととても良いお店だと思います。",
          "Subject": "2015年01月頃夕食の時間帯に行きました",
          "Author": "ゆみ",
          "Guid": null,
          "Rating": null,
          "VisitDate": null,
          "Scene": null,
          "LinkUrl": "https://www.hotpepper.jp/strJ000989097/report/detail_om0000612333_rn20150127A00044/?vos=cphppallyaho110623021",
          "Image1": null,
          "Image2": null,
          "Image3": null,
          "Image4": null,
          "Image5": null,
          "Image6": null,
          "Image7": null,
          "Image8": null,
          "Image9": null,
          "Image10": null,
          "RatingFood": null,
          "RatingService": null,
          "RatingAtmosphere": null,
          "RatingCostperformance": null,
          "RatingDrink": null,
          "RatingAccess": null,
          "Budget": null,
          "Atmosphere": null,
          "Gender": null,
          "Generation": null,
          "Tag": null,
          "Type": "poi",
          "ItemId": null,
          "InputSource": "yolpcp",
          "UsefulCount": 0,
          "CreateDate": "2015-01-27T00:00:00+09:00",
          "UpdateDate": "2015-01-27T00:00:00+09:00",
          "CustomExact1": "e5f44793a8db8a142235b0f08e2f7c7453f412f5"
        }
      }
    },
    {
      "Property": {
        "Uid": "7f036b6d56db3e699b5fcb97d28bbaa62d11edd4",
        "CassetteId": "6a3b6ed40d949a607ebbf0d058cdd838",
        "Comment": {
          "Id": "aac40868b898c14978c01110ea05dc3166e403a1",
          "Body": "駅から近い場所にあったので、友達と行ってみようってなりました★駅近ならいいやって感じで特になにも期待していなかったのですが、入ってみたらとてもきれいな店で気に入りました★夜景もとてもきれいで、店員さんの対応もとても良く、入ってよかったと思いました!!池袋に来た際にはまた利用させていただきたいと思います★",
          "Subject": "友達と★",
          "Author": "あやか",
          "Guid": null,
          "Rating": null,
          "VisitDate": null,
          "Scene": null,
          "LinkUrl": "https://www.hotpepper.jp/strJ000989097/report/detail_om0000600520_rn20140717A00002/?vos=cphppallyaho110623021",
          "Image1": null,
          "Image2": null,
          "Image3": null,
          "Image4": null,
          "Image5": null,
          "Image6": null,
          "Image7": null,
          "Image8": null,
          "Image9": null,
          "Image10": null,
          "RatingFood": null,
          "RatingService": null,
          "RatingAtmosphere": null,
          "RatingCostperformance": null,
          "RatingDrink": null,
          "RatingAccess": null,
          "Budget": null,
          "Atmosphere": null,
          "Gender": null,
          "Generation": null,
          "Tag": null,
          "Type": "poi",
          "ItemId": null,
          "InputSource": "yolpcp",
          "UsefulCount": 0,
          "CreateDate": "2014-07-17T00:00:00+09:00",
          "UpdateDate": "2014-07-17T00:00:00+09:00",
          "CustomExact1": "882dcddd2fdd22a2dd2902664acc7002242b4bfc"
        }
      }
    },
    {
      "Property": {
        "Uid": "7f036b6d56db3e699b5fcb97d28bbaa62d11edd4",
        "CassetteId": "6a3b6ed40d949a607ebbf0d058cdd838",
        "Comment": {
          "Id": "a958f87989ddedbb50dea8a7294c12dc286423f9",
          "Body": "会社の仲間四人で利用しました。コース料理をいただきましたが内容がしっかりしていてお料理も美味しくしドリンクの種類も豊富でした。雰囲気も落ち着いているので会社の宴会にも利用できそうです。何よりも駅から近いのが嬉しかったです。また行きたいと思います",
          "Subject": "駅から近くて便利",
          "Author": "ｗｃｈ１２",
          "Guid": null,
          "Rating": null,
          "VisitDate": null,
          "Scene": null,
          "LinkUrl": "https://www.hotpepper.jp/strJ000989097/report/detail_om0000598657_rn20140523A01225/?vos=cphppallyaho110623021",
          "Image1": null,
          "Image2": null,
          "Image3": null,
          "Image4": null,
          "Image5": null,
          "Image6": null,
          "Image7": null,
          "Image8": null,
          "Image9": null,
          "Image10": null,
          "RatingFood": null,
          "RatingService": null,
          "RatingAtmosphere": null,
          "RatingCostperformance": null,
          "RatingDrink": null,
          "RatingAccess": null,
          "Budget": null,
          "Atmosphere": null,
          "Gender": null,
          "Generation": null,
          "Tag": null,
          "Type": "poi",
          "ItemId": null,
          "InputSource": "yolpcp",
          "UsefulCount": 0,
          "CreateDate": "2014-05-23T00:00:00+09:00",
          "UpdateDate": "2014-05-23T00:00:00+09:00",
          "CustomExact1": "fc02d6b197fdb33a961d36a87ec2a32f93c134ce"
        }
      }
    },
    {
      "Property": {
        "Uid": "ad0808965cbd22a69a7c75eaa0c22316c1d1b131",
        "CassetteId": "40f68cf163a82aeb127f0387eb314b4b",
        "Comment": {
          "Id": "8c4adda51381b6b520e0585b079f6705cfe9deec",
          "Body": "飲み放題が高くて、料理が普通でした。\nおすすめはしません。",
          "Subject": "料理は普通で、ただ高いだけ…",
          "Author": "risa...",
          "Guid": "LLOV3OONCIWQC6W2BLN5O7LAYA",
          "Rating": 1,
          "VisitDate": null,
          "Scene": 1,
          "LinkUrl": null,
          "Image1": null,
          "Image2": null,
          "Image3": null,
          "Image4": null,
          "Image5": null,
          "Image6": null,
          "Image7": null,
          "Image8": null,
          "Image9": null,
          "Image10": null,
          "RatingFood": 1,
          "RatingService": 2.5,
          "RatingAtmosphere": 2.5,
          "RatingCostperformance": 2,
          "RatingDrink": null,
          "RatingAccess": null,
          "Budget": 4,
          "Atmosphere": "3",
          "Gender": 2,
          "Generation": 2,
          "Tag": null,
          "Type": "poi",
          "ItemId": null,
          "InputSource": "loco",
          "UsefulCount": 3,
          "CreateDate": "2014-04-30T08:06:26+09:00",
          "UpdateDate": "2015-02-20T04:00:50+09:00",
          "CustomExact1": "1075184"
        }
      }
    },
    {
      "Property": {
        "Uid": "7f036b6d56db3e699b5fcb97d28bbaa62d11edd4",
        "CassetteId": "6a3b6ed40d949a607ebbf0d058cdd838",
        "Comment": {
          "Id": "2d5e9db767c146cef4c6d150857fba9aa1b2a912",
          "Body": "デザイナーズ個室が沢山あって、とてもリラックスして過ごせました。少し照明を落とした店内は趣があって、とても良かったです。新鮮野菜のサラダがとてもヘルシーなのでお勧めです！！",
          "Subject": "お洒落で可愛いお店！！",
          "Author": "ひでだ",
          "Guid": null,
          "Rating": null,
          "VisitDate": null,
          "Scene": null,
          "LinkUrl": "https://www.hotpepper.jp/strJ000989097/report/detail_om0000595047_rn20140426A00153/?vos=cphppallyaho110623021",
          "Image1": null,
          "Image2": null,
          "Image3": null,
          "Image4": null,
          "Image5": null,
          "Image6": null,
          "Image7": null,
          "Image8": null,
          "Image9": null,
          "Image10": null,
          "RatingFood": null,
          "RatingService": null,
          "RatingAtmosphere": null,
          "RatingCostperformance": null,
          "RatingDrink": null,
          "RatingAccess": null,
          "Budget": null,
          "Atmosphere": null,
          "Gender": null,
          "Generation": null,
          "Tag": null,
          "Type": "poi",
          "ItemId": null,
          "InputSource": "yolpcp",
          "UsefulCount": 0,
          "CreateDate": "2014-04-26T00:00:00+09:00",
          "UpdateDate": "2014-04-26T00:00:00+09:00",
          "CustomExact1": "c4f9ecf5f21852ff84a50114637fe410771a6ec2"
        }
      }
    },
    {
      "Property": {
        "Uid": "7f036b6d56db3e699b5fcb97d28bbaa62d11edd4",
        "CassetteId": "6a3b6ed40d949a607ebbf0d058cdd838",
        "Comment": {
          "Id": "72eeeb2707ebc3de71fc45fd42e168e7324a70fc",
          "Body": "和のお店を探していたところ雰囲気が良さそうだったので予約してみました。お店はモダンな和の雰囲気で清潔感があり、おしゃれでした。店員さんも親切で元気があり、いきいきしていました。肝心の料理の味は注文したものはどれも美味しかったです。とくに明太子入り出汁巻き玉子はチーズがたくさん入っており満足でした。お酒の種類も多く、とてもよかったです。お店が混んでいてガヤガヤしていたので注文が遅れたりありました…機会があればぜひ来店したいです。",
          "Subject": "池袋の隠れ家！！",
          "Author": "ゆうくん",
          "Guid": null,
          "Rating": null,
          "VisitDate": null,
          "Scene": null,
          "LinkUrl": "https://www.hotpepper.jp/strJ000989097/report/detail_om0000562995_rn20131023A00006/?vos=cphppallyaho110623021",
          "Image1": null,
          "Image2": null,
          "Image3": null,
          "Image4": null,
          "Image5": null,
          "Image6": null,
          "Image7": null,
          "Image8": null,
          "Image9": null,
          "Image10": null,
          "RatingFood": null,
          "RatingService": null,
          "RatingAtmosphere": null,
          "RatingCostperformance": null,
          "RatingDrink": null,
          "RatingAccess": null,
          "Budget": null,
          "Atmosphere": null,
          "Gender": null,
          "Generation": null,
          "Tag": null,
          "Type": "poi",
          "ItemId": null,
          "InputSource": "yolpcp",
          "UsefulCount": 0,
          "CreateDate": "2013-10-23T00:00:00+09:00",
          "UpdateDate": "2013-10-23T00:00:00+09:00",
          "CustomExact1": "3ee8de96ea20f77e6a498fd9b24c42825c9a2ce2"
        }
      }
    },
    {
      "Property": {
        "Uid": "7f036b6d56db3e699b5fcb97d28bbaa62d11edd4",
        "CassetteId": "6a3b6ed40d949a607ebbf0d058cdd838",
        "Comment": {
          "Id": "4f577ea947c5606ad71c76fd337877993cd89474",
          "Body": "先日休みの日に女友達と2人で立ち寄りました♪店内は明るすぎず暗すぎずとても落ち着いた感じでした！掃除が行き届いてるのか出来たばかりなのかきれいな店内で、暖簾タイプの半個室と扉タイプの完全個室がありました♪2人とかでも居心地がいい感じですよ＾＾料理に関してはアンチョビキャベツや肝の炒め物などを注文しましたがどれも美味しかったです◎2人だったのであまり料理は注文できませんでしたが、鍋などの種類も豊富だったり気になるメニューもおおかったです。次回行く時はもっと大人数でもっと色々注文したいと思います★",
          "Subject": "静かに楽しめました♪",
          "Author": "くるみん",
          "Guid": null,
          "Rating": null,
          "VisitDate": null,
          "Scene": null,
          "LinkUrl": "https://www.hotpepper.jp/strJ000989097/report/detail_om0000568700_rn20131007A00020/?vos=cphppallyaho110623021",
          "Image1": null,
          "Image2": null,
          "Image3": null,
          "Image4": null,
          "Image5": null,
          "Image6": null,
          "Image7": null,
          "Image8": null,
          "Image9": null,
          "Image10": null,
          "RatingFood": null,
          "RatingService": null,
          "RatingAtmosphere": null,
          "RatingCostperformance": null,
          "RatingDrink": null,
          "RatingAccess": null,
          "Budget": null,
          "Atmosphere": null,
          "Gender": null,
          "Generation": null,
          "Tag": null,
          "Type": "poi",
          "ItemId": null,
          "InputSource": "yolpcp",
          "UsefulCount": 0,
          "CreateDate": "2013-10-07T00:00:00+09:00",
          "UpdateDate": "2013-10-07T00:00:00+09:00",
          "CustomExact1": "bba251b3b399757b217a9a67d1caca79af210edc"
        }
      }
    },
    {
      "Property": {
        "Uid": "7f036b6d56db3e699b5fcb97d28bbaa62d11edd4",
        "CassetteId": "6a3b6ed40d949a607ebbf0d058cdd838",
        "Comment": {
          "Id": "81a80952f3ef87b40185d3295cc51f3daaf464c2",
          "Body": "先日友人の誕生日会を行うのに初めて利用させていただきました!!池袋の駅の目の前で近くて雨だったんですけどあまり濡れなくて済みとても便利でした～♪席は個室で、とても雰囲気が良くとてもくつろげました!!!ケーキ付きのコースで予約し、結構ボリュームがあったのでとても満足でした★ただ単品のお料理もとてもおいしそうだったので、次回は単品で利用させて頂こうと思いましたー(＾ω＾)♪",
          "Subject": "友人のBD会♪",
          "Author": "ゆさん",
          "Guid": null,
          "Rating": null,
          "VisitDate": null,
          "Scene": null,
          "LinkUrl": "https://www.hotpepper.jp/strJ000989097/report/detail_om0000566240_rn20130826A00013/?vos=cphppallyaho110623021",
          "Image1": null,
          "Image2": null,
          "Image3": null,
          "Image4": null,
          "Image5": null,
          "Image6": null,
          "Image7": null,
          "Image8": null,
          "Image9": null,
          "Image10": null,
          "RatingFood": null,
          "RatingService": null,
          "RatingAtmosphere": null,
          "RatingCostperformance": null,
          "RatingDrink": null,
          "RatingAccess": null,
          "Budget": null,
          "Atmosphere": null,
          "Gender": null,
          "Generation": null,
          "Tag": null,
          "Type": "poi",
          "ItemId": null,
          "InputSource": "yolpcp",
          "UsefulCount": 0,
          "CreateDate": "2013-08-26T00:00:00+09:00",
          "UpdateDate": "2013-08-26T00:00:00+09:00",
          "CustomExact1": "eef0a49ec6298807c916e6ead35d66999bfa39ea"
        }
      }
    },
    {
      "Property": {
        "Uid": "7f036b6d56db3e699b5fcb97d28bbaa62d11edd4",
        "CassetteId": "6a3b6ed40d949a607ebbf0d058cdd838",
        "Comment": {
          "Id": "41da70b84fccbbb74a57a3adb1f227d0cb805bc2",
          "Body": "会社の飲み会で利用しました！場所は池袋の東口のドンキのすぐ近く♪6名で利用させてもらいました。店内はおしゃれな暖簾がかかった半個室空間。半個室でも全然仲間内でゆったりできますね。個室の部屋もあったようです。4月とはいえ寒かったのでもつ鍋を注文！ぷりっぷりのもつが絶品♪やっぱもつ鍋いいな～女性陣は熱々のチーズフォンデュで盛り上がっていました♪満足のいく居酒屋でした。",
          "Subject": "おもしろい店名♪",
          "Author": "マイルド",
          "Guid": null,
          "Rating": null,
          "VisitDate": null,
          "Scene": null,
          "LinkUrl": "https://www.hotpepper.jp/strJ000989097/report/detail_om0000561459_rn20130422A00013/?vos=cphppallyaho110623021",
          "Image1": null,
          "Image2": null,
          "Image3": null,
          "Image4": null,
          "Image5": null,
          "Image6": null,
          "Image7": null,
          "Image8": null,
          "Image9": null,
          "Image10": null,
          "RatingFood": null,
          "RatingService": null,
          "RatingAtmosphere": null,
          "RatingCostperformance": null,
          "RatingDrink": null,
          "RatingAccess": null,
          "Budget": null,
          "Atmosphere": null,
          "Gender": null,
          "Generation": null,
          "Tag": null,
          "Type": "poi",
          "ItemId": null,
          "InputSource": "yolpcp",
          "UsefulCount": 0,
          "CreateDate": "2013-04-22T00:00:00+09:00",
          "UpdateDate": "2013-04-22T00:00:00+09:00",
          "CustomExact1": "e09ade4c9528b4710ec39fc08f2abaecfa802441"
        }
      }
    },
    {
      "Property": {
        "Uid": "53ea87f4e54fdde837e4f86e18aa40f4e8bc5d40",
        "CassetteId": "40f68cf163a82aeb127f0387eb314b4b",
        "Comment": {
          "Id": "0590f67312b0baaa4331bb5ab4f404cb886df421",
          "Body": "忘年会で利用しました。会社の同期がとってくれたおみせ。\n\n駅からも近く、お料理が美味しかった！普通のチェーンよりワンランク上かな。また利用しまーす！！",
          "Subject": "大満足！！",
          "Author": "zdfgdfgsfhstdh",
          "Guid": "TPJB7K3NIRQKQOTLZXJJSOA26Q",
          "Rating": 5,
          "VisitDate": null,
          "Scene": 2,
          "LinkUrl": "972680",
          "Image1": null,
          "Image2": null,
          "Image3": null,
          "Image4": null,
          "Image5": null,
          "Image6": null,
          "Image7": null,
          "Image8": null,
          "Image9": null,
          "Image10": null,
          "RatingFood": 5,
          "RatingService": 5,
          "RatingAtmosphere": 5,
          "RatingCostperformance": 5,
          "RatingDrink": 5,
          "RatingAccess": 5,
          "Budget": 3,
          "Atmosphere": "1,2,3,4,5",
          "Gender": 1,
          "Generation": 2,
          "Tag": null,
          "Type": "poi",
          "ItemId": null,
          "InputSource": "loco",
          "UsefulCount": 1,
          "CreateDate": "2012-12-25T12:13:27+09:00",
          "UpdateDate": "2015-02-19T22:10:16+09:00",
          "CustomExact1": "972680"
        }
      }
    },
    {
      "Property": {
        "Uid": "53ea87f4e54fdde837e4f86e18aa40f4e8bc5d40",
        "CassetteId": "40f68cf163a82aeb127f0387eb314b4b",
        "Comment": {
          "Id": "92ee6a3e8cdf1e617f55153da8fe0dfb8cbe7350",
          "Body": "同級生との久々の再開で利用しました。\n\nコースを頼んだのですが、普通のチェーンとは一味違い、どれも美味しかったです♪\n\nきちっと区切られた席でまわりもあまり気にならなかったです",
          "Subject": "良い忘年会になりました♪",
          "Author": "zgjhfghzdfhgszdfh",
          "Guid": "M4G6JRWFEKNBKWXPPOEEDT3RDM",
          "Rating": 5,
          "VisitDate": null,
          "Scene": 2,
          "LinkUrl": "972459",
          "Image1": null,
          "Image2": null,
          "Image3": null,
          "Image4": null,
          "Image5": null,
          "Image6": null,
          "Image7": null,
          "Image8": null,
          "Image9": null,
          "Image10": null,
          "RatingFood": 5,
          "RatingService": 5,
          "RatingAtmosphere": 5,
          "RatingCostperformance": 5,
          "RatingDrink": 5,
          "RatingAccess": 5,
          "Budget": 3,
          "Atmosphere": "1,2,3,4,5",
          "Gender": 1,
          "Generation": 2,
          "Tag": null,
          "Type": "poi",
          "ItemId": null,
          "InputSource": "loco",
          "UsefulCount": 0,
          "CreateDate": "2012-12-24T13:57:12+09:00",
          "UpdateDate": "2015-02-19T16:37:03+09:00",
          "CustomExact1": "972459"
        }
      }
    },
    {
      "Property": {
        "Uid": "53ea87f4e54fdde837e4f86e18aa40f4e8bc5d40",
        "CassetteId": "40f68cf163a82aeb127f0387eb314b4b",
        "Comment": {
          "Id": "b892658c99ca3fa8d9b77eae0a73993830209c9d",
          "Body": "冬はやっぱり鍋ですね。しゃぶしゃぶがお手頃でとても美味しかったのが印象的。\n\n友人のお薦めでいってきたのですが、いろんな鍋が揃ってて雰囲気も良い感じのおみせでした。\n\n忘年会シーズンですので予約したほうがよいですね！",
          "Subject": "鍋が充実してました。",
          "Author": "sthysethsthsfghtht",
          "Guid": "MPBNXURQXJO64THXXTST2JJGSM",
          "Rating": 5,
          "VisitDate": null,
          "Scene": 2,
          "LinkUrl": "971708",
          "Image1": null,
          "Image2": null,
          "Image3": null,
          "Image4": null,
          "Image5": null,
          "Image6": null,
          "Image7": null,
          "Image8": null,
          "Image9": null,
          "Image10": null,
          "RatingFood": 5,
          "RatingService": 5,
          "RatingAtmosphere": 5,
          "RatingCostperformance": 5,
          "RatingDrink": 5,
          "RatingAccess": 5,
          "Budget": 3,
          "Atmosphere": "1,2,3,4,5",
          "Gender": 1,
          "Generation": 2,
          "Tag": null,
          "Type": "poi",
          "ItemId": null,
          "InputSource": "loco",
          "UsefulCount": 0,
          "CreateDate": "2012-12-21T15:04:33+09:00",
          "UpdateDate": "2015-02-20T04:38:23+09:00",
          "CustomExact1": "971708"
        }
      }
    },
    {
      "Property": {
        "Uid": "53ea87f4e54fdde837e4f86e18aa40f4e8bc5d40",
        "CassetteId": "40f68cf163a82aeb127f0387eb314b4b",
        "Comment": {
          "Id": "8e2e9aa829174b85dc7acd8ee9711f984175fc07",
          "Body": "駅からも近く、和系のお店。レタスしゃぶしゃぶなど鍋ものが充実していました。\nどれも美味しそうなものばかりで、今回はもつ鍋をチョイス！モツがプリプリしていて絶品でした♪",
          "Subject": "アクセスも良いお店♪",
          "Author": "hdrtjsrthsdfrtjsrjt",
          "Guid": "WTUQZB2TCLEJAOGYGZGNUES5X4",
          "Rating": 5,
          "VisitDate": null,
          "Scene": 2,
          "LinkUrl": "971478",
          "Image1": null,
          "Image2": null,
          "Image3": null,
          "Image4": null,
          "Image5": null,
          "Image6": null,
          "Image7": null,
          "Image8": null,
          "Image9": null,
          "Image10": null,
          "RatingFood": 5,
          "RatingService": 5,
          "RatingAtmosphere": 5,
          "RatingCostperformance": 5,
          "RatingDrink": 5,
          "RatingAccess": 5,
          "Budget": 3,
          "Atmosphere": "1,2,3,4,5",
          "Gender": 1,
          "Generation": 2,
          "Tag": null,
          "Type": "poi",
          "ItemId": null,
          "InputSource": "loco",
          "UsefulCount": 0,
          "CreateDate": "2012-12-20T16:09:23+09:00",
          "UpdateDate": "2015-02-20T05:25:09+09:00",
          "CustomExact1": "971478"
        }
      }
    },
    {
      "Property": {
        "Uid": "53ea87f4e54fdde837e4f86e18aa40f4e8bc5d40",
        "CassetteId": "40f68cf163a82aeb127f0387eb314b4b",
        "Comment": {
          "Id": "a9e81f7af05bdec5242a90b445a7e710eb18cf74",
          "Body": "隠れ家的な感じの和系なお店。\n\nコースで利用しましたが、鍋ものも入っておりお得感があります。\n\n料理ははずれもなく、美味しかったです。\n駅からなかなか近いのも電車ぎりぎりまで飲めるので助かりました。",
          "Subject": "落ち着いた感じのお店。",
          "Author": "ghsdgtjdryjdrtjdrtj",
          "Guid": "WVLWUEQVTSZ2KJPPDAQYDZUXUA",
          "Rating": 5,
          "VisitDate": null,
          "Scene": 2,
          "LinkUrl": "971272",
          "Image1": null,
          "Image2": null,
          "Image3": null,
          "Image4": null,
          "Image5": null,
          "Image6": null,
          "Image7": null,
          "Image8": null,
          "Image9": null,
          "Image10": null,
          "RatingFood": 5,
          "RatingService": 5,
          "RatingAtmosphere": 5,
          "RatingCostperformance": 5,
          "RatingDrink": 5,
          "RatingAccess": 5,
          "Budget": 3,
          "Atmosphere": "1,2,3,4,5",
          "Gender": 1,
          "Generation": 2,
          "Tag": null,
          "Type": "poi",
          "ItemId": null,
          "InputSource": "loco",
          "UsefulCount": 0,
          "CreateDate": "2012-12-19T19:26:54+09:00",
          "UpdateDate": "2015-02-19T22:15:08+09:00",
          "CustomExact1": "971272"
        }
      }
    },
    {
      "Property": {
        "Uid": "53ea87f4e54fdde837e4f86e18aa40f4e8bc5d40",
        "CassetteId": "40f68cf163a82aeb127f0387eb314b4b",
        "Comment": {
          "Id": "ce5d6cd46095c9b34cc2ccd1211662c9c9a74275",
          "Body": "この前忘年会で利用しました。和系でゆったり雰囲気がよく感じられました！！\nおごりだったのでなんとも言えませんが、クーポンとかでおもったよりけっこう安く済んだみたいです。\n\nコース料理だったのですが、アラカルトも美味しそうなものが多く。忘年会や新年会にも使えそうなお店でした。駅から近いのも◎！",
          "Subject": "和系でしゃぶしゃぶが美味しかった！",
          "Author": "hdrtjsrthsdfrtjsrjt",
          "Guid": "WTUQZB2TCLEJAOGYGZGNUES5X4",
          "Rating": 5,
          "VisitDate": null,
          "Scene": 2,
          "LinkUrl": "969610",
          "Image1": null,
          "Image2": null,
          "Image3": null,
          "Image4": null,
          "Image5": null,
          "Image6": null,
          "Image7": null,
          "Image8": null,
          "Image9": null,
          "Image10": null,
          "RatingFood": 5,
          "RatingService": 5,
          "RatingAtmosphere": 5,
          "RatingCostperformance": 5,
          "RatingDrink": 5,
          "RatingAccess": 5,
          "Budget": 3,
          "Atmosphere": "1,2,3,4,5,7",
          "Gender": 1,
          "Generation": 2,
          "Tag": null,
          "Type": "poi",
          "ItemId": null,
          "InputSource": "loco",
          "UsefulCount": 0,
          "CreateDate": "2012-12-13T21:47:41+09:00",
          "UpdateDate": "2015-02-19T17:21:11+09:00",
          "CustomExact1": "969610"
        }
      }
    },
    {
      "Property": {
        "Uid": "53ea87f4e54fdde837e4f86e18aa40f4e8bc5d40",
        "CassetteId": "40f68cf163a82aeb127f0387eb314b4b",
        "Comment": {
          "Id": "8499b101c1f24a119063ed1ed030c76801ce3fd5",
          "Body": "女子2人で利用しました。\n接客はだめですね。料理もなかなか出てきません。料理はまぁまぁ美味しかったかな。\n多分もう行かないです。\nなんでこんなに評価高いのかわかりません。",
          "Subject": "騒がしいです",
          "Author": "のん",
          "Guid": "7YLSRHYUXW4YYQDCKY6XDG42IQ",
          "Rating": 1.5,
          "VisitDate": "2012-10-01T00:00:00+09:00",
          "Scene": 2,
          "LinkUrl": "967664",
          "Image1": null,
          "Image2": null,
          "Image3": null,
          "Image4": null,
          "Image5": null,
          "Image6": null,
          "Image7": null,
          "Image8": null,
          "Image9": null,
          "Image10": null,
          "RatingFood": 3,
          "RatingService": 1.5,
          "RatingAtmosphere": 2,
          "RatingCostperformance": 2.5,
          "RatingDrink": 2.5,
          "RatingAccess": 3.5,
          "Budget": 3,
          "Atmosphere": "4",
          "Gender": 2,
          "Generation": 2,
          "Tag": null,
          "Type": "poi",
          "ItemId": null,
          "InputSource": "loco",
          "UsefulCount": 4,
          "CreateDate": "2012-12-06T00:07:07+09:00",
          "UpdateDate": "2015-02-20T04:36:41+09:00",
          "CustomExact1": "967664"
        }
      }
    },
    {
      "Property": {
        "Uid": "53ea87f4e54fdde837e4f86e18aa40f4e8bc5d40",
        "CassetteId": "40f68cf163a82aeb127f0387eb314b4b",
        "Comment": {
          "Id": "c043f8448cdadf056712ea79e458df44c4b12339",
          "Body": "会社の飲み会で６人で１０月中旬の火曜日利用。\n\n残念ながら期待するような内容のお店ではありませんでした。\n\n\n・全体的に値段がかなり高い。値段に見合わない。ビールは小ジョッキ、料理はメニュー表の写真とだいぶ違う印象で味は普通。\n・若者の集う居酒屋特有の店内の騒がしさ。火曜日でこれですから、金曜日は相当だと思います。この日も仲間の声があまり聞こえませんでした。\n・少人数で回しているのでしょうが、混雑時間帯でないのに呼んでも店員さんがなかなか来ないというのが何回もあり、苛立ちました。空きグラスや皿をこちらから言わないと下げてくれないなんていうのも何回も。\n\n\n良い点を挙げるとすると、\n\n・駅から近い。\n・料理は注文後割とすぐに出てきます。\n\n\n申し訳ありませんが、二度と利用しないと思います。",
          "Subject": "他の方の高評価が納得できません。。",
          "Author": "ひがしん",
          "Guid": "4AEUJA23EGE7PX62ZUJ6YO6F3Y",
          "Rating": 2,
          "VisitDate": "2012-10-01T00:00:00+09:00",
          "Scene": 2,
          "LinkUrl": "962322",
          "Image1": null,
          "Image2": null,
          "Image3": null,
          "Image4": null,
          "Image5": null,
          "Image6": null,
          "Image7": null,
          "Image8": null,
          "Image9": null,
          "Image10": null,
          "RatingFood": 2.5,
          "RatingService": 2,
          "RatingAtmosphere": 2,
          "RatingCostperformance": 1.5,
          "RatingDrink": 2.5,
          "RatingAccess": 5,
          "Budget": 4,
          "Atmosphere": "3",
          "Gender": 1,
          "Generation": 2,
          "Tag": null,
          "Type": "poi",
          "ItemId": null,
          "InputSource": "loco",
          "UsefulCount": 2,
          "CreateDate": "2012-11-18T09:36:40+09:00",
          "UpdateDate": "2015-02-20T00:09:27+09:00",
          "CustomExact1": "962322"
        }
      }
    },
    {
      "Property": {
        "Uid": "53ea87f4e54fdde837e4f86e18aa40f4e8bc5d40",
        "CassetteId": "40f68cf163a82aeb127f0387eb314b4b",
        "Comment": {
          "Id": "d3dc15817dd755b42a69cca75bcd7386aee0441a",
          "Body": "先日友人たちといってきました。\n\n落ち着いた店内で、雰囲気がよいお店でした。\n\n看板メニュー的なもので、レタスしゃぶしゃぶをいただいてきました！！\n\nこれが、ほんと絶品です♪\n\n肉の甘み、旨味とレタスのシャキシャキ感が新食感。\n\nペロリといただけました。",
          "Subject": "絶品のレタしゃぶ",
          "Author": "sdgsergsdfgsv",
          "Guid": "UPIYPKQK45O5NMD2F5WDL5MDCU",
          "Rating": 5,
          "VisitDate": "2012-09-01T00:00:00+09:00",
          "Scene": 2,
          "LinkUrl": "947824",
          "Image1": null,
          "Image2": null,
          "Image3": null,
          "Image4": null,
          "Image5": null,
          "Image6": null,
          "Image7": null,
          "Image8": null,
          "Image9": null,
          "Image10": null,
          "RatingFood": 5,
          "RatingService": 5,
          "RatingAtmosphere": 5,
          "RatingCostperformance": 5,
          "RatingDrink": 5,
          "RatingAccess": 5,
          "Budget": 2,
          "Atmosphere": "1,2,3,4,5",
          "Gender": 1,
          "Generation": 2,
          "Tag": null,
          "Type": "poi",
          "ItemId": null,
          "InputSource": "loco",
          "UsefulCount": 0,
          "CreateDate": "2012-09-26T12:47:43+09:00",
          "UpdateDate": "2015-02-20T02:45:07+09:00",
          "CustomExact1": "947824"
        }
      }
    },
    {
      "Property": {
        "Uid": "7f036b6d56db3e699b5fcb97d28bbaa62d11edd4",
        "CassetteId": "6a3b6ed40d949a607ebbf0d058cdd838",
        "Comment": {
          "Id": "29d05e66f8ff03083c7cc8c99f83400900c4f7cc",
          "Body": "先日友人たちといってきました。落ち着いた店内で、雰囲気がよいお店でした。看板メニュー的なもので、レタスしゃぶしゃぶをいただいてきました！！これが、ほんと絶品です♪肉の甘み、旨味とレタスのシャキシャキ感が新食感。お肉も良い感じの量でしたがペロリといただけました。また、スープのほうも、肉の旨味が溶けて、美味しくいただけます。またぜひ食べたい一品です。",
          "Subject": "絶品でした！！",
          "Author": "satsat",
          "Guid": null,
          "Rating": null,
          "VisitDate": null,
          "Scene": null,
          "LinkUrl": "https://www.hotpepper.jp/strJ000989097/report/detail_om0000545569_rn20120926A00007/?vos=cphppallyaho110623021",
          "Image1": null,
          "Image2": null,
          "Image3": null,
          "Image4": null,
          "Image5": null,
          "Image6": null,
          "Image7": null,
          "Image8": null,
          "Image9": null,
          "Image10": null,
          "RatingFood": null,
          "RatingService": null,
          "RatingAtmosphere": null,
          "RatingCostperformance": null,
          "RatingDrink": null,
          "RatingAccess": null,
          "Budget": null,
          "Atmosphere": null,
          "Gender": null,
          "Generation": null,
          "Tag": null,
          "Type": "poi",
          "ItemId": null,
          "InputSource": "yolpcp",
          "UsefulCount": 0,
          "CreateDate": "2012-09-26T00:00:00+09:00",
          "UpdateDate": "2012-09-26T00:00:00+09:00",
          "CustomExact1": "5198d06da23994a49ffa15ca452c9de75c73e2f9"
        }
      }
    },
    {
      "Property": {
        "Uid": "53ea87f4e54fdde837e4f86e18aa40f4e8bc5d40",
        "CassetteId": "40f68cf163a82aeb127f0387eb314b4b",
        "Comment": {
          "Id": "07485c3b326bd1e9425edc05cc5f5b7bc4854d17",
          "Body": "彼氏と二人で行きました！ 友達に紹介してもらって、 二人でも個室が予約できるとのことで、予約してデートで行きました★ 個室は雰囲気がすごく良くて、彼にも満足してもらいました～ゆっくりできてよかったです。",
          "Subject": "デートで♪",
          "Author": "lododsdo",
          "Guid": "3IMH72PJJFPAZZFS6NJTJDOFJM",
          "Rating": 5,
          "VisitDate": null,
          "Scene": 2,
          "LinkUrl": "943977",
          "Image1": null,
          "Image2": null,
          "Image3": null,
          "Image4": null,
          "Image5": null,
          "Image6": null,
          "Image7": null,
          "Image8": null,
          "Image9": null,
          "Image10": null,
          "RatingFood": 5,
          "RatingService": 5,
          "RatingAtmosphere": 5,
          "RatingCostperformance": 5,
          "RatingDrink": 5,
          "RatingAccess": 5,
          "Budget": 2,
          "Atmosphere": "1,2,3,4,5",
          "Gender": 2,
          "Generation": 2,
          "Tag": null,
          "Type": "poi",
          "ItemId": null,
          "InputSource": "loco",
          "UsefulCount": 0,
          "CreateDate": "2012-09-13T17:55:16+09:00",
          "UpdateDate": "2015-02-19T22:18:21+09:00",
          "CustomExact1": "943977"
        }
      }
    }
  ]
}
