{
  "ResultInfo": {
    "Total": 3,
    "Count": 2,
    "Start": 1,
    "Status": 200,
    "Latency": 0.034786939620972,
    "Description": null,
    "Copyright": "Copyright (C) 2018 Yahoo Japan Corporation. All Rights Reserved."
  },
  "Feature": [
    {
      "Property": {
        "Uid": "8fc2de71d04b26129cf4e75d3054c3f339d0640f",
        "CassetteId": "f36856888c3e162faa2f783099138b94",
        "Comment": {
          "Id": "9c9509e566f35cb5550da39e68ad93874e2757c3",
          "Body": "(*&#39;ω&#39;*)奥のガーデンテラスがいいです。\nカフェモカグラニータを。冷たくておいしい♪ そしてデカい(笑)\nパンケーキやワッフル、サンドイッチ、サラダも充実してます！",
          "Subject": null,
          "Author": "Rettyユーザー",
          "Guid": null,
          "Rating": null,
          "VisitDate": null,
          "Scene": null,
          "LinkUrl": "https://retty.me/area/PRE13/ARE23/SUB2301/100000922135/16983449/",
          "Image1": null,
          "Image2": null,
          "Image3": null,
          "Image4": null,
          "Image5": null,
          "Image6": null,
          "Image7": null,
          "Image8": null,
          "Image9": null,
          "Image10": null,
          "RatingFood": null,
          "RatingService": null,
          "RatingAtmosphere": null,
          "RatingCostperformance": null,
          "RatingDrink": null,
          "RatingAccess": null,
          "Budget": null,
          "Atmosphere": null,
          "Gender": null,
          "Generation": null,
          "Tag": null,
          "Type": "poi",
          "ItemId": null,
          "InputSource": "yolpcp",
          "UsefulCount": 0,
          "CreateDate": "2016-06-04T02:13:32+09:00",
          "UpdateDate": "2016-06-04T02:13:32+09:00",
          "CustomExact1": "08701d471266eb45a03d37af054c07476754707b"
        }
      }
    },
    {
      "Property": {
        "Uid": "8fc2de71d04b26129cf4e75d3054c3f339d0640f",
        "CassetteId": "f36856888c3e162faa2f783099138b94",
        "Comment": {
          "Id": "968f41dd0d788a9237f388d16e04294c3bbe75f4",
          "Body": "オーガニックにこだわったカフェ。オーガニック食材を使用した料理やスイーツ、コーヒーを提供してくれます。オーガニックコーヒーパンケーキ1380円を注文しました。ふわっふわなパンケーキが2枚重ねになっていて、マスカルポーネチーズにオーガニックエスプレッソを加えたソースがたっぷりかけられています。ティラミスっぽい味です。結構量があるのでひとりで1個だときついかも。。シェアするくらいがちょうどよいかな。\nあと、サーモンスクランブルエッグ1480円を注文。卵3個も使ってるそう。スモークサーモン？の塩分がほどよく効いてて旨い。パンケーキのあとに食べると甘いのとしょっぱいのを交互に食べれてよかった。\nあと、お水はセルフサービス。お水にいろんなフルーツが漬けられていて見た目に華やかでした。\nミルクや無脂肪ミルク、ガムシロップ、ハニーシロップ等もセルフサービス。ミルクが置かれてるのなんか嬉しい。\n\n入店したときに店員さんからとくに案内もなかったので注文方法で少し迷いましたが、テーブルで注文するわけではなく、最初にレジで注文しました。\nほんとはバレンタイン限定のいちごチョコパンケーキを食べたかったのですが、バレンタイン当日の11時くらいの時点で品切れですって。。。",
          "Subject": null,
          "Author": "Rettyユーザー",
          "Guid": null,
          "Rating": null,
          "VisitDate": null,
          "Scene": null,
          "LinkUrl": "https://retty.me/area/PRE13/ARE23/SUB2301/100000922135/14194870/",
          "Image1": null,
          "Image2": null,
          "Image3": null,
          "Image4": null,
          "Image5": null,
          "Image6": null,
          "Image7": null,
          "Image8": null,
          "Image9": null,
          "Image10": null,
          "RatingFood": null,
          "RatingService": null,
          "RatingAtmosphere": null,
          "RatingCostperformance": null,
          "RatingDrink": null,
          "RatingAccess": null,
          "Budget": null,
          "Atmosphere": null,
          "Gender": null,
          "Generation": null,
          "Tag": null,
          "Type": "poi",
          "ItemId": null,
          "InputSource": "yolpcp",
          "UsefulCount": 0,
          "CreateDate": "2016-03-05T22:39:56+09:00",
          "UpdateDate": "2016-03-05T22:39:56+09:00",
          "CustomExact1": "9163d4fcc6257afac68a4bd93e275808e9a9128a"
        }
      }
    }
  ]
}
