{
  "ResultInfo": {
    "Count": 1,
    "Total": 1,
    "Start": 1,
    "Status": 200,
    "Description": "",
    "Copyright": "",
    "Latency": 0.022,
    "SearchInfo": {
      "QueryCategory": "Gourmet",
      "Sort": "wwd",
      "QueryClass": "Business",
      "WwdFrom": [
        "2018/03/12"
      ],
      "WwdTo": [
        "2018/03/18"
      ],
      "WebTopicFrom": [
        "2018/03/12"
      ],
      "WebTopicTo": [
        "2018/03/18"
      ]
    }
  },
  "Feature": [
    {
      "Id": "777004186801",
      "Gid": "QkWE5CqaBsQ",
      "Name": "ホテル椿山荘東京",
      "Geometry": {
        "Type": "point",
        "Coordinates": "139.72616186479,35.712485128152"
      },
      "Category": [
        "結婚式場"
      ],
      "Description": "幾重にも四季を重ね、豊かに育まれたホテル椿山荘東京の庭園。いつの時代も変わらないのは、ここが祝福にあふれた場所であること。木々は季節の喜びを歌って訪れた人を癒し、ふたりがいつでもまた帰ってこられる場所として、全ての空間が日々磨かれている",
      "Style": [],
      "Property": {
        "Uid": "76a8ad4fa64acf04a9d66d0e1cb8895f9f8089e0",
        "CassetteId": "78ef8c916628ffb0acaafadb8a6e1842",
        "Yomi": "ホテルチンザンソウトウキョウ",
        "Country": {
          "Code": "JP",
          "Name": "日本"
        },
        "Address": "東京都文京区関口２－１０－８",
        "AddressElement": [
          {
            "Code": "13",
            "Name": "東京都",
            "Kana": "とうきょうと",
            "Level": "prefecture"
          },
          {
            "Code": "13105",
            "Name": "文京区",
            "Kana": "ぶんきょうく",
            "Level": "city"
          },
          {
            "Code": "13105008",
            "Name": "関口",
            "Kana": "せきぐち",
            "Level": "oaza"
          },
          {
            "Code": "13105008002",
            "Name": "２丁目",
            "Kana": "２ちょうめ",
            "Level": "aza"
          }
        ],
        "GovernmentCode": "13105008002",
        "AddressMatchingLevel": "6",
        "Tel1": "03-3943-0417",
        "Genre": [
          {
            "Code": "0414001",
            "Name": "結婚式場"
          }
        ],
        "Building": [
          {
            "Id": "B@INTUDhubO",
            "Name": "ペストリー＆チーズショップ",
            "Floor": "3",
            "Area": "3006"
          }
        ],
        "SearchArea": [
          {
            "Code": "113000000",
            "Name": "東京都"
          },
          {
            "Code": "113210000",
            "Name": "新宿東口・歌舞伎町・大久保・早稲田"
          },
          {
            "Code": "113210600",
            "Name": "江戸川橋"
          }
        ],
        "Station": [
          {
            "Id": "22545",
            "SubId": "2254501",
            "Name": "江戸川橋",
            "Railway": "東京メトロ有楽町線",
            "Exit": "1a",
            "ExitId": "3353",
            "Distance": "623",
            "Time": "7",
            "Geometry": {
              "Type": "point",
              "Coordinates": "139.731332,35.710380"
            }
          },
          {
            "Id": "22690",
            "SubId": "2269001",
            "Name": "護国寺",
            "Railway": "東京メトロ有楽町線",
            "Exit": "6",
            "ExitId": "3991",
            "Distance": "813",
            "Time": "10",
            "Geometry": {
              "Type": "point",
              "Coordinates": "139.727929,35.717739"
            }
          },
          {
            "Id": "23054",
            "SubId": "2305401",
            "Name": "早稲田(都電荒川線)",
            "Railway": "都電荒川線",
            "Exit": "出口",
            "ExitId": "5441",
            "Distance": "1064",
            "Time": "13",
            "Geometry": {
              "Type": "point",
              "Coordinates": "139.718935,35.711844"
            }
          }
        ],
        "Access1": "江戸川橋駅／JR目白駅より新宿駅西口行き都バス10分（ホテル椿山荘東京前下車）、有楽町線江戸川橋駅1a出口より徒歩10分、JR池袋駅西口バスターミナル7番よりシャトルバスあり（土日祝のみ運行）",
        "CatchCopy": "【140年の時を紡いできた祝福の森】変わらぬ美しさで、母娘二代に選ばれるホテル",
        "CreateDate": "2013-05-16T08:20:50+09:00",
        "StorageUrl": "https://map.yahooapis.jp/io/v1/storage/poi/78ef8c916628ffb0acaafadb8a6e1842/poi/777004186801",
        "LeadImage": "https://iwiz-olp.c.yimg.jp/c/olp/78/78ef8c916628ffb0acaafadb8a6e1842/image/49/36/1001053423/1001053424/001004361562.jpg",
        "ParkingFlag": "true",
        "SmartPhoneCouponFlag": "false",
        "LocoReviewCount": "1076",
        "LocoRating": "4.30",
        "WebTopic": {
          "Label": "0",
          "Score": "50",
          "Buzz": "0"
        },
        "KeepCount": "479",
        "OpenForBusiness": "",
        "Detail": {
          "PcUrl1": "http://zexy.net/wedding/c_7770041868/?vos=nxywalsb20130227001",
          "Image1": "https://iwiz-olp.c.yimg.jp/c/olp/78/78ef8c916628ffb0acaafadb8a6e1842/image/49/36/1001053423/1001053424/001004361562.jpg",
          "WededingCeremonialStyle1": "教会式\\270,000、人前式\\70,200～、神前式\\54,000～、仏前式\\54,000",
          "WeddingPartyFoodCharge1": "フレンチ・仏蘭西会席　\\15,120～、和 \\21,600～",
          "WeddingPartyDrinkCharge1": "\\4,320～",
          "WededingCeremonialCapacity": "着席2名～630名、立食20名～2000名",
          "WeddingPartyBrownBaggingCharge1": "衣裳（有料）、引出物（有料）",
          "WeddingFacilitiesComment": "写真室、美容室、クローク、スクリーン、照明、宿泊施設、ピアノ、控室、ガーデン、音響、その他",
          "WeddingAccommodation": "有（260室）",
          "WeddingAfterParty1": "館内バンケットでの二次会も可",
          "WeddingPickUp": "土日祝　池袋駅よりシャトルバス運行有り",
          "WeddingPayment": "申込み時に申込金必要※1週間前に全額支払い。クレジットカード払い可能",
          "WeddingBusinessHour": "平日11：00～19：00、土日祝10：00～19：00（火曜定休※祝休日他を除く）",
          "WeddingReferenceComment": "平日11：00～19：00、土日祝10：00～19：00（火曜定休※祝休日他を除く）",
          "WeddingUsePossibleTime": "9：00～22：00",
          "WeddingReservation": "1年6カ月前から",
          "WeddingParking": "400台（4時間まで無料）",
          "WeddingVisitReservationPcUrl1": "https://zexy.net/entry/kengakuYoyaku/?gyoshuCd=01&clientCd=7770041868&vos=nxywalsb20130227001&memberRegistFlg=0",
          "WeddingVisitReservationSmartPhoneUrl1": "https://zexy.net/s/entry/kengakuYoyaku/?gyoshuCd=01&clientCd=7770041868&vos=nxywalsb20130227001",
          "WeddingReportTitle1": "森のように緑豊かな庭園を眺めながら、美食を味わう優雅な披露宴",
          "WeddingReportSchejule1": "2013年04月28日",
          "WeddingReportDetailUrl1": "http://zexy.net/wedding/c_7770041868/exp/s_1001718265/?vos=nxywalsb20130227001",
          "ReportTitle2": "日本庭園を望む歴史あるホテルで、国境を越え叶えた温かいひと時",
          "ReportSchejule2": "2013年04月06日",
          "ReportDetailUrl2": "http://zexy.net/wedding/c_7770041868/exp/s_1001821400/?vos=nxywalsb20130227001",
          "ReportTitle3": "格式が高い豪華な会場で、エンターテイメントにとんだ結婚式",
          "ReportSchejule3": "2013年03月02日",
          "ReportDetailUrl3": "http://zexy.net/wedding/c_7770041868/exp/s_1001620538/?vos=nxywalsb20130227001",
          "Copyright": "",
          "OnlineReserveRequestFlag": "true",
          "ReservationLabelCode": "1",
          "ReservationFlag": "true",
          "Reservation": "可",
          "CassetteOwner": "ゼクシィ（株式会社リクルートマーケティングパートナーズ）",
          "CassetteHeader": "ゼクシィ",
          "CassetteFooter": "ゼクシィ",
          "CassetteOwnerUrl": "http://zexy.net/",
          "CassetteOwnerMobileUrl": "",
          "CassetteOwnerLogoImage": "https://iwiz-olp.c.yimg.jp/c/olp/78/78ef8c916628ffb0acaafadb8a6e1842/info/1c/7d/thumbnail/logo_zexy.png",
          "YUrl": "https://loco.yahoo.co.jp/place/g-QkWE5CqaBsQ/"
        }
      }
    }
  ]
}
